digraph  {
0 [class="start active", fillcolor=green, fontsize=12, label=START, style=filled];
"-1" [class=end, fillcolor=red, fontsize=12, label=END, style=filled];
1 [class=active, fontsize=12, label=action_session_start];
2 [class=active, fontsize=12, label=utter_first_time_listing_pizzas];
3 [class=active, fontsize=12, label=utter_list_pizzas];
4 [class=active, fontsize=12, label=utter_pizza_size_request];
5 [class=active, fontsize=12, label=utter_pizza_size];
6 [class=active, fontsize=12, label=utter_order_confirmation];
7 [class=active, fontsize=12, label=utter_processing_payment];
8 [class=active, fontsize=12, label=utter_done_paying];
9 [class=active, fontsize=12, label=utter_thank_you];
10 [class="intent dashed active", label="  ?  ", shape=rect];
11 [class="intent active", fillcolor=lightblue, label="order pizza", shape=rect, style=filled];
12 [class="intent active", fillcolor=lightblue, label=margherita, shape=rect, style=filled];
13 [class="intent active", fillcolor=lightblue, label=small, shape=rect, style=filled];
14 [class="intent active", fillcolor=lightblue, label=yes, shape=rect, style=filled];
0 -> "-1"  [class="", key=NONE, label=""];
0 -> 1  [class=active, key=NONE, label=""];
1 -> 11  [class=active, key=0];
2 -> 3  [class=active, key=NONE, label=""];
3 -> 12  [class=active, key=0];
4 -> 5  [class=active, key=NONE, label=""];
5 -> 13  [class=active, key=0];
6 -> 14  [class=active, key=0];
7 -> 8  [class=active, key=NONE, label=""];
8 -> 9  [class=active, key=NONE, label=""];
9 -> 10  [class=active, key=NONE, label=""];
11 -> 2  [class=active, key=0];
12 -> 4  [class=active, key=0];
13 -> 6  [class=active, key=0];
14 -> 7  [class=active, key=0];
}
