Begining the initialization file parsing.
Start tag: HTML
Texto: 

Start tag: HEAD
Texto: 

Start tag: TITLE
Texto: Space Invaders
Etiqueta fin: TITLE
Texto: 

Start tag: VERSION
Texto: 0.6.1
Etiqueta fin: VERSION
Texto: 

Start tag: TYPE
Texto: Level
Etiqueta fin: TYPE
Texto: 

Start tag: LEVEL
Texto: 1
Etiqueta fin: LEVEL
Texto: 

Etiqueta fin: HEAD
Texto: 

Start tag: BODY
Texto: 

Start tag: SHOOTS
Texto: 15
Etiqueta fin: SHOOTS
Texto: 

Start tag: REGENERATION
Texto: 
0
Etiqueta fin: REGENERATION
Texto: 

Start tag: CHARACTER
Texto: 

Start tag: NAME
Texto: PLAYER
Etiqueta fin: NAME
Texto: 

Start tag: HAVE
Texto: 
 
Start tag: HEALTH
Texto: 10
Etiqueta fin: HEALTH
Texto: 

Etiqueta fin: HAVE
Texto: 

Start tag: POSITION
Texto: 

Start tag: X
Texto: 10
Etiqueta fin: X
Texto: 

Start tag: Y
Texto: 10
Etiqueta fin: Y
Texto: 

Start tag: Z
Texto: 0
Etiqueta fin: Z
Texto: 

Etiqueta fin: POSITION
Texto: 

Etiqueta fin: CHARACTER
Texto: 

Start tag: CHARACTER
Texto: 

Start tag: NAME
Texto: SHIP
Etiqueta fin: NAME
Texto: 

Start tag: HAVE
Start tag: HEALTH
Texto: 10
Etiqueta fin: HEALTH
Etiqueta fin: HAVE
Texto: 

Etiqueta fin: CHARACTER
Texto: 

Start tag: NUMSS
Texto: 3
Etiqueta fin: NUMSS
Texto: 

Start tag: BUNKERDEF
Texto: 0
Etiqueta fin: BUNKERDEF
Texto: 

Start tag: BUNKER
Texto: 

Start tag: ID
Texto: 0
Etiqueta fin: ID
Texto: 

Start tag: LINE
Texto: 00000011000000
Etiqueta fin: LINE
Texto: 

Start tag: LINE
Texto: 00000011000000
Etiqueta fin: LINE
Texto: 

Start tag: LINE
Texto: 00000111100000
Etiqueta fin: LINE
Texto: 

Start tag: LINE
Texto: 00001111110000
Etiqueta fin: LINE
Texto: 

Start tag: LINE
Texto: 00011111111000
Etiqueta fin: LINE
Texto: 

Start tag: LINE
Texto: 00111111111100
Etiqueta fin: LINE
Texto: 

Start tag: LINE
Texto: 01111111111110
Etiqueta fin: LINE
Texto: 

Start tag: LINE
Texto: 11111111111111
Etiqueta fin: LINE
Texto: 

Etiqueta fin: BUNKER
Texto: 

Start tag: BUNKER
Texto: 

Start tag: ID
Texto: 1
Etiqueta fin: ID
Texto: 

Start tag: LINE
Texto: 10000000000001
Etiqueta fin: LINE
Texto: 

Start tag: LINE
Texto: 10000111100001
Etiqueta fin: LINE
Texto: 

Start tag: LINE
Texto: 10000000000001
Etiqueta fin: LINE
Texto: 

Start tag: LINE
Texto: 11111111111111
Etiqueta fin: LINE
Texto: 

Start tag: LINE
Texto: 11111111111111
Etiqueta fin: LINE
Texto: 

Start tag: LINE
Texto: 10000000000001
Etiqueta fin: LINE
Texto: 

Start tag: LINE
Texto: 10000111100001
Etiqueta fin: LINE
Texto: 

Start tag: LINE
Texto: 10000000000001
Etiqueta fin: LINE
Texto: 

Etiqueta fin: BUNKER
Texto: 

Start tag: BUNKER
Texto: 

Start tag: ID
Texto: 2
Etiqueta fin: ID
Texto: 

Start tag: LINE
Texto: 11111111111111
Etiqueta fin: LINE
Texto: 

Start tag: LINE
Texto: 10000000000001
Etiqueta fin: LINE
Texto: 

Start tag: LINE
Texto: 10000011000001
Etiqueta fin: LINE
Texto: 

Start tag: LINE
Texto: 10000111100001
Etiqueta fin: LINE
Texto: 

Start tag: LINE
Texto: 10000111100001
Etiqueta fin: LINE
Texto: 

Start tag: LINE
Texto: 10000011000001
Etiqueta fin: LINE
Texto: 

Start tag: LINE
Texto: 10000000000001
Etiqueta fin: LINE
Texto: 

Start tag: LINE
Texto: 11111111111111
Etiqueta fin: LINE
Texto: 

Etiqueta fin: BUNKER
Texto: 

Start tag: BUNKER
Texto: 

Start tag: ID
Texto: 3
Etiqueta fin: ID
Texto: 

Start tag: LINE
Texto: 11000100100011
Etiqueta fin: LINE
Texto: 

Start tag: LINE
Texto: 10100011000101
Etiqueta fin: LINE
Texto: 

Start tag: LINE
Texto: 10010011001001
Etiqueta fin: LINE
Texto: 

Start tag: LINE
Texto: 10001100110001
Etiqueta fin: LINE
Texto: 

Start tag: LINE
Texto: 10001100110001
Etiqueta fin: LINE
Texto: 

Start tag: LINE
Texto: 10010011001001
Etiqueta fin: LINE
Texto: 

Start tag: LINE
Texto: 10100011000101
Etiqueta fin: LINE
Texto: 

Start tag: LINE
Texto: 11000100100011
Etiqueta fin: LINE
Texto: 

Etiqueta fin: BUNKER
Texto: 

Etiqueta fin: BODY
Texto: 

Etiqueta fin: HTML
