# 3ds Max Wavefront OBJ Exporter v0.97b - (c)2007 guruware
# File Created: 18.08.2016 04:08:22

#
# object Box004
#

v  -334.1052 149.2344 5.1501
v  -244.4055 154.3846 0.0000
v  -339.2553 244.0843 5.1502
v  -244.4055 244.0843 0.0000
v  -334.1052 149.2344 94.8499
v  -239.2553 154.3846 94.8499
v  -339.2553 244.0843 94.8499
v  -244.4055 249.2344 94.8499
v  -339.2553 154.3846 5.1501
v  -334.1052 154.3846 0.0000
v  -239.2553 154.3846 5.1501
v  -244.4055 149.2344 5.1501
v  -334.1052 249.2344 5.1502
v  -334.1052 244.0843 0.0000
v  -244.4055 249.2344 5.1502
v  -239.2553 244.0843 5.1502
v  -334.1052 154.3846 100.0000
v  -339.2553 154.3846 94.8499
v  -244.4055 154.3846 100.0000
v  -244.4055 149.2344 94.8499
v  -334.1052 244.0843 100.0000
v  -334.1052 249.2344 94.8499
v  -244.4055 244.0843 100.0000
v  -239.2553 244.0843 94.8499
# 24 vertices

g Box004
f 10 14 4 2 
f 17 19 23 21 
f 1 12 20 5 
f 11 16 24 6 
f 15 13 22 8 
f 3 9 18 7 
f 1 9 10 
f 2 11 12 
f 3 13 14 
f 4 15 16 
f 5 17 18 
f 6 19 20 
f 7 21 22 
f 8 23 24 
f 10 9 3 14 
f 14 13 15 4 
f 4 16 11 2 
f 2 12 1 10 
f 17 5 20 19 
f 19 6 24 23 
f 23 8 22 21 
f 21 7 18 17 
f 12 11 6 20 
f 5 18 9 1 
f 16 15 8 24 
f 13 3 7 22 
# 18 polygons - 8 triangles

