-1.088836e+00 6.756787e+00 -2.420044e+00 3.088477e+00 -8.591994e+00 -1.408488e+01 -5.527212e+00 -6.048858e+00 2.415127e+00 -4.360259e+00 -5.238892e+00 -3.951875e+00 1.990729e+01 3.568344e-01 -7.008740e-01 -5.805667e-01 -8.681453e-01 1.172705e+00 7.276772e-01 6.886444e-01 -1.672361e-01 -1.275383e+00 -1.514862e-01 2.550963e+00 1.229293e-01 -4.898148e-02 -1.075951e-01 -1.196266e-01 2.636534e-01 -3.021887e-01 -1.073742e-01 -4.638283e-01 -3.483272e-03 3.278308e-01 -4.538984e-01 3.156282e-01 5.003475e-01 2.652482e-01 5.097464e-02 
-2.657214e-01 6.296609e+00 -4.744225e+00 -9.172114e-01 -4.904838e+00 -1.172860e+01 -6.039821e+00 -2.528075e+00 -2.653627e-01 -4.606111e+00 6.827657e-01 -3.709000e+00 1.974516e+01 3.750122e-01 -9.907633e-01 -5.605322e-01 -1.163430e+00 1.174566e+00 -2.912455e-01 9.994602e-02 3.066471e-01 -1.732817e+00 6.651660e-01 3.734722e+00 2.212655e-01 5.661602e-02 -3.546670e-01 4.360819e-03 6.070268e-01 -5.020171e-01 -4.229662e-01 -7.440106e-01 3.686687e-02 3.482951e-01 -7.226958e-01 3.993569e-01 2.190475e-01 4.613318e-01 8.133335e-02 
2.837786e-01 3.482506e+00 -4.160788e+00 7.505948e-01 -4.572049e+00 -1.162464e+01 -1.827685e+00 -8.645431e+00 -2.621542e+00 -4.994764e+00 4.555096e+00 -3.458666e+00 1.974345e+01 -1.902300e-01 -1.154062e+00 7.276831e-01 -2.231447e+00 6.349030e-01 -1.082003e+00 9.655772e-01 1.234976e+00 -3.316158e+00 1.018329e+00 4.460822e+00 1.400002e+00 1.530930e-01 -4.734526e-01 2.631471e-01 7.266597e-01 -5.073785e-01 -4.112607e-01 -6.952933e-01 -1.671856e-02 4.607736e-01 -7.011314e-01 5.279290e-01 -3.667916e-01 4.797418e-01 7.156917e-02 
9.991804e-02 3.440111e+00 -4.352334e+00 -1.559732e+00 -4.729137e+00 -1.677123e+01 -6.877245e+00 -3.217336e+00 -3.730624e+00 -7.171761e-01 8.537724e+00 -3.092152e+00 2.027229e+01 -1.142968e+00 -4.524758e-01 1.800442e+00 -2.696580e+00 -6.732253e-01 -2.087535e+00 7.345123e-01 8.731333e-01 -3.868474e+00 1.260391e+00 2.691271e+00 1.791052e+00 2.566481e-01 -3.974282e-01 5.159241e-01 6.218477e-01 -2.021833e-01 -2.762072e-01 -6.886372e-02 1.734322e-02 4.497231e-02 -2.593975e-01 3.257098e-01 -1.097576e+00 3.491613e-01 7.990858e-03 
-2.222806e+00 2.414725e+00 1.022426e+00 -7.747497e+00 -5.505330e+00 -1.697358e+01 -2.806135e-01 4.706528e-01 -1.243303e+01 -1.213083e+00 1.313774e+01 2.739712e+00 2.040919e+01 -1.251438e+00 3.457175e-01 1.872244e+00 -2.638462e+00 4.029713e-02 -1.850644e+00 2.877685e-01 1.853389e+00 -3.713211e+00 2.190547e+00 1.238730e+00 1.736745e+00 2.088484e-01 -4.168015e-02 4.132073e-01 9.383714e-03 4.364458e-01 4.055359e-02 4.373696e-01 -7.077568e-01 -2.615154e-01 1.113084e+00 4.017813e-02 -1.946748e+00 -1.625023e-01 -3.616432e-02 
-4.727272e+00 4.568121e+00 1.666380e+00 -1.015107e+01 -7.804324e+00 -1.949181e+01 -3.140795e+00 -2.720450e+00 -1.470199e+01 -1.949969e-01 9.847802e+00 2.147068e+00 2.069553e+01 -1.081525e+00 8.389673e-01 1.976425e+00 -1.970839e+00 9.083287e-02 -2.512434e-01 5.255665e-01 2.223022e-01 -2.831278e+00 1.707606e+00 -1.421137e-01 1.798701e+00 6.869259e-02 3.370696e-01 -2.426842e-02 -4.141138e-01 8.158294e-01 4.559194e-01 8.368595e-01 -1.049482e+00 -1.220396e-01 2.039354e+00 -2.300829e-01 -1.949695e+00 -2.934248e-01 -5.484678e-02 
-3.559818e+00 4.647089e+00 2.191077e+00 -8.146049e+00 -2.832970e+00 -1.951758e+01 -2.257067e+00 3.730707e-01 -1.570191e+01 5.696880e+00 1.009371e+01 2.605449e+00 2.057607e+01 -4.293527e-01 2.662528e-01 6.866101e-01 -4.120887e-01 4.556418e-01 1.866991e-01 -2.468734e+00 2.528144e-01 1.730664e+00 9.956118e-01 -3.856226e+00 5.836663e-01 6.624909e-02 4.998326e-01 -3.912412e-01 -5.826004e-01 8.123693e-01 3.377035e-01 5.819530e-01 -1.084161e+00 -1.030779e-01 1.926578e+00 -5.458555e-01 -1.568256e+00 -4.078345e-01 -2.856659e-02 
-4.639199e+00 6.518766e+00 4.945467e+00 -1.121465e+01 -5.611153e+00 -1.675546e+01 -3.261185e+00 -2.057034e+00 -1.625257e+01 4.365872e+00 9.349170e+00 5.968482e+00 2.053231e+01 1.313369e-01 -5.340855e-01 3.226905e-01 2.693795e-01 1.398699e+00 1.078090e+00 -3.134647e+00 1.063222e+00 3.606359e+00 7.074436e-01 -4.509725e+00 9.004668e-01 5.371380e-02 5.264974e-01 -4.667779e-01 -6.066300e-01 5.646867e-01 1.214895e-01 1.427384e-02 -3.947285e-01 4.932918e-01 7.260195e-01 -6.159239e-01 -6.078658e-01 -4.480802e-01 8.986721e-03 
-4.413606e+00 2.770667e+00 2.815933e+00 -9.276149e+00 -4.323706e+00 -1.740826e+01 -1.256409e+01 1.403017e+00 -3.004420e+00 1.484542e+00 -5.894076e+00 3.747336e+00 2.082204e+01 6.412941e-01 -9.239620e-01 -2.138898e-01 3.032752e-01 1.074881e+00 3.944536e-01 -3.302929e+00 9.175393e-01 2.700859e+00 -3.864980e-02 -4.418744e+00 1.466897e-01 7.350483e-02 3.185251e-01 -8.507023e-02 -2.046110e-01 1.328085e-01 -4.512397e-01 -1.125600e-01 1.058660e+00 4.498075e-01 -9.796364e-01 -6.462635e-01 1.014774e+00 -1.784461e-01 5.471591e-03 
-3.643693e+00 2.835905e+00 2.967405e+00 -8.239120e+00 -6.545946e-02 -1.515601e+01 -1.366052e+01 2.080689e+00 -3.018940e+00 5.448390e+00 -4.706933e+00 6.078459e+00 2.084111e+01 1.015639e+00 -8.998149e-01 -6.064744e-01 4.949125e-01 3.886606e-01 -2.837515e-01 -1.030978e+00 2.356399e+00 3.137223e-01 -8.548825e-01 -2.900184e+00 -2.232122e-01 1.099983e-01 2.780185e-02 1.543032e-01 1.506009e-01 7.825192e-02 -1.107968e+00 -1.521873e-01 1.594304e+00 1.670677e-03 -1.296022e+00 -7.854336e-01 1.483959e+00 -2.862439e-01 -2.378254e-03 
-8.510998e-01 1.868710e+00 2.110659e+00 -8.117438e+00 -2.314110e-01 -1.834503e+01 -1.357204e+01 2.891905e+00 -8.814438e+00 4.962372e+00 -4.971958e+00 3.283910e+00 2.078919e+01 7.211220e-01 2.376630e-02 1.281374e-01 1.391872e-01 -1.295537e+00 3.048202e-01 1.772730e+00 1.855263e+00 -1.521199e+00 -1.454542e+00 4.128745e-01 2.532753e-01 6.546478e-02 -3.880175e-01 2.668191e-01 2.938670e-01 3.217374e-01 -9.591653e-01 -1.765500e-02 1.448567e+00 -5.677907e-01 -6.950743e-01 -3.016871e-01 1.424798e+00 6.422852e-02 -2.032450e-02 
-1.342258e+00 2.470670e+00 2.265732e+00 -9.319442e+00 -5.713997e+00 -1.770583e+01 -7.912099e+00 8.980515e+00 -1.177895e+01 -1.647455e+00 -5.612808e+00 5.084135e+00 2.109873e+01 2.304322e-01 -2.364335e-01 9.046814e-01 7.426831e-01 -2.955930e+00 3.619706e-01 2.299045e+00 6.027137e-01 -7.627234e-01 -2.511778e+00 4.942630e-01 -5.840455e-01 4.584255e-02 -8.036019e-01 4.467267e-01 5.700187e-02 5.758002e-01 2.350158e-03 -3.761578e-03 6.669257e-01 -9.991894e-01 1.768492e-01 4.661525e-01 8.213013e-01 5.051277e-02 -6.619883e-02 
-1.958714e+00 3.072115e+00 3.807457e+00 -8.040051e+00 -7.977123e+00 -1.460925e+01 -6.574648e+00 7.229421e+00 -6.230408e+00 -2.240247e+00 -3.376766e+00 5.510875e+00 2.102056e+01 -9.061902e-01 7.844253e-02 4.998673e-01 1.788077e+00 -2.048650e+00 -1.668243e-02 2.274893e+00 -1.044572e+00 -2.362902e-01 -7.186377e-01 1.008023e+00 6.482490e-01 3.960228e-03 -1.150513e+00 5.593489e-01 -5.911678e-01 5.717096e-01 1.456813e+00 2.437358e-01 4.952345e-02 -6.549081e-01 5.157977e-01 7.974623e-01 -6.055815e-02 -2.285297e-01 -1.114333e-01 
-1.937725e+00 1.052034e+00 6.642413e+00 -4.564397e+00 -1.097225e+01 -1.521405e+01 -5.663994e+00 2.925500e+00 -8.124572e+00 -3.509189e+00 -3.033214e+00 2.044749e+00 2.095464e+01 -2.188714e+00 1.306480e+00 -5.073301e-01 2.549469e+00 7.769676e-01 -1.418080e-01 2.052568e+00 -1.189631e+00 5.555140e-01 1.107928e+00 9.087484e-01 -1.681352e-01 -1.902435e-01 -1.247281e+00 8.101465e-01 -1.015916e+00 1.986577e-01 1.983142e+00 8.916157e-01 8.421934e-02 -7.420403e-02 7.703995e-01 6.826128e-01 -2.162857e-01 -4.660054e-01 -1.301205e-01 
-5.084317e+00 2.970240e+00 2.421655e+00 -1.554576e+00 -7.845531e+00 -1.967433e+01 -3.321630e+00 6.965552e-01 -1.182308e+01 2.300050e+00 -1.221639e+00 8.044847e+00 2.088104e+01 -3.821872e+00 2.049054e+00 -2.121696e+00 2.094343e+00 4.122078e+00 1.775389e+00 2.143585e+00 -5.231047e-01 3.986712e-01 7.229162e-01 -9.715893e-02 -1.097328e+00 -3.736590e-01 -7.810311e-01 5.910162e-01 -9.216921e-01 -1.904037e-01 9.037492e-01 1.117284e+00 -3.070809e-01 1.689371e-01 8.488775e-01 -4.851871e-01 -2.342105e-01 -1.102096e+00 -9.174024e-02 
-1.072303e+01 9.054009e+00 4.219823e-01 1.851631e-01 -1.894955e+00 -1.588233e+01 7.242338e-01 6.298796e+00 -6.205047e+00 1.622035e+00 -2.146629e+00 2.976472e+00 2.021727e+01 -4.548132e+00 2.828993e+00 -2.864117e+00 1.582839e+00 3.874418e+00 3.924014e+00 2.785796e+00 -2.903991e-02 2.771793e+00 1.805094e-01 -3.457417e-02 -2.041284e+00 -4.159506e-01 1.233822e-01 -1.096808e-01 -3.383766e-01 -5.099564e-01 -8.862658e-01 7.581048e-01 -8.143951e-01 -2.156743e-01 3.189762e-01 -1.032615e+00 -4.180830e-02 -8.265079e-01 -8.072585e-03 
-1.667542e+01 9.316396e+00 -3.690806e+00 5.688203e-02 8.094619e+00 -5.398169e+00 9.491648e-01 2.927250e+00 -5.196815e+00 -1.191278e+00 -4.305853e+00 -4.416278e-01 1.952095e+01 -3.631637e+00 2.272267e+00 -2.930199e+00 1.319374e+00 9.213711e-01 3.536828e+00 3.728752e-01 -7.801817e-01 2.899958e+00 -2.680864e+00 3.086320e-01 -3.925655e+00 -3.418875e-01 1.170018e+00 -8.760851e-01 3.308680e-01 -5.484668e-01 -1.833483e+00 -3.411629e-01 -1.250376e+00 -4.936221e-01 -2.931373e-01 -5.901219e-01 -8.503184e-02 -1.475879e-01 1.861672e-02 
-1.888283e+01 1.202392e+01 -4.621943e+00 2.544067e+00 4.297607e-01 -2.732059e+00 6.129586e+00 1.664953e+00 2.421262e+00 -8.609779e-01 -1.663978e+00 -3.918432e+00 1.955494e+01 -1.666921e+00 6.464700e-01 -1.794961e+00 3.871713e-01 -2.054007e+00 2.767996e+00 -1.134052e+00 -2.139463e+00 8.997518e-01 -2.353256e+00 4.968115e-01 -2.886511e+00 -2.464922e-01 1.801117e+00 -1.552620e+00 6.463482e-01 -5.018371e-01 -1.086725e+00 -1.001019e+00 -1.180608e+00 -1.726945e-01 -1.116110e+00 2.526608e-01 -7.792624e-02 7.919091e-01 -3.953683e-02 
-1.916260e+01 1.284662e+01 -9.707379e+00 3.862841e+00 -4.401034e+00 -8.565329e+00 -4.159930e+00 -8.874316e-01 -1.636445e+00 -9.862765e+00 8.019558e-02 -8.135977e+00 1.950277e+01 5.876112e-01 -1.240110e+00 -1.001934e+00 -5.015781e-02 -2.081123e+00 6.475829e-01 -2.148373e+00 -1.936003e+00 -1.309942e-01 -9.608108e-01 -7.880110e-01 -1.412654e+00 -3.653046e-01 1.646251e+00 -1.507993e+00 6.789525e-01 -5.074778e-01 6.396119e-02 -9.073758e-01 -1.567000e-01 3.757208e-01 -5.879664e-01 1.422267e+00 1.228059e-01 1.605660e+00 -8.039897e-02 
-1.781404e+01 1.052125e+01 -5.544537e+00 2.180402e-01 -5.917165e+00 -4.587704e-01 -2.391479e+00 -2.491180e+00 -3.486473e+00 -5.808502e+00 -1.855596e+00 -7.608908e+00 1.899390e+01 2.347830e+00 -3.177919e+00 -5.965090e-01 -2.415810e-01 -5.796199e-02 3.635441e-01 -1.856619e+00 -3.146013e-01 -1.293279e+00 5.837864e-01 1.241161e-01 6.617612e-01 -6.019262e-01 8.477470e-01 -7.653958e-01 3.082735e-01 -2.406092e-01 6.265771e-01 -7.976826e-01 4.044497e-01 8.117215e-01 1.771820e-01 1.227133e+00 5.385892e-01 1.678464e+00 -2.232794e-02 
-1.427176e+01 3.867181e+00 -8.239179e+00 9.691062e-01 8.624682e-01 -3.296899e+00 -5.532167e+00 -4.674701e+00 -2.897918e+00 -3.521570e+00 -8.150099e+00 -5.659660e+00 1.797494e+01 2.592242e+00 -3.355503e+00 -1.346632e-01 -9.036391e-01 2.431544e-01 2.021749e-01 -4.934149e-02 1.859912e-01 1.056641e+00 2.961949e+00 1.109009e+00 2.328509e+00 -5.661653e-01 3.021469e-02 3.453036e-01 3.064311e-01 -1.026151e-01 2.111354e-02 -3.615817e-01 7.354726e-01 5.592316e-01 1.807013e-01 3.116415e-01 7.583715e-01 1.025329e+00 2.127896e-01 
-9.589100e+00 6.240467e-01 -8.338589e+00 2.783029e+00 -2.491800e+00 -3.548553e+00 -2.467391e+00 1.985581e+00 -3.414396e+00 -1.112643e+00 3.071749e+00 -1.847785e+00 1.730922e+01 1.569499e+00 -2.122813e+00 -6.872289e-01 -3.891342e-01 -8.326054e-02 -9.977128e-01 -1.613193e-01 8.581468e-01 1.191844e+00 1.821027e+00 2.241247e+00 3.635226e+00 -2.577015e-01 -2.519243e-01 1.122345e+00 2.458047e-01 8.363988e-02 -4.690407e-01 -8.236743e-01 4.800364e-01 -1.881827e-01 5.343038e-02 -5.912878e-01 -1.686011e-01 1.421266e-01 4.441122e-01 
-1.031386e+01 1.017705e+00 -8.983669e+00 -1.937849e+00 -4.897944e+00 -6.009562e+00 -4.368681e+00 -2.195856e+00 3.610722e+00 2.599048e+00 3.161569e+00 6.260059e-01 1.751428e+01 1.127850e+00 -4.114559e-02 5.755816e-01 -4.894567e-01 -1.962906e+00 -4.796969e-01 6.813401e-01 2.737805e-01 -4.700493e-01 -2.122371e-02 1.945281e+00 2.227260e+00 5.265310e-01 -1.253521e-03 1.010321e+00 9.047550e-03 3.283754e-01 -2.883388e-01 -1.188791e+00 2.163682e-01 -4.688231e-01 -3.569822e-01 -9.580896e-01 -7.162939e-01 -3.305621e-01 4.843294e-01 
-1.194550e+01 1.331923e+00 -8.608436e+00 -2.741536e-01 -3.453262e+00 -4.091002e+00 -3.779819e+00 5.601312e-01 -7.815708e-01 2.363232e-01 3.694807e+00 7.424390e+00 1.793572e+01 1.820405e+00 7.766274e-01 2.773923e-01 -3.047293e-02 -1.300135e+00 -3.413891e+00 1.782224e-01 -1.299410e+00 -2.627819e-01 -8.810665e-01 -1.137025e+00 1.423019e+00 1.072286e+00 2.410436e-01 4.380249e-01 -2.239799e-01 9.817282e-02 4.350213e-02 -1.335329e+00 1.496600e-02 -3.534954e-01 7.501845e-02 -3.302722e-01 -7.891188e-01 -4.391769e-01 3.057478e-01 
-7.454309e+00 3.307515e+00 -5.226347e+00 5.041444e-02 -8.471331e+00 -5.424159e+00 -1.469253e+00 -2.593074e+00 -6.564578e+00 -4.302172e+00 1.264776e+00 8.405514e-01 2.029435e+01 2.460522e+00 2.463811e-01 -5.717360e-01 5.589071e-01 -5.901021e-01 -4.533689e+00 8.627285e-01 -1.079346e+00 -9.567738e-04 -4.774527e-01 -7.833242e-01 1.781803e+00 1.190488e+00 -6.913610e-02 -1.154145e-01 -4.524012e-01 -1.489383e-01 4.652688e-01 -9.884045e-01 -2.483411e-01 3.830857e-01 4.572856e-01 3.204352e-01 -1.390909e-01 2.045047e-01 -4.142414e-02 
-1.916853e+00 3.362279e+00 -8.830288e+00 1.636533e+00 -7.205784e+00 -2.091071e+01 -3.025993e+00 -4.312858e+00 3.593441e-01 -2.067365e+00 -1.664979e+00 5.160036e+00 2.128062e+01 2.108381e+00 -7.645123e-02 -1.233469e+00 -4.224520e-01 -5.521518e-01 -5.647361e+00 -1.771835e-01 -2.327671e-01 1.332390e+00 3.977805e-01 -3.400443e-01 1.662071e+00 9.390593e-01 -6.354207e-01 -2.962212e-01 2.339442e-01 -4.347390e-01 1.521945e-01 2.562563e-01 -4.890570e-01 9.005997e-01 -3.436561e-01 3.464074e-01 5.943088e-01 2.505147e-01 -2.825842e-01 
-3.025577e+00 1.234433e+00 -1.173142e+01 -9.865632e-02 -5.972194e+00 -2.026815e+01 -4.319519e-01 -5.156091e+00 3.035480e+00 1.363629e+00 1.924841e+00 1.066720e+01 2.179428e+01 6.381817e-01 -1.916789e-01 -9.309934e-01 -1.038159e+00 -1.055355e-02 -4.304985e+00 -3.826625e-01 1.655888e+00 1.018792e+00 9.415286e-01 8.513356e-01 3.130257e+00 3.860239e-01 -7.463807e-01 -1.839323e-01 1.260881e+00 -2.185251e-01 -1.141533e-01 1.032110e+00 -8.757417e-01 1.016593e+00 -1.221154e+00 -1.535052e-02 2.350568e-01 -2.454131e-01 -3.633870e-01 
-3.617962e+00 1.986208e+00 -1.152324e+01 -2.311878e+00 -7.463589e+00 -2.490581e+01 -5.184387e+00 6.778042e-01 1.080352e+00 -6.076747e-01 1.664552e+00 1.082142e+01 2.188105e+01 -4.455286e-01 -4.854484e-01 1.626742e+00 -1.405635e+00 -8.289374e-01 -2.246962e+00 -1.644367e+00 1.835972e+00 -2.490937e+00 1.414796e-01 1.017189e+00 2.001365e+00 6.159725e-02 -2.933930e-01 -9.684471e-02 1.667151e+00 3.496991e-01 2.050652e-01 1.864829e+00 -4.909940e-01 5.828565e-01 -1.685891e+00 -2.491276e-01 1.346131e-02 -7.860890e-01 -3.193475e-01 
-3.412846e+00 3.037156e+00 -8.534837e+00 -3.166175e+00 -8.395196e+00 -2.495153e+01 -2.303368e+00 3.191035e+00 -1.831120e+00 -3.243743e-01 3.856688e+00 1.366115e+01 2.192425e+01 5.572772e-03 -4.687818e-01 4.302562e+00 -4.212688e-02 -1.022476e+00 -1.073336e+00 -2.782388e+00 2.969250e+00 -4.195064e+00 -4.260548e-01 -2.866566e-01 3.850901e-01 -1.877165e-01 2.386542e-01 4.770752e-02 1.035643e+00 7.611730e-01 5.897743e-01 2.157435e+00 2.203629e-01 -5.034170e-02 -7.773514e-01 -2.420779e-01 -2.612121e-01 -1.201561e+00 -1.892776e-01 
-3.950861e+00 3.367513e-02 -2.294870e+00 -3.857883e+00 -1.013897e+01 -2.980383e+01 -1.031212e+01 6.934386e-01 -9.662039e+00 -5.159659e-01 2.455042e+00 1.366988e+01 2.152362e+01 9.577203e-01 -4.221233e-01 4.485509e+00 8.280277e-01 9.791350e-01 2.060960e+00 -1.432291e+00 2.024834e+00 -4.490138e+00 -1.640657e-01 2.962584e-01 -8.957905e-01 -3.708082e-01 1.753400e-01 3.977261e-01 -4.424865e-01 8.938848e-01 8.150994e-01 2.048450e+00 1.295954e+00 -5.340148e-01 8.773757e-01 -1.552266e-01 -2.126340e-02 -9.248284e-01 -5.340698e-02 
-2.831264e+00 -1.332098e-01 5.167202e+00 4.637118e-01 -9.746882e+00 -2.318582e+01 -1.178003e+01 9.682342e+00 -1.256864e+01 -8.124993e-01 9.631287e-02 1.116842e+01 2.103441e+01 1.129828e+00 1.519616e-02 2.817839e+00 1.650875e+00 2.034281e+00 4.328228e+00 6.131141e-01 1.309748e+00 -1.868364e+00 -1.160883e-01 -9.425926e-02 -1.428972e+00 -3.441614e-01 -4.069621e-01 5.082402e-01 -1.534719e+00 3.450772e-01 2.697898e-01 1.024399e+00 1.579071e+00 -1.397477e+00 1.630239e+00 -9.330537e-02 3.082100e-01 -5.034434e-01 8.051492e-02 
8.798481e-01 1.460774e+00 4.053284e+00 1.331702e-02 -1.892071e+00 -1.548386e+01 -7.607511e+00 7.556324e+00 -1.600158e+01 -1.183941e+00 5.026032e+00 7.588835e+00 2.047193e+01 -1.309563e-01 1.261193e+00 1.566711e-01 2.217288e+00 1.718181e+00 5.294506e+00 3.137650e+00 -4.350817e-03 7.325917e-01 -7.896366e-01 8.146732e-01 -1.715746e+00 -1.272152e-01 -8.663129e-01 3.416692e-01 -1.365248e+00 -2.514558e-01 -8.015925e-01 -7.998704e-01 6.013619e-01 -1.271386e+00 1.153274e+00 1.268604e-01 1.161332e-01 -1.961905e-01 1.574955e-01 
-1.790593e-01 2.399587e+00 2.380281e+00 3.152599e+00 -2.347239e+00 -1.047038e+01 -5.901021e-01 6.308334e+00 -8.003170e+00 -5.708287e-01 2.099897e+00 9.556813e+00 2.072928e+01 -1.484899e+00 1.230761e+00 -1.206615e+00 9.886289e-01 -4.304986e-02 2.431885e+00 2.827995e+00 -3.003542e+00 1.344765e+00 -5.797962e-01 9.951860e-01 -1.722149e+00 9.306164e-02 -7.059699e-01 -5.396369e-02 -5.432186e-01 -8.276697e-01 -1.064997e+00 -2.066651e+00 -5.221939e-01 -6.709104e-01 -1.605256e-01 4.720940e-01 2.536170e-01 -1.017570e-01 1.196869e-01 
-5.931745e+00 5.073243e+00 -1.180546e-01 5.884116e+00 -5.247887e+00 -9.689025e+00 -2.188293e-01 2.358688e+00 -8.281817e+00 -4.584984e+00 5.526616e+00 5.896954e+00 2.104011e+01 -2.066480e+00 6.784400e-01 -3.285021e-01 -9.812850e-02 -1.990162e+00 -9.902204e-01 4.670783e-01 -2.175449e+00 -3.303341e-01 7.020901e-01 3.322017e-01 -1.730154e+00 1.980579e-01 -4.279475e-02 -4.526933e-01 2.741043e-01 -1.053894e+00 -5.589372e-01 -2.370547e+00 -1.030508e+00 3.632227e-01 -7.715366e-01 7.245647e-01 1.928306e-01 2.243619e-01 3.772160e-02 
-6.849963e+00 4.214361e+00 1.219796e+00 2.471457e+00 -8.284224e+00 -1.392381e+01 -1.334394e+00 -2.736552e+00 -9.704697e+00 -2.010958e+00 4.821950e+00 3.403611e+00 2.121563e+01 -1.432259e+00 3.675432e-02 3.443329e-01 -1.329766e+00 -1.436532e+00 -2.862663e+00 -6.625694e-01 -9.592546e-01 -2.139529e+00 1.498518e+00 1.415062e+00 -1.930553e+00 9.163646e-02 4.728842e-01 -4.911664e-01 2.893265e-01 -6.380683e-01 2.546552e-01 -1.505130e+00 -6.537260e-01 1.200657e+00 -3.569013e-01 3.595351e-01 2.212159e-01 5.958924e-01 -1.611094e-02 
-6.117102e+00 3.945587e+00 2.991016e+00 -1.367544e-01 -8.874390e+00 -1.870825e+01 -4.899974e+00 1.201524e+00 -1.680248e+01 3.046575e+00 5.326014e+00 2.014664e+00 2.121905e+01 -3.712500e-01 -4.052698e-01 7.517185e-01 -1.892984e+00 -3.797638e-01 -3.910955e+00 -2.696084e-01 7.896186e-01 -1.382944e+00 1.794030e+00 1.568888e+00 -4.897352e-01 6.210537e-02 6.272057e-01 -3.650022e-01 -3.467225e-01 -1.394451e-01 6.654037e-01 -3.743920e-01 5.699806e-02 8.875238e-01 8.110362e-01 -3.788937e-01 2.715819e-02 9.287418e-01 -1.224608e-02 
-7.247677e+00 3.147187e+00 2.547410e+00 -4.857940e-01 -7.716648e+00 -2.027408e+01 -1.562377e+00 2.090643e+00 -1.444048e+01 3.105982e+00 9.275507e+00 1.845194e+00 2.109800e+01 3.190641e-02 -6.832159e-01 -3.000930e-01 -1.304285e+00 4.250268e-01 -3.633397e+00 -7.229193e-02 1.517211e+00 8.656378e-02 6.719096e-01 1.482922e+00 6.371036e-01 8.048324e-02 4.960593e-01 -1.879242e-01 -8.426200e-01 1.870693e-01 3.607271e-01 4.267470e-01 1.119338e-01 2.689201e-01 1.482624e+00 -6.451215e-01 -6.665360e-01 8.609921e-01 1.959166e-02 
-7.589138e+00 3.580482e+00 2.976731e+00 -2.102176e+00 -7.430494e+00 -2.606867e+01 -1.452880e+00 3.893183e+00 -1.282864e+01 1.826693e+00 1.114428e+01 4.227486e+00 2.140945e+01 3.374652e-01 -7.865861e-01 -1.739902e+00 -8.080941e-01 4.060768e-01 -2.476814e+00 4.569298e-01 1.023938e+00 2.611800e+00 -7.790740e-01 4.340623e-01 1.629726e+00 1.424042e-01 2.530361e-01 1.289983e-02 -1.008424e+00 2.792405e-01 1.189500e-01 1.025961e+00 -9.072338e-03 -4.742332e-01 1.398733e+00 -5.465771e-01 -9.694105e-01 7.710315e-02 -8.702469e-03 
-5.954413e+00 9.808346e-01 -2.735265e-01 -3.067259e+00 -6.881037e+00 -2.841059e+01 -3.419400e+00 3.503671e+00 -1.125880e+01 1.958531e+00 9.327429e+00 5.482718e+00 2.152285e+01 6.936797e-01 -7.122084e-01 -2.622957e+00 -9.368640e-01 -2.581677e-02 -1.445999e+00 -4.661693e-01 2.681865e-01 3.276218e+00 -4.405373e-01 -1.350205e+00 1.314677e+00 1.494453e-01 4.188316e-02 2.430418e-01 -5.423802e-01 1.750804e-01 5.666937e-02 1.095680e+00 1.559803e-02 -7.795142e-01 8.316170e-01 -1.726351e-01 -7.894989e-01 -6.264660e-01 -5.244535e-02 
-5.076408e+00 1.095833e+00 -4.298025e+00 -2.886492e+00 -7.261811e+00 -2.702406e+01 -1.686813e+00 5.614697e+00 -5.334323e+00 -2.750693e-01 7.470364e+00 8.344532e+00 2.171864e+01 5.630441e-01 -3.262744e-01 -3.128971e+00 -6.804916e-01 4.404081e-01 1.251524e-01 -1.180314e-01 -9.570352e-01 4.015893e+00 -3.826324e-01 -1.861601e+00 -4.430060e-01 -1.588802e-02 -1.342367e-01 3.198366e-01 1.286577e-01 1.380984e-01 1.573249e-01 7.477545e-01 1.567000e-02 -6.721318e-01 -9.473562e-02 1.277816e-01 -2.103531e-01 -9.698542e-01 -8.147614e-02 
-5.035643e+00 8.284691e-01 -6.929997e+00 -4.777956e+00 -7.930073e+00 -2.702638e+01 -3.776257e+00 2.570819e+00 -1.806553e+00 1.954177e+00 4.361440e+00 6.360055e+00 2.169063e+01 1.285328e-01 3.018374e-01 -2.317459e+00 -4.926848e-01 6.912080e-01 5.440214e-01 2.931788e-01 -1.389874e+00 3.542602e+00 -3.894868e-01 -1.316741e+00 -1.458861e+00 -1.025974e-01 -2.103837e-01 2.667414e-01 4.626799e-01 1.535145e-01 2.113793e-01 3.567690e-01 1.517187e-01 -4.102412e-01 -4.553538e-01 7.666326e-02 2.658704e-01 -7.684675e-01 -6.998681e-02 
-5.233302e+00 2.025292e+00 -9.339890e+00 -4.649286e+00 -4.703935e+00 -2.613501e+01 -1.864608e+00 -4.255668e-01 2.524701e+00 -8.429208e-02 4.319271e+00 1.573787e+00 2.124612e+01 -5.114465e-02 3.055742e-01 -1.249362e+00 -3.396916e-01 8.341891e-01 2.669483e-01 1.556058e-01 -1.507691e+00 2.004930e+00 -1.656915e-01 -6.344355e-01 -1.832776e+00 -1.389551e-01 -1.408055e-01 1.267434e-01 4.827314e-01 8.345930e-02 9.305429e-02 6.518721e-04 4.097013e-02 -1.219130e-01 -5.559598e-01 6.576774e-02 3.136635e-01 -3.153454e-01 -2.824919e-02 
