1.171960e+00 3.831518e-02 -6.464195e+00 3.603103e-01 -5.079051e+00 4.664816e+00 -7.771608e+00 -6.106457e+00 -1.263921e+01 -3.602382e+00 -1.854239e+00 9.051957e+00 1.995494e+01 5.614656e-01 -1.980472e-01 -8.000358e-01 -9.301233e-01 6.314319e-01 -8.109190e-02 -6.505851e-01 -1.307065e+00 2.593841e+00 2.256814e-01 6.058233e-01 -2.137028e+00 1.014256e-01 -2.853889e-01 -4.544004e-01 1.786173e-01 9.118840e-02 -9.499139e-01 -3.758198e-01 -6.577936e-01 1.056129e+00 6.454428e-01 1.460610e-01 -6.781136e-02 -5.779191e-01 6.737858e-02 
2.963641e+00 1.102666e+00 -7.835637e+00 -1.278542e-01 -3.234362e-01 3.533007e+00 -4.321534e+00 -9.251740e+00 -9.448252e+00 -1.493707e+00 -7.599361e-01 3.699300e+00 1.984842e+01 2.213041e-01 -1.219028e+00 -8.206253e-01 -9.862849e-01 -8.481866e-01 -3.475437e-01 -2.417600e+00 3.172858e-01 4.259425e+00 8.957726e-01 6.778991e-01 -3.607068e+00 2.644680e-01 -5.387815e-01 -6.971599e-01 5.505813e-01 2.929671e-01 -1.653567e+00 -5.963873e-01 -7.056850e-01 1.871460e+00 4.841099e-02 -5.639533e-02 -3.419399e-01 -1.784011e-01 6.882097e-02 
3.083448e+00 -1.484096e+00 -9.778653e+00 -4.046224e+00 -4.299699e+00 4.825262e+00 -1.274957e+01 -1.106914e+01 -1.265481e+00 -3.528312e+00 6.277257e-01 1.043143e+00 2.051533e+01 -6.953983e-01 -1.959558e+00 1.033453e-01 -4.461006e-01 -3.378328e+00 -1.826965e+00 -3.056046e+00 3.161405e+00 4.988263e+00 6.209406e-01 2.307286e-01 -4.291605e+00 3.567972e-01 -6.630765e-01 -6.297355e-01 1.030343e+00 5.804371e-01 -1.723898e+00 -5.988737e-01 -2.117496e-02 1.837926e+00 -1.159837e+00 -4.651759e-01 -5.954286e-01 7.033238e-01 9.427850e-03 
1.322737e+00 -5.295621e+00 -8.910092e+00 -2.367847e+00 -9.709661e+00 2.846875e+00 -1.737063e+01 -2.038687e+00 2.971051e+00 8.394464e-01 2.942736e-01 -4.978973e+00 2.099709e+01 -1.504010e+00 -2.803091e+00 1.501180e+00 2.927009e-01 -5.631523e+00 -2.190092e+00 -2.976280e+00 5.816000e+00 1.638685e+00 -2.539248e-01 -9.163288e-01 -1.951746e+00 3.178446e-01 -4.453992e-01 -1.931577e-02 1.150593e+00 7.353696e-01 -7.865745e-01 -2.575689e-01 9.457645e-01 5.073689e-01 -2.294192e+00 -1.126791e+00 -5.014416e-01 1.804414e+00 -7.757441e-02 
-1.484579e+00 -6.560334e+00 -5.410241e+00 -7.501963e-01 -1.727758e+01 -4.126942e+00 -1.652729e+01 6.094042e+00 6.092455e+00 -1.664256e+00 -1.227701e+00 -8.066930e+00 2.116459e+01 -1.891260e+00 -2.554694e+00 3.190774e+00 1.332569e+00 -5.596389e+00 -2.154186e+00 -4.771198e-01 5.133210e+00 -1.894974e+00 -1.525349e+00 -1.574206e+00 5.519297e-01 1.218765e-01 8.582643e-02 9.753314e-01 5.063565e-01 5.304243e-01 8.668084e-01 3.927751e-01 1.460708e+00 -1.734573e+00 -2.404480e+00 -8.686069e-01 -1.585610e-01 1.727086e+00 -8.886274e-02 
-2.272395e+00 -1.037467e+01 -2.513943e+00 -3.123634e-01 -2.199211e+01 -2.941351e+00 -1.731408e+01 1.124667e+01 -4.933794e+00 -3.695359e+00 -4.413867e+00 -1.504393e+00 2.111301e+01 -1.407761e+00 -1.018040e+00 3.388625e+00 1.801228e+00 -3.672029e+00 -1.471778e+00 1.021760e+00 1.868227e+00 -3.769916e+00 -3.665037e+00 -9.268416e-01 2.993235e+00 -5.943680e-03 4.603364e-01 1.643520e+00 -1.308912e-01 1.198766e-01 2.283640e+00 5.900970e-01 1.224361e+00 -2.816232e+00 -1.078743e+00 -1.006189e-01 5.355436e-01 3.636163e-01 -3.514845e-02 
-4.575284e+00 -1.171804e+01 2.977144e+00 1.588881e+00 -2.614042e+01 -3.051558e+00 -1.516345e+01 7.954233e+00 -6.787928e+00 -8.887657e+00 -4.889235e+00 2.065501e+00 2.106675e+01 -3.143905e-01 2.024573e+00 1.691406e+00 1.451758e+00 -2.403336e-02 -2.222469e-01 2.248477e+00 -3.537575e+00 -4.329838e+00 -2.016538e+00 -5.568198e-01 1.871337e+00 7.437763e-02 5.657626e-01 1.199863e+00 -3.856058e-01 -6.557499e-01 2.273287e+00 7.537771e-01 2.717449e-01 -1.843839e+00 -2.176724e-01 1.059312e+00 9.643992e-01 -9.921957e-01 3.210455e-02 
-4.170718e+00 -7.806967e+00 3.839339e+00 5.468753e+00 -2.363839e+01 -5.049705e+00 -1.294375e+01 6.372354e+00 -9.438336e+00 -1.387404e+01 -2.509167e+00 4.920988e+00 2.101629e+01 9.237004e-03 3.124877e+00 1.596408e+00 8.324900e-01 3.000500e+00 -2.055772e-01 1.782728e+00 -3.929767e+00 -2.537599e+00 -5.114250e-01 1.252696e+00 -7.933685e-01 1.658518e-01 2.470624e-01 3.579412e-02 -8.399792e-02 -1.238724e+00 9.822487e-01 9.305896e-01 -5.832670e-01 3.558374e-03 1.407641e-01 1.929031e+00 8.502247e-01 -1.633145e+00 3.348917e-02 
-2.107370e+00 2.278678e+00 -1.298542e-01 3.618034e+00 -1.657461e+01 -4.184000e+00 -7.470065e+00 -9.156674e+00 -1.330447e+01 -6.657606e+00 -4.964150e+00 -1.922934e+00 2.158484e+01 2.290538e-01 1.373163e+00 2.158854e+00 -1.461811e+00 2.433782e+00 9.815992e-01 5.011204e-01 -1.186986e+00 -3.599494e+00 2.194402e+00 2.158021e+00 -2.515747e+00 1.965015e-01 -1.948902e-01 -1.078057e+00 3.234190e-01 -1.168674e+00 -8.287714e-01 8.925226e-01 -1.134851e+00 1.620413e+00 3.034338e-01 1.278914e+00 5.049913e-01 -9.583403e-01 -3.205172e-02 
-3.460167e+00 -1.748641e+00 7.021597e+00 2.835510e+00 -1.177251e+01 -3.403016e+00 -1.224713e+01 1.532866e-01 -1.436352e+01 -7.367510e+00 1.887070e+00 -3.477018e+00 2.168322e+01 -4.441715e-01 -5.133643e-01 2.734911e+00 -2.935610e+00 1.030674e-02 2.579247e+00 -1.020897e+00 7.107249e-01 -3.431267e+00 3.874649e+00 1.966862e+00 -2.978946e+00 1.004402e-01 -3.163086e-01 -8.265420e-01 -2.443331e-01 -5.415332e-01 -1.774683e+00 7.153850e-01 -7.007746e-01 9.005830e-01 5.671222e-01 2.657041e-01 -2.275848e-01 -7.672763e-03 -7.568041e-02 
-3.785290e+00 -7.881387e+00 1.218028e+01 -4.403553e+00 -1.990445e+01 1.033094e+00 -1.300616e+01 5.128836e+00 -2.232281e+01 -1.168911e+00 3.702751e+00 -6.314231e+00 2.171579e+01 -1.062137e+00 -1.546589e+00 2.739249e+00 -2.507565e+00 -2.672794e+00 2.847954e+00 -2.023967e+00 2.244243e+00 -2.365835e+00 2.184995e+00 1.611054e+00 -1.827576e+00 -5.317516e-02 -1.983846e-01 8.667728e-02 -9.407889e-01 5.571880e-01 -1.106856e+00 -2.156661e-01 5.697905e-02 -3.862441e-01 1.238356e+00 -8.880094e-01 -5.302932e-01 6.542119e-01 -7.910265e-02 
-5.552616e+00 -5.293756e+00 1.135883e+01 -5.198506e+00 -2.192193e+01 5.237982e+00 -1.528019e+01 2.783223e+00 -2.208550e+01 2.754857e+00 2.991691e+00 -7.778093e+00 2.145302e+01 -9.267105e-01 4.520436e-01 8.454494e-02 -1.352299e+00 -3.319627e+00 2.438170e+00 -4.586014e-01 -1.142467e+00 -3.188175e-01 8.217990e-01 3.882552e-01 -1.175818e+00 -8.771191e-02 1.536735e-01 4.530903e-01 -1.174858e+00 1.183589e+00 -7.267849e-03 -1.282632e+00 7.521515e-01 -7.458656e-01 1.173943e+00 -1.388687e+00 -3.800888e-01 7.775021e-01 -3.439327e-02 
-6.371831e+00 -3.681710e+00 1.139778e+01 -4.902781e+00 -2.486387e+01 5.735273e+00 -1.607337e+01 7.495714e-01 -2.127265e+01 -7.938146e-01 2.538808e+00 -8.910275e+00 2.143407e+01 -5.215999e-01 1.323846e+00 -1.219907e+00 5.324739e-01 -1.435529e+00 -2.619278e-02 5.048677e-01 -2.191611e+00 1.036059e+00 -7.192197e-01 2.958580e-01 -1.462518e-01 -1.049356e-01 4.308580e-01 2.517318e-01 -8.980511e-01 1.208911e+00 8.703027e-01 -1.747359e+00 9.182908e-01 -1.980315e-01 7.859539e-01 -1.113195e+00 -1.227979e-01 6.235787e-01 1.331807e-03 
-6.800450e+00 -1.588262e+00 7.835574e+00 -3.676373e+00 -2.589094e+01 6.436746e+00 -1.300653e+01 -3.369416e+00 -1.648269e+01 -3.446064e+00 4.410317e+00 -8.058085e+00 2.138552e+01 5.392723e-02 3.168697e-01 -1.159803e+00 1.462317e+00 -6.446649e-01 -2.396842e+00 1.475443e+00 -8.006763e-01 7.375017e-01 -1.616678e+00 7.240155e-01 6.790228e-02 -4.564590e-02 4.656283e-01 -2.117322e-01 -2.357763e-01 8.710110e-01 1.144421e+00 -1.580786e+00 3.528229e-01 9.577873e-01 4.832864e-01 -9.122961e-01 -3.566268e-02 3.939353e-01 -2.562580e-03 
-5.769373e+00 -3.114906e+00 7.842372e+00 -2.502250e+00 -2.509759e+01 3.027482e-01 -1.161865e+01 -2.752901e+00 -1.994392e+01 -1.664549e+00 4.472727e+00 -6.905494e+00 2.122486e+01 6.018341e-01 -2.203433e-01 -1.128832e+00 2.129680e+00 3.412386e-01 -3.471334e+00 1.600465e+00 1.083190e+00 1.035775e+00 -2.161741e+00 8.291842e-01 6.684576e-01 -6.754913e-02 3.528243e-01 -1.484273e-01 -1.287085e-01 3.465482e-01 8.816091e-01 -6.075982e-01 -2.730919e-01 1.134981e+00 6.574389e-01 -5.004953e-01 -3.862241e-01 2.575803e-01 2.577934e-03 
-5.584208e+00 -3.992809e+00 7.337514e+00 9.128120e-01 -2.502840e+01 -4.029964e+00 -1.013033e+01 5.310775e-01 -1.906236e+01 -4.893166e+00 5.644808e+00 -8.440972e+00 2.132939e+01 8.397142e-01 1.654771e-01 -1.139874e+00 2.204152e+00 1.514095e+00 -3.743192e+00 7.577143e-01 2.009069e+00 2.097757e+00 -3.018421e+00 -5.672126e-02 3.865036e-01 -1.192181e-01 1.941733e-01 2.738399e-02 -3.076541e-01 -2.515601e-01 7.218089e-01 3.257897e-01 -8.429421e-01 5.004137e-01 7.025923e-01 3.434762e-01 -8.524615e-01 4.925827e-01 1.389326e-02 
-3.970781e+00 -3.581153e+00 6.002649e+00 3.451030e+00 -2.358894e+01 -6.388041e+00 -9.509137e+00 4.215275e+00 -1.480394e+01 -1.087897e+01 6.067483e+00 -5.376544e+00 2.112439e+01 8.496281e-01 6.574056e-01 -1.873414e+00 1.894297e+00 1.893137e+00 -2.391009e+00 -5.017274e-01 2.078421e+00 3.643126e+00 -2.520825e+00 -1.244894e+00 9.823490e-01 -5.525989e-02 -8.219605e-03 -3.240255e-02 -3.733006e-01 -7.741995e-01 4.630720e-01 7.846919e-01 -9.297347e-01 -1.532657e-01 3.690087e-01 1.313355e+00 -9.021060e-01 5.800187e-01 6.068309e-02 
-3.501175e+00 -5.277532e-01 3.056064e+00 4.367750e+00 -1.907479e+01 -8.933819e+00 -1.027271e+01 3.191843e+00 -8.563893e+00 -1.393096e+01 3.329333e+00 -6.890042e+00 2.083967e+01 9.008967e-01 1.491518e-02 -2.325782e+00 3.222080e-01 2.188431e+00 -1.308056e+00 -1.688171e+00 1.203777e+00 2.946787e+00 2.802449e-01 -2.501253e+00 2.373870e+00 1.767578e-02 -1.258811e-01 -3.112457e-01 -2.741351e-01 -1.141989e+00 1.402831e-01 1.134568e+00 -5.732845e-01 -5.432136e-01 -3.363926e-02 1.920766e+00 -3.566023e-01 4.885997e-01 8.787233e-02 
-2.562749e+00 -1.560406e+00 6.160282e-01 5.241766e+00 -1.860871e+01 -9.200367e+00 -1.405610e+01 6.308824e+00 -6.977521e+00 -9.749776e+00 -5.940057e-01 -2.769214e+00 2.119342e+01 5.301448e-01 -3.070751e-01 -2.402381e+00 -8.003448e-01 2.319431e+00 -7.654424e-01 -1.825266e+00 7.195078e-01 2.456303e+00 2.755700e+00 -2.459080e+00 2.574868e+00 1.674194e-01 -1.493083e-01 -3.532502e-01 4.914784e-03 -1.377790e+00 6.432507e-02 1.446716e+00 -2.085003e-02 -8.974364e-01 -3.744981e-01 1.619149e+00 5.499569e-01 -1.616595e-01 4.359569e-02 
-1.783741e+00 -4.928607e+00 -1.598086e+00 1.628484e+00 -1.657636e+01 -9.164081e+00 -1.629771e+01 5.503186e+00 -8.241632e+00 -4.056538e+00 -3.530711e+00 2.124713e+00 2.138326e+01 3.700503e-01 -9.085110e-01 -2.246066e+00 -2.158474e+00 2.002364e+00 1.116867e+00 -1.446939e+00 -2.754207e-02 2.522972e+00 3.947144e+00 -1.232640e+00 2.033242e+00 2.088039e-01 -4.081689e-02 -7.695619e-02 1.885312e-01 -1.299703e+00 -4.122288e-02 1.862301e+00 3.317400e-01 -1.080997e+00 -5.117651e-01 7.741982e-01 1.349504e+00 -9.020775e-01 -2.400068e-02 
-2.178774e+00 -2.916102e+00 -3.682182e+00 8.189389e-01 -1.324100e+01 -1.010012e+01 -1.562296e+01 6.657143e+00 -2.683554e+00 -2.037679e+00 -2.797895e+00 2.990418e+00 2.168969e+01 3.685099e-01 -6.471326e-01 -1.888698e+00 -3.754313e+00 2.307796e+00 3.630111e+00 -7.265936e-01 -1.793101e+00 1.982544e+00 3.741473e+00 8.705835e-01 3.443653e-01 6.715450e-02 1.980298e-01 1.467872e-01 1.706829e-01 -1.144864e+00 -1.307923e-01 1.796962e+00 3.881930e-01 -1.062902e+00 -1.098007e+00 7.091568e-02 1.319059e+00 -1.008686e+00 -9.105097e-02 
-1.842911e+00 -4.392461e+00 -6.025162e+00 -4.213205e+00 -1.174682e+01 -2.899608e+00 -1.672398e+01 2.879974e+00 1.903981e+00 1.948716e+00 -1.731920e+00 3.963536e-01 2.163555e+01 7.776297e-01 -1.998370e-01 -1.639968e+00 -4.699325e+00 1.988134e+00 5.805670e+00 -5.788072e-01 -2.944905e+00 6.248418e-01 3.658350e+00 2.581436e+00 -1.021266e+00 -5.219517e-02 3.104612e-01 3.958059e-01 2.086863e-01 -5.634091e-01 -2.623824e-01 7.269497e-01 6.968585e-01 -4.183376e-01 -1.452042e+00 -7.410764e-01 8.866177e-01 -5.129747e-01 -9.822933e-02 
-6.906145e-01 -5.064142e+00 -6.613923e+00 -1.060895e+01 -9.484502e+00 5.817954e+00 -1.747593e+01 -1.345076e+00 -2.137610e+00 5.954960e+00 2.859516e+00 -1.832076e-01 2.140304e+01 1.316504e+00 7.252403e-02 -1.852016e+00 -5.254239e+00 1.672584e+00 5.874966e+00 -3.183664e-01 -3.136323e+00 -2.084666e+00 3.254676e+00 2.229179e+00 -9.413093e-01 -1.573358e-01 1.525609e-01 4.439334e-01 3.004542e-01 1.717209e-01 -4.707961e-01 -4.401782e-01 8.562598e-01 5.576046e-01 -1.030143e+00 -1.496087e+00 3.880851e-02 2.739269e-01 -6.564583e-02 
1.360328e+00 -4.853772e+00 -8.332054e+00 -1.615420e+01 -8.513945e+00 1.190523e+01 -1.826526e+01 -5.220230e+00 -5.390395e+00 1.023889e+01 6.547765e+00 -1.394805e+00 2.126560e+01 1.448359e+00 7.106903e-01 -1.220976e+00 -4.225556e+00 1.008057e+00 3.629188e+00 1.833240e+00 -1.447619e+00 -2.703632e+00 4.851608e-01 2.521151e+00 1.112063e-01 -1.700975e-01 -1.595706e-01 3.263197e-01 4.503115e-01 9.411434e-01 -4.407296e-01 -1.136224e+00 1.117203e+00 1.140432e+00 -2.004778e-01 -2.082953e+00 -5.030758e-01 6.877351e-01 -6.996132e-02 
2.802126e+00 -2.322827e+00 -1.178882e+01 -1.948176e+01 -6.494519e+00 1.187229e+01 -1.644415e+01 -4.974370e+00 -9.459695e+00 1.009061e+01 4.208158e+00 -8.205497e-01 2.108799e+01 7.959495e-01 1.117271e+00 -5.959228e-01 -3.132593e+00 4.438534e-01 2.517461e+00 2.348682e+00 2.462789e-01 -1.503936e+00 -2.152368e+00 1.094769e+00 1.147763e+00 -2.021234e-01 -3.912805e-01 1.667129e-01 7.295341e-01 1.730851e+00 -5.798786e-02 -1.240001e+00 1.174597e+00 1.085604e+00 6.219360e-01 -1.632154e+00 -6.678337e-01 5.669220e-01 -1.078124e-01 
3.652514e+00 -2.209667e+00 -9.542592e+00 -2.090458e+01 -8.201526e+00 1.221917e+01 -8.073668e+00 -2.543477e+00 -7.953134e+00 2.306695e+00 1.019951e+01 1.271056e+00 2.094259e+01 2.400538e-01 9.093879e-01 -1.645708e-02 -1.054431e+00 3.988511e-01 1.803302e+00 3.673683e+00 1.065953e+00 -6.679122e-01 -4.052896e+00 6.332625e-01 1.372873e+00 -3.796080e-01 -5.179962e-01 9.898430e-03 9.801594e-01 2.453466e+00 4.740347e-01 -1.545020e+00 2.300299e-01 4.317493e-01 9.219211e-01 8.350432e-02 -9.067402e-01 8.421971e-02 -1.590023e-01 
2.143040e+00 -7.998415e-01 -8.988268e+00 -2.389672e+01 -7.421444e+00 1.824829e+01 -1.082832e+01 -1.452058e+00 -8.375918e+00 -8.407816e-01 6.507485e+00 4.222679e+00 2.055393e+01 -3.574572e-02 8.067396e-01 1.193395e+00 1.814453e+00 1.687248e+00 5.879014e-01 4.634397e+00 1.034911e+00 7.154703e-03 -2.637069e+00 -1.660455e-01 1.262467e+00 -5.916426e-01 -4.401813e-01 -2.049390e-01 1.055783e+00 2.756080e+00 6.345066e-01 -2.258178e+00 -3.750514e-01 1.971675e-02 1.225106e+00 1.546723e+00 -4.844209e-01 -4.073068e-01 -1.571202e-01 
2.890140e+00 -1.068324e+00 -9.814614e+00 -1.921887e+01 -6.056226e+00 1.773374e+01 -2.704767e+00 -1.651621e+00 -9.271844e+00 -4.559890e+00 8.564413e+00 2.947946e+00 1.963459e+01 -7.257740e-01 9.154480e-01 2.785162e+00 5.568249e+00 2.756533e+00 -3.131132e+00 1.840532e+00 3.168114e-01 1.150429e+00 1.145033e+00 -1.382143e+00 4.749529e-01 -7.703493e-01 -3.614503e-01 -3.287710e-01 7.874320e-01 1.929026e+00 2.813407e-01 -2.255278e+00 -1.156490e+00 -4.772342e-02 1.443490e+00 2.032315e+00 -1.503497e-01 -5.488459e-01 -5.991904e-02 
3.004585e+00 1.140200e+00 -5.685831e+00 -1.125235e+01 8.690721e-01 1.205451e+01 4.043378e+00 -2.457427e-01 -8.764566e+00 3.385600e-01 4.195481e+00 4.653342e+00 1.878378e+01 -9.220432e-01 8.954592e-02 3.282183e+00 7.336468e+00 2.437545e+00 -6.306214e+00 1.390000e+00 7.194334e-01 3.712421e+00 2.982283e+00 -3.196328e-01 -4.398109e-01 -7.923538e-01 -1.938317e-01 -4.591418e-01 1.218934e-02 2.731948e-01 -4.723293e-01 -1.137225e+00 -1.319824e+00 2.696065e-02 1.137148e+00 1.064600e+00 3.286865e-01 -4.998128e-01 7.189878e-02 
-4.071282e-01 1.397552e+00 2.732001e+00 6.144747e-01 1.435883e+00 -3.396015e-01 -6.306858e+00 -1.562578e+00 -2.006664e+00 7.442187e+00 4.444801e+00 3.430489e+00 1.797593e+01 -1.124049e+00 -3.758702e-01 2.876309e+00 5.829691e+00 1.430406e+00 -6.026031e+00 -4.865670e-01 9.850746e-01 4.696904e+00 3.299001e+00 -4.169254e-02 -5.202176e-01 -5.788475e-01 -4.370856e-03 -4.450373e-01 -5.226202e-01 -9.323848e-01 -7.984617e-01 1.616160e-01 -7.474581e-01 1.153692e-01 5.745696e-01 -4.455032e-02 5.505404e-01 -2.727129e-01 1.349354e-01 
-8.185416e-01 -1.585050e+00 1.149342e+00 2.868943e+00 1.020226e+00 -4.246104e+00 -2.077276e+00 2.100587e+00 6.553596e+00 8.069597e+00 6.969127e+00 1.782353e+00 1.742149e+01 -8.057666e-01 -8.433102e-01 1.208769e+00 3.049706e+00 -1.133494e-02 -3.650773e+00 -8.011724e-01 8.355826e-01 3.919659e+00 1.608948e+00 8.071619e-01 -7.390115e-01 -3.278995e-01 5.508356e-02 -2.333152e-01 -5.814369e-01 -1.135351e+00 -6.339501e-01 7.686141e-01 -4.696950e-01 8.280617e-03 -3.627701e-02 -4.436723e-01 3.102444e-01 -8.171950e-02 1.179857e-01 
