-1.404673e+00 -1.234992e+01 -5.063489e+00 -1.111113e+01 -1.623168e+01 -8.316236e+00 2.738461e+00 -5.988996e+00 1.542941e+00 -5.201599e+00 3.087762e+00 1.158670e+00 2.129479e+01 6.408317e-01 -2.029960e-01 2.266185e-01 6.580296e-01 -1.631981e+00 3.981812e-01 -1.282927e+00 6.345940e-01 -2.380725e+00 -2.410374e-01 1.240671e+00 -1.086308e+00 -6.647491e-03 8.917399e-02 1.824067e-01 3.308921e-01 2.947285e-01 -5.939070e-02 -1.931375e-01 -6.756210e-01 3.613079e-01 1.162187e-01 3.516009e-01 -3.581065e-01 -4.783113e-02 8.098983e-04 
-6.328031e-01 -1.381836e+01 -5.803450e+00 -1.096519e+01 -2.172299e+01 -7.898704e+00 -9.363396e-01 -8.946239e+00 -5.376612e+00 -6.171224e+00 5.063513e+00 -1.636573e+00 2.126897e+01 9.789931e-01 2.965536e-01 1.144974e+00 1.795536e+00 -1.937886e+00 4.064723e-01 -2.350458e+00 2.236119e+00 -2.452280e+00 5.810105e-01 7.857650e-01 -7.585396e-01 -2.125168e-03 6.523236e-02 3.136162e-01 3.478557e-01 9.164850e-02 4.451175e-01 -2.118483e-01 -8.034428e-01 3.613744e-02 4.422553e-01 6.852961e-01 -4.965754e-01 -1.312472e-01 5.653343e-03 
1.413550e+00 -1.263068e+01 -3.560416e+00 -7.893960e+00 -2.164594e+01 -6.534097e+00 -1.838772e+00 -1.337404e+00 -6.900906e+00 -5.921973e+00 8.303240e+00 -2.875248e+00 2.127446e+01 9.176210e-01 4.592628e-01 1.421901e+00 1.562919e+00 -1.775982e+00 -5.716518e-01 -4.127266e+00 1.640371e+00 -1.763854e+00 1.105943e+00 -3.224088e-01 -1.489348e+00 -4.859162e-03 -2.404410e-02 3.909976e-01 2.435161e-02 -3.472434e-01 8.741921e-01 2.229842e-01 -5.999992e-01 -6.964026e-01 5.550109e-01 8.779767e-01 -2.568291e-01 -1.993082e-01 8.908062e-03 
2.081180e+00 -1.072678e+01 -9.015448e-02 -3.742040e+00 -2.321399e+01 -7.174945e+00 -6.725211e+00 2.865805e+00 -6.496535e+00 -1.936359e+00 4.408848e+00 -6.170686e-01 2.129433e+01 8.285989e-01 1.033955e+00 1.368255e+00 6.638276e-01 6.656065e-01 -1.761437e-01 -3.877971e+00 3.123929e-01 -4.778835e-01 2.511953e+00 -4.606664e-01 -1.541024e+00 2.072506e-02 -1.097576e-01 3.598112e-01 -5.528198e-01 -9.271272e-01 9.861139e-01 8.703787e-01 2.787094e-01 -1.523458e+00 2.190096e-01 3.891286e-01 2.985962e-01 -1.063888e-01 -6.634274e-03 
1.826440e+00 -1.159940e+01 -8.106291e-01 -6.908113e+00 -2.436609e+01 -1.153638e+01 -1.500343e+01 -3.693165e+00 -6.716366e+00 -1.789314e+00 1.803051e+00 -6.797821e+00 2.125781e+01 5.958083e-01 1.383291e+00 2.367359e-01 -5.123331e-01 1.437233e+00 1.804410e+00 -3.519166e+00 -1.885556e+00 -5.928686e-01 3.183375e+00 5.797408e-01 -1.691607e+00 2.646771e-02 -4.662055e-02 3.470970e-01 -7.814922e-01 -8.844961e-01 6.729559e-01 1.519952e+00 1.322063e+00 -1.209005e+00 -3.527725e-01 -3.380095e-01 5.605313e-01 5.575755e-01 -2.258686e-02 
3.303746e+00 -9.164227e+00 -3.370660e-01 -8.138970e+00 -1.703488e+01 -6.278284e+00 -1.374387e+01 -6.206395e+00 -7.858299e+00 4.322209e+00 6.010276e+00 -7.380407e+00 2.138092e+01 5.911115e-01 1.633595e+00 -1.026542e+00 -1.802474e+00 1.386076e+00 3.570335e+00 -1.260961e+00 -3.618206e+00 -1.942724e+00 1.487938e+00 1.827671e+00 -1.189354e+00 -5.095997e-02 -5.598414e-03 1.086682e-01 -6.241236e-01 -4.500319e-01 -5.733151e-02 1.126613e+00 1.567818e+00 -3.693982e-01 -5.325211e-01 -1.221796e+00 1.188326e-01 1.082277e+00 -4.534324e-02 
3.781309e+00 -6.495504e+00 -2.253281e+00 -8.257160e+00 -1.754933e+01 2.039623e+00 -1.592528e+01 -6.229083e+00 -9.184366e+00 6.865617e+00 1.040123e+01 -7.951611e+00 2.136350e+01 8.032619e-01 1.894928e+00 -1.288161e+00 -1.626411e+00 1.228562e+00 5.154869e+00 1.174543e+00 -2.439353e+00 -2.795296e+00 -7.209673e-02 1.336079e+00 1.122695e+00 -8.195095e-02 3.711387e-02 -2.283723e-01 -1.348328e-01 3.753655e-02 -2.430369e-01 -4.707103e-02 1.392011e+00 5.158060e-01 -8.807874e-02 -1.565297e+00 -7.140994e-01 1.226687e+00 -4.404711e-02 
4.059304e+00 -5.110750e+00 -4.501538e+00 -1.207989e+01 -1.969199e+01 3.888732e+00 -1.256909e+01 -1.395726e+01 -1.497616e+01 1.175863e+00 9.248116e+00 -5.986945e+00 2.098668e+01 6.968800e-01 1.321478e+00 -9.899144e-01 -1.029293e+00 4.832842e-01 3.781689e+00 1.614265e+00 -1.257699e+00 -2.039275e+00 -1.969293e+00 -2.446723e-01 2.463211e+00 -1.517818e-01 -5.238635e-02 -5.171170e-01 1.086778e-01 4.980460e-01 -2.374025e-01 -1.121186e+00 5.504194e-01 1.042033e+00 5.452510e-01 -8.908693e-01 -9.781750e-01 8.392628e-01 -1.447239e-02 
5.464971e+00 -4.151504e+00 -5.169197e+00 -1.306971e+01 -1.689473e+01 9.154462e+00 -9.718104e+00 -1.201450e+01 -1.713392e+01 -5.766245e-01 6.864526e+00 -1.881078e+00 2.104518e+01 7.284935e-01 3.974879e-01 -4.557421e-01 -7.112408e-01 6.734440e-01 1.463378e+00 2.003274e+00 -4.867793e-01 -9.849867e-01 -2.914494e+00 -1.954584e+00 2.615546e+00 -1.433569e-01 -1.515078e-01 -6.410106e-01 1.361619e-02 6.490954e-01 6.426311e-03 -1.651101e+00 -1.391778e-01 8.160815e-01 9.203690e-01 -2.427865e-01 -7.185478e-01 -1.381315e-01 -1.256935e-02 
5.946315e+00 -3.728836e+00 -3.828680e+00 -1.087916e+01 -1.494576e+01 9.072743e+00 -8.776124e+00 -9.602183e+00 -1.407990e+01 -1.803135e+00 6.555266e+00 1.900380e+00 2.078117e+01 3.665640e-01 -2.032699e-01 -8.993624e-01 2.301707e-01 4.766228e-01 -1.898516e-01 1.076771e+00 6.156740e-01 -1.216243e-01 -1.545210e+00 -1.417872e+00 2.260534e+00 -9.261894e-02 -1.591831e-01 -6.247784e-01 -1.821030e-02 6.367286e-01 4.278049e-01 -1.056559e+00 -3.552292e-01 4.570878e-01 8.368276e-01 4.298764e-01 -2.778065e-01 -6.841106e-01 -1.632988e-02 
6.480270e+00 -5.199021e+00 -4.868421e+00 -1.241373e+01 -1.655523e+01 6.764504e+00 -7.805389e+00 -1.084052e+01 -1.455743e+01 -6.217354e+00 1.974733e+00 1.182455e+00 2.074947e+01 2.108809e-01 -5.477515e-01 -1.265356e+00 9.893336e-01 1.264024e+00 -1.114865e+00 7.474015e-01 7.043673e-01 8.477235e-01 -1.498070e+00 -1.670060e+00 5.333756e-01 -1.743792e-01 -3.038822e-01 -4.908561e-01 3.085384e-01 5.413911e-01 1.060249e+00 5.149180e-02 -3.932582e-01 2.170431e-01 7.149137e-01 8.353246e-01 7.387970e-02 -1.091127e+00 -5.038260e-02 
5.384474e+00 -5.603341e+00 -9.148739e+00 -1.125702e+01 -1.747862e+01 4.134453e+00 -8.141600e+00 -1.146588e+01 -1.687252e+01 -3.729825e+00 4.603651e+00 3.783961e+00 2.067144e+01 1.597710e-01 -1.329795e+00 -6.761590e-01 1.304063e+00 2.327018e+00 -2.119822e-01 4.660560e-01 4.321662e-01 1.228508e+00 -5.281225e-01 -1.775967e+00 8.374266e-02 -2.179201e-01 -4.319436e-01 -3.249613e-01 8.388750e-01 -2.631922e-02 1.314411e+00 5.839822e-01 -3.185988e-01 2.699504e-01 6.466329e-01 7.781686e-01 7.964029e-02 -1.217088e+00 -7.979058e-02 
6.800296e+00 -5.953009e+00 -8.835947e+00 -7.934111e+00 -9.308172e+00 6.049281e+00 -6.298359e+00 -7.560810e+00 -1.149899e+01 -7.103631e+00 -5.099671e-01 -1.559907e-01 2.022815e+01 -6.875209e-01 -1.493530e+00 9.753485e-01 1.458769e+00 5.049489e+00 1.731902e+00 3.423410e-01 6.901903e-01 1.914516e+00 7.535852e-01 -1.406139e+00 -1.751694e+00 -3.326193e-01 -5.155107e-01 -2.855045e-02 9.370264e-01 -6.346295e-01 4.087123e-01 1.077278e-01 -7.747923e-01 3.789493e-01 3.017656e-01 8.844245e-01 4.603406e-01 -8.606981e-01 -1.985138e-02 
6.585157e+00 -1.000081e+01 -5.225712e+00 -6.598656e+00 -6.934193e+00 8.370444e+00 -7.199359e+00 -9.081207e+00 -9.466578e+00 -4.000609e+00 -1.082217e+00 2.988316e+00 1.995223e+01 -1.343953e+00 -1.355187e+00 2.174660e+00 -1.361429e-01 5.155948e+00 1.306676e+00 -3.136931e-01 1.972515e+00 2.578144e+00 1.219805e+00 -1.151631e+00 -2.682372e+00 -4.124517e-01 -3.329692e-01 4.196722e-01 3.402364e-01 -8.959467e-01 -1.129920e+00 -9.810579e-01 -1.292363e+00 2.917307e-01 -3.600704e-02 5.150572e-01 8.051747e-01 -5.886800e-01 8.822298e-02 
2.442325e+00 -1.046793e+01 -1.953192e+00 -7.449068e+00 3.420001e+00 1.330602e+01 -6.564805e+00 -8.581906e+00 -8.687819e+00 -2.314036e+00 -2.213027e+00 -7.178192e+00 1.944598e+01 -1.614810e+00 -6.778075e-01 1.994367e+00 -1.463711e+00 1.893121e+00 -1.335555e+00 -2.736685e+00 1.828939e+00 1.681733e+00 2.050088e+00 3.194755e-01 -2.387058e+00 -1.763702e-01 1.891373e-01 5.913402e-01 -6.318275e-01 -5.413632e-01 -2.793211e+00 -1.563883e+00 -1.304272e+00 -1.347468e-01 -2.071444e-02 6.598769e-02 1.124685e+00 2.019327e-01 2.154260e-01 
8.436942e-01 -1.012181e+01 -1.716815e+00 -1.218026e+01 1.937026e+00 7.039465e+00 -9.576842e+00 -1.092762e+00 -5.387387e+00 -2.559976e-02 -3.029763e-01 -6.116801e+00 1.900027e+01 -1.041430e+00 3.607053e-01 5.155140e-01 -1.714431e+00 -1.744398e+00 -3.583543e+00 -4.456247e+00 1.321445e+00 1.164864e+00 1.398912e+00 1.387100e+00 -2.541975e+00 1.450703e-01 5.393427e-01 5.230870e-01 -1.240404e+00 1.950148e-01 -2.819189e+00 -6.231617e-01 -3.524117e-01 -6.609271e-01 1.171574e-01 -1.867636e-02 1.190870e+00 5.358287e-01 2.559108e-01 
1.596975e+00 -9.281548e+00 -6.185619e-01 -1.246186e+01 -4.278177e+00 3.699466e-02 -1.879304e+01 -2.410335e+00 -5.129919e+00 1.159305e+00 6.977898e-01 -7.538722e+00 1.982228e+01 1.069041e-01 6.052248e-01 -1.354216e+00 -4.589036e-01 -5.466393e+00 -3.642404e+00 -4.107741e+00 3.419908e-01 2.517584e+00 9.939700e-01 2.947919e+00 -8.122288e-01 4.657497e-01 4.928719e-01 2.309794e-01 -1.005859e+00 4.205296e-01 -1.162979e+00 1.030839e+00 1.114681e+00 -5.848458e-01 1.690055e-01 1.663284e-01 7.224740e-01 5.682117e-01 1.351461e-01 
1.800680e+00 -8.790482e+00 -3.315457e+00 -1.266441e+01 -1.180709e+01 -2.912761e+00 -2.336647e+01 -5.559766e+00 -5.421207e+00 1.257279e+00 4.397875e+00 -9.541295e+00 2.048944e+01 4.919032e-01 6.187319e-01 -2.353070e+00 3.365275e-01 -5.260240e+00 -6.557080e-01 -1.390224e+00 -5.886462e-01 2.746006e+00 1.654482e+00 3.488497e+00 -7.906432e-01 5.460423e-01 1.584675e-01 4.749772e-02 -2.134282e-01 9.226716e-02 8.663918e-01 1.991822e+00 1.830105e+00 -2.476453e-01 -3.669146e-01 5.397063e-01 -5.190539e-02 5.243707e-01 -3.976328e-02 
2.498353e+00 -8.107476e+00 -7.924951e+00 -9.501510e+00 -1.703990e+01 7.011174e-02 -2.020870e+01 -4.638451e+00 3.917010e+00 2.014374e+00 1.017615e+01 -9.527088e+00 2.103014e+01 8.288231e-02 3.480762e-01 -1.600636e+00 -3.865424e-01 -2.163853e+00 2.354720e+00 1.303707e+00 -1.402440e-01 1.736190e+00 2.753946e+00 2.881147e+00 -4.216655e-01 2.988741e-01 -2.341704e-01 1.070654e-01 6.402841e-01 -5.134403e-01 2.138835e+00 1.499670e+00 1.625466e+00 -8.948284e-02 -1.300475e+00 3.979811e-01 -8.224829e-01 3.724312e-01 -1.693931e-01 
2.852521e+00 -7.615189e+00 -9.828973e+00 -1.197780e+01 -1.798331e+01 3.744367e+00 -1.582013e+01 -2.921935e+00 3.819177e+00 7.819275e+00 1.240033e+01 -9.075833e+00 2.112654e+01 -2.370819e-01 7.267682e-01 -4.284170e-01 -1.289276e+00 9.362911e-01 3.377007e+00 1.988555e+00 3.243361e-01 -2.790118e-01 3.217456e+00 1.160959e+00 -1.154036e-01 2.969170e-02 -3.430993e-01 2.084466e-01 7.692848e-01 -5.666194e-01 1.755732e+00 2.292444e-01 9.816868e-01 -2.666223e-01 -1.347548e+00 -3.419445e-01 -9.869903e-01 5.184776e-01 -1.781309e-01 
1.485466e+00 -8.128813e+00 -5.364986e+00 -1.473788e+01 -1.200934e+01 8.482032e+00 -1.604768e+01 -4.430470e+00 -1.069161e+00 1.164804e+01 1.110229e+01 -9.879780e+00 2.099810e+01 -6.994556e-01 1.086534e+00 8.848778e-01 -2.213203e+00 2.129515e+00 1.839589e+00 2.330197e+00 -5.619146e-01 -2.472283e+00 2.202389e+00 -7.267952e-04 7.123073e-01 -1.230406e-01 -2.171023e-01 3.146820e-01 2.508617e-01 -2.574757e-01 3.697182e-01 -7.598484e-01 5.816640e-01 -4.049283e-01 -8.060619e-01 -1.155099e+00 -6.669427e-01 5.471050e-01 -9.236753e-02 
1.121714e+00 -5.145972e+00 -6.737525e+00 -1.649261e+01 -9.640922e+00 9.766315e+00 -1.550421e+01 -4.042076e+00 -4.323181e+00 1.252773e+01 9.739598e+00 -9.941967e+00 2.065392e+01 -8.324243e-01 1.291736e+00 2.505968e-01 -1.583239e+00 1.371737e+00 7.480796e-01 3.004966e+00 -1.710922e+00 -1.887496e+00 2.205378e-01 -5.517387e-03 1.234758e+00 -1.336550e-01 -1.129566e-01 2.410613e-01 -4.806130e-02 -1.606420e-01 -7.329103e-01 -8.765683e-01 3.473628e-01 -2.420477e-01 -1.690453e-02 -1.583832e+00 -2.860988e-01 5.937178e-01 -1.325981e-02 
-1.335215e-01 -3.909416e+00 -5.046286e+00 -1.831012e+01 -1.056352e+01 6.257082e+00 -8.715672e+00 -6.887953e+00 -4.373224e+00 1.067209e+01 1.150288e+01 -5.532485e+00 2.065125e+01 -7.049581e-01 1.639002e+00 -6.858348e-01 -1.526939e+00 -5.329847e-01 -1.300578e-01 3.703822e+00 -1.147256e+00 -1.489877e+00 -1.523092e+00 1.296720e-01 1.638778e+00 -8.129025e-02 -3.566875e-02 3.213330e-01 2.164064e-02 -2.230572e-01 -8.437394e-01 -3.178617e-01 -4.379178e-01 3.752723e-01 4.055706e-01 -1.386043e+00 -1.986412e-01 3.696236e-01 -4.540652e-03 
-5.001067e-01 -3.266207e+00 -8.735339e+00 -1.810788e+01 -1.184753e+01 8.597239e+00 -4.461307e+00 -1.024781e+01 -3.966271e+00 9.409936e+00 1.217245e+01 -5.075689e+00 2.063169e+01 -7.991138e-01 1.655841e+00 1.166327e-01 -2.435618e+00 -1.397011e+00 -2.101097e-02 3.038557e+00 -5.932315e-01 -8.547372e-01 -2.838965e+00 -3.347340e-01 2.389950e+00 -5.748253e-02 -1.562762e-01 4.832231e-01 5.444168e-01 -2.787672e-02 1.509459e-01 -6.717501e-02 -1.451816e+00 9.144009e-01 5.482106e-01 -8.079036e-01 -5.643644e-01 -1.942608e-02 -6.972550e-02 
-1.228415e+00 -8.736846e-01 -7.795253e+00 -2.156494e+01 -1.357095e+01 8.416281e+00 -3.050018e+00 -7.063886e+00 -8.697003e+00 5.591470e+00 1.053423e+01 -4.119026e+00 2.060276e+01 -8.944546e-01 2.511147e+00 1.060063e+00 -2.902300e+00 -7.048079e-01 6.348258e-01 1.238129e-01 7.556013e-01 -9.608095e-01 -3.198075e+00 -8.293244e-01 1.982830e+00 -1.838301e-01 -3.305266e-01 3.895979e-01 7.783860e-01 8.301799e-01 1.147078e+00 8.672275e-02 -1.878201e+00 7.990611e-01 1.058660e+00 -3.629038e-01 -6.566428e-01 -2.578770e-01 -1.710091e-01 
-2.326408e+00 1.615365e+00 -4.779877e+00 -2.704329e+01 -1.512226e+01 8.581661e+00 -3.144255e+00 -6.920267e+00 -6.434977e+00 8.732132e-01 8.550254e+00 1.301052e+00 2.039075e+01 -1.519057e+00 3.271779e+00 2.099732e+00 -1.034943e+00 2.212378e+00 2.976274e-02 -2.464111e+00 1.909653e+00 5.890230e-01 -2.981490e+00 -2.347841e+00 9.656023e-01 -4.310125e-01 -3.477150e-01 1.092684e-02 5.783761e-01 1.827327e+00 1.407444e+00 2.247171e-03 -1.593508e+00 1.798860e-01 1.254701e+00 1.819601e-02 -2.642745e-01 -5.000098e-01 -2.277635e-01 
-3.692643e+00 6.205531e+00 -1.723701e+00 -2.835392e+01 -1.245020e+01 9.439000e+00 -8.755133e+00 -4.773716e+00 -7.942919e+00 -1.049921e+00 9.167356e+00 1.193294e+00 1.985257e+01 -1.997620e+00 2.779022e+00 2.214545e+00 1.923623e+00 3.397712e+00 2.781691e-01 -2.935852e+00 1.596607e+00 3.081544e+00 -3.266349e+00 -2.146988e+00 1.061567e+00 -7.495708e-01 -5.885231e-02 -8.468899e-01 2.126816e-01 1.945288e+00 8.531297e-01 -1.219934e-01 -2.850658e-01 -5.801684e-01 1.084720e+00 6.487168e-01 1.602165e-01 -1.623894e-01 -1.967649e-01 
-6.863277e+00 9.553082e+00 -1.272456e+00 -1.988810e+01 -1.346024e+00 8.234694e+00 -1.392930e+01 -1.844624e+00 -1.398198e+00 -2.176817e+00 1.116682e+00 -2.903838e+00 1.885172e+01 -1.986106e+00 1.576537e+00 2.431272e+00 4.288056e+00 3.588951e+00 1.685533e-01 -3.399152e+00 -1.143044e-01 3.397593e+00 -2.713848e+00 -9.972744e-01 3.505319e-01 -9.134296e-01 4.469460e-01 -1.564624e+00 -2.759972e-01 7.636862e-01 -6.706488e-01 3.122498e-02 7.223077e-01 -6.814305e-01 2.661268e-01 1.349549e+00 8.184665e-01 2.697147e-01 -5.761726e-02 
-8.948078e+00 9.052567e+00 1.523764e+00 -1.552442e+01 -3.470510e+00 9.980610e+00 -1.233675e+01 -1.618672e+00 4.192330e+00 -9.215261e+00 3.516071e+00 3.291256e+00 1.762442e+01 -9.551916e-01 -8.756815e-01 1.957701e+00 4.162640e+00 2.872554e+00 -4.453669e-02 -8.339957e-01 -1.133262e+00 3.058506e+00 -8.831153e-02 -7.035254e-01 1.478418e+00 -9.264458e-01 1.013804e+00 -1.404141e+00 -6.497064e-01 -3.229876e-01 -1.476719e+00 -3.555459e-01 1.040594e+00 -4.048706e-01 -8.865015e-01 1.669373e+00 5.969980e-01 1.191040e-01 1.156750e-01 
-9.629222e+00 8.074531e+00 5.752749e+00 -1.201775e+01 -1.667347e+00 9.153623e+00 -1.834920e+01 -9.069311e+00 4.485364e+00 -8.613356e+00 6.389524e+00 2.004731e+00 1.693768e+01 1.944587e-01 -2.723988e+00 8.481684e-01 1.663980e+00 -8.782873e-01 3.472405e-01 9.649964e-02 -1.325643e-01 1.931176e+00 2.177238e+00 1.022760e+00 2.105750e+00 -6.306614e-01 1.052482e+00 -8.006835e-01 -1.111474e+00 -6.312485e-01 -1.760871e+00 -8.573907e-01 1.380902e+00 2.667257e-01 -1.250046e+00 1.116748e+00 1.649755e-01 -1.004349e-01 2.221543e-01 
-7.085629e+00 2.566398e+00 4.552201e+00 -1.147589e+01 2.073236e+00 8.756852e+00 -1.071516e+01 -6.827683e+00 4.407827e+00 1.726791e+00 3.013307e+00 6.131099e+00 1.617736e+01 1.981117e+00 -2.091420e+00 -2.424345e-01 1.620723e+00 -1.752266e+00 -1.588904e+00 5.192941e-01 -4.186159e-01 -6.177546e-01 2.634971e+00 -1.720158e-01 7.794780e-01 -3.125801e-01 4.354951e-01 4.490203e-02 -1.139244e+00 -3.588127e-01 -1.477679e+00 -1.033800e+00 1.005562e+00 3.926407e-01 -1.380323e+00 -1.416459e-01 7.429008e-02 -7.110595e-01 2.007221e-01 
-6.822208e+00 -8.237739e-01 1.454168e+00 -1.359247e+01 -8.509334e+00 1.058278e+01 -1.425760e+01 9.705994e-02 8.149935e+00 3.238345e+00 6.481865e+00 6.204992e+00 1.642194e+01 1.808147e+00 -1.819011e+00 -2.026031e+00 2.402772e+00 -2.902994e+00 -3.346217e+00 2.828714e+00 8.620008e-01 -1.014504e+00 1.508254e+00 -4.381517e-01 1.978271e-01 -1.095909e-01 6.525626e-02 2.030106e-01 -1.058739e+00 -5.035216e-01 -3.374915e-01 -6.470070e-01 9.192002e-01 -1.814046e-01 -1.055871e+00 -5.605632e-01 -9.917206e-02 -1.154255e+00 2.319499e-01 
-4.459996e-01 3.044618e+00 2.460882e+00 -6.633446e+00 -8.810847e+00 1.321513e+00 -1.178608e+01 -8.294937e+00 -7.287276e-01 -1.966257e+00 2.609822e+00 5.088515e+00 1.631939e+01 4.154398e-01 -1.103660e+00 -2.301418e+00 1.999180e+00 -3.503486e+00 -3.366809e+00 2.827706e+00 3.326587e-01 -2.370270e+00 -4.620492e-01 3.983809e-01 -1.122918e+00 -1.833708e-01 -4.757073e-02 -2.344055e-01 -8.611687e-01 -1.314213e+00 4.323831e-01 7.832435e-01 4.585570e-01 -2.743855e-01 -2.476511e-02 -1.368695e-01 3.497033e-01 -1.343018e+00 3.275973e-01 
-3.908300e+00 -1.259635e+00 -3.331749e+00 -2.425115e+00 -1.074027e+01 -3.859790e+00 -3.670174e+00 -4.025680e+00 1.981121e+00 7.744370e-01 4.400508e+00 3.515158e+00 1.631871e+01 1.303579e+00 -2.202816e+00 -3.416035e+00 -1.042857e+00 -1.690135e+00 -1.998842e+00 3.538295e+00 -1.415225e+00 -2.471921e+00 9.229318e-01 2.417016e-01 -2.714325e+00 4.644834e-01 3.880335e-01 -4.304525e-01 -2.084698e-01 -1.772307e+00 1.159050e+00 1.821279e+00 -3.778322e-01 -5.666636e-01 6.325759e-01 1.023468e-01 4.478142e-01 -1.345386e+00 3.997621e-01 
-6.465384e+00 -2.733970e+00 -4.561932e+00 -7.063667e+00 -1.432872e+01 -8.559079e-01 -1.870343e+00 -3.103020e+00 -4.359115e+00 6.484988e-01 6.045890e+00 1.861426e+00 1.531212e+01 1.995548e+00 -3.071546e+00 -3.853276e+00 -3.227528e+00 -1.967799e-01 1.653626e+00 2.457289e+00 -6.519307e-01 -1.287148e-02 2.243284e+00 1.236574e+00 -4.479538e+00 1.038369e+00 4.904036e-01 -4.583789e-01 2.507624e-01 -1.067363e+00 1.426467e+00 1.556821e+00 -6.225217e-01 -3.717882e-01 1.289775e+00 -1.502516e-01 2.619509e-01 -9.423451e-01 3.465559e-01 
2.705376e+00 -8.948557e+00 -1.211460e+01 -1.859164e+01 -1.420107e+01 1.677274e+00 -1.523996e+00 -9.575022e+00 -2.394478e+00 6.545626e+00 5.972339e+00 -5.753087e+00 1.924799e+01 2.958261e+00 -2.987331e+00 -2.292452e+00 -3.845410e+00 1.238903e+00 3.249962e+00 1.124761e+00 -1.479022e+00 9.696758e-01 6.673209e-01 1.381823e+00 -4.850793e+00 1.278350e+00 -2.932578e-01 -3.062873e-02 8.604482e-01 4.144214e-01 1.025576e+00 5.452287e-01 -6.070037e-01 3.071161e-01 9.754847e-01 -9.601046e-01 -4.719727e-02 -8.015509e-02 -2.147223e-02 
6.224901e+00 -8.468650e+00 -1.241407e+01 -1.468782e+01 -8.064350e+00 6.821110e+00 -5.727280e-01 -8.779920e+00 1.394714e+00 6.364570e+00 8.006777e+00 -1.267505e+01 2.004660e+01 2.040117e+00 -3.003297e+00 -1.609398e+00 -1.936356e+00 2.164328e+00 1.792892e+00 9.218645e-01 -1.494384e+00 2.357808e+00 -1.085502e+00 1.138075e+00 -4.766410e+00 1.142476e+00 -9.020184e-01 2.173136e-01 9.803315e-01 1.170565e+00 4.415035e-01 -7.158594e-01 -2.361559e-01 5.735799e-01 2.065683e-01 -1.110788e+00 -6.790780e-01 7.384783e-01 -2.797584e-01 
4.537861e+00 -1.332895e+01 -1.086794e+01 -1.784009e+01 -7.677948e+00 8.551512e+00 1.304826e+00 -8.582342e+00 3.952585e+00 1.253006e+00 1.032918e+01 -1.347057e+01 2.034323e+01 -1.849947e-01 -2.390084e+00 -2.357327e-01 3.836646e-01 2.257191e+00 6.576684e-01 1.270988e+00 5.415824e-01 1.220162e+00 -2.213198e+00 5.496464e-02 -2.971664e+00 3.050690e-01 -1.006565e+00 3.822229e-01 6.784438e-01 1.316263e+00 -5.938029e-03 -1.028877e+00 -2.350307e-02 9.041042e-01 -2.679863e-01 -4.684816e-01 -1.104823e+00 1.094679e+00 -3.513153e-01 
2.818957e+00 -1.556026e+01 -1.323225e+01 -1.712123e+01 -6.768644e+00 4.671433e+00 1.324569e+00 -1.107128e+01 4.256395e+00 -2.132701e+00 9.557844e+00 -1.811189e+01 2.047689e+01 -9.429165e-01 -2.283601e+00 2.002211e-02 5.107619e-01 1.501593e+00 -6.295241e-01 1.203396e+00 1.205666e+00 8.947266e-01 -1.870396e+00 -1.495387e+00 -1.726711e+00 1.262176e-01 -4.489873e-01 5.508565e-01 2.668962e-01 9.676450e-01 -1.917317e-01 -6.833625e-01 6.654213e-02 7.268163e-01 -7.120326e-01 2.807117e-01 -1.295684e+00 1.319781e+00 -2.705655e-01 
3.483375e+00 -1.735317e+01 -1.288417e+01 -1.545662e+01 -3.562963e+00 6.040455e+00 3.882297e+00 -5.721430e+00 2.275492e+00 -2.717281e-01 5.471628e+00 -1.789299e+01 2.055819e+01 -5.830472e-01 -1.436064e+00 2.850572e-01 1.512347e+00 1.540580e+00 -6.832156e-01 8.664804e-01 1.691474e+00 3.612852e-01 -1.282640e+00 -2.825562e+00 -8.972483e-01 2.990227e-02 1.650480e-01 7.651317e-01 -4.298216e-01 4.987667e-01 -1.260755e-01 -6.061671e-01 -1.458528e-01 3.549713e-03 -7.438028e-01 4.789283e-01 -8.115360e-01 1.184355e+00 -1.156333e-01 
2.037561e+00 -1.787454e+01 -1.130584e+01 -1.332575e+01 -2.613875e+00 4.929018e+00 4.155516e+00 -4.182044e+00 6.706894e+00 -2.225045e+00 2.958619e+00 -1.909739e+01 2.057020e+01 -5.793905e-03 -7.260243e-01 -5.353119e-01 2.337528e+00 1.563975e+00 -9.534787e-01 1.456829e+00 1.564752e+00 -7.729162e-01 -1.472225e-01 -3.900082e+00 7.952850e-01 -7.276821e-02 3.781989e-01 8.034136e-01 -8.077759e-01 4.052923e-01 8.185958e-03 -5.237500e-01 -6.830338e-02 -3.241712e-01 -8.442237e-01 3.992396e-01 -1.600434e-01 1.114479e+00 -1.001507e-01 
2.013323e+00 -1.935213e+01 -1.040586e+01 -1.217609e+01 -2.052432e+00 5.006641e+00 4.221754e+00 -3.569589e+00 4.533762e+00 -5.114022e+00 -4.990150e-01 -1.746405e+01 2.044608e+01 1.716839e-01 6.567861e-01 -2.107174e+00 1.964115e+00 1.595623e+00 -2.211190e+00 4.150077e-01 3.797881e-01 -1.665030e+00 -6.801433e-01 -2.800368e+00 1.689111e+00 -1.736046e-01 1.611606e-01 4.417821e-01 -4.578163e-01 -5.659065e-02 -7.730985e-02 -3.008198e-01 -6.316097e-02 -5.414449e-01 -2.615615e-01 2.090929e-01 5.081425e-01 8.909939e-01 -8.819813e-02 
3.525013e+00 -1.819090e+01 -1.714797e+01 -7.073848e+00 2.959653e-01 4.209462e-01 8.438986e+00 -4.323439e+00 -7.373207e-01 -4.476668e-01 -6.957246e+00 -1.434993e+01 2.016910e+01 5.707124e-01 6.870419e-01 -2.822742e+00 2.311339e+00 1.515002e+00 -2.484287e+00 1.087615e+00 2.406530e-01 -2.313234e+00 -1.754468e-01 -2.308201e+00 2.552503e+00 -2.727827e-01 -1.397114e-01 2.009218e-01 4.306801e-01 -5.041016e-01 -2.326965e-01 4.183496e-01 -2.655317e-01 -3.148424e-01 4.705264e-01 1.350978e-01 1.000171e+00 2.965136e-01 -7.952963e-02 
3.598068e+00 -1.391106e+01 -2.049898e+01 -8.761992e+00 2.960232e+00 -2.761459e+00 3.815600e+00 -3.751793e+00 -2.327553e+00 -4.561134e+00 -3.572277e+00 -1.182117e+01 1.989072e+01 -6.549723e-02 6.631336e-02 -8.603094e-01 1.242488e+00 1.178518e+00 -1.421910e+00 7.352824e-01 -3.537008e-01 -1.763633e-01 -2.230632e-01 -1.080790e+00 2.679112e+00 -3.110811e-01 -3.622876e-01 2.232413e-01 1.241799e+00 -4.786951e-01 -3.664156e-01 1.241673e+00 -1.169871e-01 2.462577e-01 7.488019e-01 3.880949e-01 8.384750e-01 -2.992230e-01 -1.148800e-01 
4.098751e+00 -1.715986e+01 -2.037299e+01 -3.476106e+00 2.454801e+00 -3.608368e+00 9.796669e+00 -2.887677e+00 -1.428620e+00 -3.378723e+00 -7.045754e+00 -9.156322e+00 1.948397e+01 -5.857604e-01 5.738214e-01 9.946564e-01 1.778336e-01 6.090456e-01 7.436291e-01 -3.096678e-02 3.572845e-01 8.353823e-01 2.997265e-01 2.409824e-01 1.782852e+00 -4.016781e-01 -5.875314e-01 6.696898e-01 1.284943e+00 -4.542443e-01 -2.595304e-01 1.496499e+00 -3.885480e-01 8.070533e-01 7.059622e-01 4.794419e-01 5.434642e-01 -7.001832e-01 -1.815971e-01 
1.398968e+00 -1.953608e+01 -1.309489e+01 -7.762525e+00 2.760738e+00 -8.825179e-02 7.219325e+00 -6.055974e+00 3.997595e+00 -4.763810e+00 -5.858710e+00 -6.665298e+00 1.923324e+01 -1.061517e+00 1.829603e+00 2.193122e+00 6.373924e-01 2.165232e-01 2.383216e+00 3.893630e-01 1.552761e+00 5.046711e-01 1.022744e+00 1.174157e-01 5.778213e-01 -6.835572e-01 -5.167747e-01 7.802944e-01 3.773749e-01 -4.136937e-02 -1.358542e-01 1.158928e+00 -1.407348e-01 1.325969e+00 2.668175e-01 5.153063e-01 5.569993e-02 -8.454639e-01 -2.246497e-01 
1.695761e+00 -1.250929e+01 -1.587673e+01 -6.684413e+00 3.440940e+00 2.802488e+00 6.582290e+00 -1.384925e+00 2.770170e-01 1.152304e+00 -4.609117e+00 -8.013605e+00 1.848945e+01 -1.868935e+00 3.153846e+00 2.075257e+00 3.426650e-01 6.983467e-01 3.095646e+00 -6.821653e-01 3.322688e+00 8.760595e-01 1.598859e+00 -1.899824e-01 1.022323e-01 -9.945303e-01 -4.169396e-01 1.666940e-01 -1.559890e-01 1.328605e-01 -8.250888e-02 3.103028e-01 -9.698916e-02 6.412192e-01 1.503607e-01 1.504607e-01 -1.432424e-01 -2.379978e-01 -1.656182e-01 
-5.080246e-01 -7.088335e+00 -1.178150e+01 -3.970876e+00 3.549779e+00 5.949194e+00 7.369605e+00 3.260635e+00 -6.570156e-01 -1.712926e+00 -4.203517e+00 -9.503423e+00 1.697019e+01 -2.007783e+00 2.677773e+00 4.862650e-01 9.532251e-01 4.545960e-01 3.196720e+00 3.572078e-01 4.793440e+00 1.137386e+00 1.703902e+00 -5.868078e-01 -7.078979e-01 -1.137904e+00 -9.102766e-02 -5.605003e-01 -3.420658e-01 -1.253687e-02 -1.603063e-01 -6.623964e-01 -4.701312e-01 -7.660640e-01 -1.812583e-01 -3.279691e-01 -1.438519e-01 4.324005e-01 -3.508687e-03 
-4.292428e+00 -7.614504e+00 -1.065341e+01 -3.658606e+00 5.552014e+00 8.851140e+00 6.310703e+00 9.067460e+00 5.278983e+00 3.090129e+00 -8.823263e+00 -7.226098e+00 1.564284e+01 -2.197326e+00 9.832063e-01 1.068140e+00 6.842197e-01 7.746482e-02 1.888391e+00 -4.998350e-01 1.943041e+00 1.270828e+00 7.114512e-01 -1.231181e-01 1.235723e+00 -1.002596e+00 2.368978e-01 -8.654546e-01 -2.622150e-01 -8.148108e-02 -3.464894e-01 -1.399462e+00 -6.597027e-01 -1.831426e+00 -8.282083e-01 -7.426144e-01 4.936018e-02 5.721346e-01 1.513406e-01 
-5.645855e+00 -8.594604e+00 -1.327523e+01 -4.509303e+00 3.978182e+00 1.287102e+01 9.141157e+00 1.268503e+01 7.183541e+00 2.786788e+00 -6.685677e+00 -1.059854e+01 1.496703e+01 -1.352460e+00 1.124213e-01 9.863510e-01 4.039307e-01 -2.745672e-01 -3.251384e-01 -2.052458e+00 -1.587736e+00 -5.990046e-01 -1.733974e-01 -6.352760e-01 2.173079e+00 -6.970679e-01 3.751321e-01 -7.170376e-01 -5.759684e-02 -2.444552e-01 -3.261152e-01 -1.715172e+00 -7.906236e-01 -1.851007e+00 -1.028331e+00 -6.268569e-01 3.944383e-01 5.462716e-01 2.053990e-01 
-6.721951e+00 -6.840122e+00 -9.789169e+00 -2.994101e+00 3.614063e+00 8.783532e+00 3.197338e+00 3.618080e+00 2.710880e+00 2.459703e+00 -3.983628e+00 -1.287430e+00 1.447805e+01 -1.012107e+00 1.092491e-01 5.141385e-01 2.099068e-01 -6.695185e-01 -2.140734e+00 -2.775846e+00 -2.643853e+00 -2.396787e+00 -1.175564e+00 8.105259e-02 1.522417e+00 -4.582451e-01 3.794498e-01 -3.425967e-01 -2.045994e-01 -2.526223e-01 -3.030173e-01 -1.169716e+00 -1.213691e-01 -4.617113e-01 -3.748883e-01 1.357448e-01 7.431265e-01 -2.986830e-01 1.823650e-01 
-6.055564e+00 -6.913420e+00 -7.281865e+00 -2.283475e+00 3.145918e+00 4.357306e+00 -1.336004e+00 -1.953353e+00 -2.367987e+00 -2.264699e+00 -9.799715e+00 -1.607364e+00 1.406725e+01 -7.247322e-01 -4.704360e-01 4.752814e-01 -3.189464e-02 -8.024885e-01 -3.364578e+00 -2.457905e+00 -2.168148e+00 -2.170461e+00 -4.868751e-01 1.283298e+00 1.880113e+00 -3.830837e-01 1.932980e-01 -1.675491e-01 1.860791e-01 -3.614602e-01 -2.250036e-01 5.805025e-02 4.956689e-01 6.985632e-01 7.636832e-01 3.352951e-01 8.989468e-01 -3.650659e-01 1.411934e-01 
-9.148109e+00 -7.908851e+00 -1.107940e+01 -3.721986e+00 2.620553e+00 2.404327e+00 -2.329945e+00 3.167387e+00 -1.929188e+00 -2.619459e-01 -6.860981e+00 -4.109602e+00 1.380151e+01 -6.139410e-01 -4.383486e-01 3.006774e-01 -3.609790e-01 -1.173661e+00 -2.440468e+00 -9.039572e-01 -7.530999e-02 1.821149e-01 1.546914e+00 2.633227e+00 -1.112094e-01 -2.477629e-01 1.938859e-01 -6.441370e-02 7.419870e-01 -3.860054e-01 -6.417729e-02 1.089008e+00 6.017128e-01 7.667400e-01 1.279220e+00 -7.315039e-02 2.351078e-01 -3.666496e-03 1.223051e-01 
-8.056437e+00 -1.041242e+01 -1.025371e+01 -4.304833e+00 4.624936e-01 -7.622682e-01 -3.847254e-01 2.069640e+00 -1.348731e+00 1.713237e+00 1.169491e+00 2.131116e-01 1.338988e+01 -5.850533e-01 -4.515254e-01 2.023477e+00 -1.117927e+00 -1.147514e+00 1.149799e-01 -5.100579e-01 6.208088e-01 1.929960e+00 1.418393e-01 2.583371e+00 1.164562e+00 -9.634180e-02 1.436141e-01 1.087813e-01 8.077644e-01 -2.976707e-01 1.463190e-01 1.514919e+00 3.100736e-01 4.404732e-01 8.881823e-01 -8.228669e-01 -7.098029e-01 8.008428e-02 1.170700e-01 
-8.791220e+00 -7.282365e+00 -6.799860e+00 -3.788317e+00 -9.125311e-01 -8.590227e-01 -1.798087e+00 1.230034e+00 3.111826e+00 8.205304e+00 3.697905e+00 -2.753715e+00 1.357792e+01 -1.125172e-01 -2.222747e-01 3.449976e+00 -1.177104e+00 -8.178924e-01 1.564526e+00 -7.412053e-01 -2.046312e-01 1.949103e+00 -1.855673e+00 6.065555e-01 1.861860e+00 9.909439e-03 1.040815e-01 1.224524e-01 6.193529e-01 -1.496672e-01 2.748502e-01 1.138852e+00 -6.487669e-02 -1.735519e-02 1.866678e-01 -1.193542e+00 -1.160697e+00 2.939857e-01 8.121584e-02 
-9.159276e+00 -9.484289e+00 6.957516e-01 -7.839947e+00 -8.251076e-01 6.563880e+00 -4.152223e+00 2.119368e+00 4.761308e+00 -5.789128e+00 -2.162305e+00 3.537503e+00 1.369733e+01 -2.573733e-01 -3.456635e-02 2.939454e+00 -1.112186e+00 -2.487779e-01 2.207520e+00 -9.889131e-01 9.887896e-02 1.386956e+00 -2.899916e+00 -1.252380e+00 1.294000e+00 7.343026e-02 5.105038e-02 1.021626e-01 1.321431e-01 7.640111e-03 2.366586e-01 4.828075e-01 -1.205418e-01 -7.403495e-02 -1.648156e-01 -7.127754e-01 -9.530438e-01 -3.089839e-02 4.030649e-02 
