-4.843323e+00 -9.806642e+00 -1.247647e+01 -1.765881e+00 -2.210449e+01 -1.959702e+01 8.378242e+00 6.828060e+00 -9.633781e+00 7.020054e+00 -1.790642e+01 8.354053e+00 2.123156e+01 3.061537e-01 2.775262e+00 2.517838e+00 -1.280519e-01 3.241104e+00 -6.764561e-01 -3.806660e+00 -1.591443e+00 -4.678917e-01 -1.852466e+00 3.456323e+00 -1.747244e+00 -4.582422e-01 -2.799177e-01 5.533102e-01 1.787360e-01 -2.749913e-01 3.454128e-01 1.021069e+00 3.633768e-01 -2.366405e-01 4.406589e-01 -3.592765e-01 1.132284e-01 -4.680080e-01 -9.083565e-02 
-2.875799e+00 -4.722476e+00 -6.122376e+00 -1.615903e+00 -1.417190e+01 -2.678575e+01 -2.370414e+00 8.573165e+00 -1.463582e+01 5.877208e+00 -8.675713e+00 6.684731e+00 2.038741e+01 -1.061718e-01 4.452559e+00 2.942148e+00 -9.346067e-01 4.398017e+00 1.543060e+00 -3.662326e+00 -3.000959e+00 -4.244536e-01 -3.514925e+00 4.245026e+00 -2.762014e+00 -7.040586e-01 -3.845529e-01 1.369531e-01 -9.994788e-02 -1.003515e-01 -7.970867e-02 1.355267e+00 1.229558e+00 -3.212142e-03 1.053056e+00 2.004494e-01 -5.160872e-01 -4.981669e-01 -9.112917e-02 
-4.296317e+00 1.527589e+00 -3.064320e+00 -2.481130e+00 -9.865259e+00 -1.938494e+01 -5.280728e+00 -2.001709e+00 -9.472219e+00 -1.670853e+00 -5.240156e+00 4.524956e-01 1.936243e+01 -8.872717e-01 4.703165e+00 3.199363e+00 -1.099731e+00 4.389711e+00 3.319130e+00 -2.061942e+00 -2.069888e+00 1.713684e+00 -2.817619e+00 3.628114e+00 -3.579898e+00 -7.895123e-01 -2.380979e-01 -8.141702e-01 -5.980839e-01 5.539928e-02 -6.957149e-01 9.281391e-01 1.704943e+00 8.679441e-01 1.129958e+00 8.750724e-01 -1.097228e+00 2.976086e-01 -5.778934e-02 
-5.647686e+00 6.789042e+00 -2.471798e+00 -6.081290e+00 -6.234017e+00 -1.198776e+01 -3.103905e+00 -3.761853e+00 -1.183683e+01 -6.209117e+00 -3.014419e+00 -1.505239e+00 1.864584e+01 -1.019898e+00 2.496077e+00 1.677336e+00 -1.439701e-01 2.268257e+00 4.102086e+00 1.468772e+00 -1.368282e+00 3.706603e+00 -3.676426e-01 7.899913e-01 -3.321751e+00 -7.482530e-01 -1.012774e-02 -1.754078e+00 -1.323448e+00 2.407899e-01 -9.466486e-01 1.044100e-01 1.285022e+00 1.499431e+00 2.179122e-01 1.815628e+00 -1.398369e+00 1.312668e+00 5.158453e-02 
-7.893738e+00 7.953422e+00 1.695061e+00 -5.031844e+00 -4.124874e+00 -1.040036e+01 -1.564723e+00 2.646129e+00 -2.464858e+00 -1.024879e+00 -2.596497e+00 -5.450451e+00 1.815479e+01 -4.274727e-01 -3.173471e-01 1.598248e-01 -2.463738e-01 8.274093e-01 2.684726e+00 2.152507e+00 1.931938e+00 3.116369e+00 9.492546e-01 -3.022989e-01 2.066735e-02 -7.250918e-01 1.387032e-01 -1.784943e+00 -2.051136e+00 -2.290800e-01 -3.053126e-01 6.820822e-03 1.932344e-01 9.972183e-01 -1.713185e+00 1.852392e+00 -8.923561e-01 1.919831e+00 1.454271e-01 
-6.176579e+00 4.544991e+00 -1.153843e-01 -1.060397e+00 -5.700812e+00 -1.076761e+01 3.115446e+00 -5.921628e-01 3.935082e-01 3.716009e+00 -6.047586e+00 -6.972549e+00 1.724996e+01 -3.867100e-01 -1.807574e+00 -2.155324e+00 -1.573356e-01 1.445925e+00 2.382312e+00 6.555569e-01 2.495284e+00 -3.623519e-02 3.679779e+00 -7.816140e-01 2.001042e+00 -4.783463e-01 1.397165e-01 -7.151082e-01 -1.832933e+00 -1.043189e+00 4.168878e-02 -1.722895e-01 -8.537264e-01 5.128906e-01 -2.692161e+00 1.132199e+00 -1.979538e-02 1.326977e+00 3.040511e-01 
-6.169233e+00 1.062879e+00 -3.443403e+00 -6.223446e+00 -5.994815e+00 -6.571383e+00 2.372133e+00 6.073137e+00 -5.543540e-03 -1.887143e+00 -5.235067e+00 3.289487e+00 1.643490e+01 -5.103496e-01 -2.069725e+00 -5.139988e+00 -2.238448e+00 3.274314e+00 4.213121e+00 -6.891624e-01 9.844211e-01 -4.980822e+00 4.420631e+00 -4.786449e-02 3.357862e+00 -1.973301e-01 4.455174e-01 3.969442e-01 -7.815076e-01 -1.422838e+00 -6.178877e-01 -7.300820e-01 -6.070441e-01 -5.928752e-01 -1.949301e+00 -1.709173e-02 4.064901e-01 -2.728332e-01 4.529155e-01 
-8.443488e+00 1.196446e+00 -1.067919e+01 -6.272167e+00 1.930578e+00 -1.990693e+00 -1.794549e+00 7.001061e+00 -1.324766e+01 1.262091e+01 -5.603204e+00 4.130000e+00 1.711405e+01 -2.798773e-01 -2.032754e-01 -4.837422e+00 -4.363876e+00 1.253248e+00 2.476441e+00 -1.379025e+00 1.669930e+00 -5.705606e+00 3.557662e+00 5.637971e-01 1.644534e+00 5.081217e-01 8.831306e-01 8.050598e-01 6.254086e-01 -1.140056e+00 -1.689906e+00 -1.551324e+00 3.788027e-01 -1.034162e+00 4.583552e-02 -1.554617e+00 4.611432e-01 -1.160883e+00 4.461339e-01 
-9.312032e+00 -7.209284e-01 -1.872298e+01 -1.361820e+01 8.431000e+00 6.276785e+00 -2.555538e+00 3.771623e+00 -2.054838e+01 1.662583e+01 -3.058010e+00 5.787584e+00 1.723610e+01 1.746698e+00 8.652248e-01 -2.406664e+00 -5.257295e+00 -2.165691e+00 -1.012748e+00 1.345776e-01 -6.197610e-01 -3.795449e+00 9.248542e-01 1.057446e+00 -1.165245e+00 1.046252e+00 9.366041e-01 5.399965e-01 1.554597e+00 1.989472e-01 -1.985915e+00 -1.928318e+00 1.071569e+00 -1.030337e+00 1.663237e+00 -1.829679e+00 1.660386e-01 -1.069688e+00 2.951035e-01 
-6.004566e+00 4.420517e+00 -1.666271e+01 -1.918240e+01 -6.647478e+00 -4.809485e+00 -1.315841e+00 8.908243e+00 -1.786310e+01 1.224784e+01 -4.317129e+00 1.074229e-03 1.938998e+01 2.900419e+00 7.502511e-01 -3.949431e-01 -4.348190e+00 -4.283605e+00 -2.761371e+00 2.137701e+00 -1.873437e+00 -3.997442e-01 -2.345417e+00 9.714466e-01 -1.541822e+00 1.130533e+00 3.478572e-01 -3.685648e-01 1.214377e+00 1.340170e+00 -3.694780e-01 -8.972820e-01 9.957659e-01 -1.254534e+00 1.569257e+00 -9.799742e-01 -1.656911e-01 -1.440792e-01 -2.816849e-02 
1.344794e+00 3.776967e+00 -1.248497e+01 -2.605480e+01 -1.253424e+01 -1.022573e+01 2.805667e+00 2.020741e+00 -1.667507e+01 2.923664e+00 -5.908747e-01 -4.722760e-01 2.052820e+01 2.582523e+00 1.534948e-01 4.117595e-01 -1.251555e+00 -3.886833e+00 -2.809562e+00 2.910322e+00 -2.395583e+00 6.824341e-01 -1.776225e+00 5.785039e-01 -3.974012e-01 9.669817e-01 -5.360800e-01 -8.952734e-01 4.364999e-01 2.045293e+00 1.172690e+00 5.827726e-02 2.684342e-01 -6.814562e-01 8.473891e-01 3.410949e-01 -4.782603e-01 4.129004e-01 -2.715324e-01 
7.301942e-01 2.698754e+00 -1.577291e+01 -2.179482e+01 -9.004823e+00 -7.546291e+00 6.213352e+00 -1.490682e+00 -1.718304e+01 7.744901e+00 -1.979539e+00 -4.491801e-01 2.112066e+01 1.041496e+00 -1.690235e+00 -1.747506e-01 3.341032e-01 2.664289e-01 -1.111562e+00 2.211933e+00 -3.714827e+00 -9.826355e-02 8.331204e-03 -2.518749e-02 5.402163e-01 4.069143e-01 -8.026384e-01 -8.128398e-01 7.496114e-02 1.918624e+00 1.607957e+00 2.633730e-01 -7.043537e-01 -3.342646e-01 3.746733e-01 8.786437e-01 -4.850976e-01 9.926289e-03 -3.568807e-01 
2.332024e-01 9.074275e-01 -1.710908e+01 -1.856977e+01 -9.824492e+00 -6.402622e+00 8.231477e+00 -3.006828e+00 -1.747624e+01 9.996167e+00 -1.334286e+00 4.025706e+00 2.120566e+01 -4.241115e-03 -2.390900e+00 -3.342611e-01 2.628024e+00 1.422743e+00 -1.546267e+00 1.439633e+00 -3.106347e+00 2.907564e-01 1.453454e+00 -8.355383e-01 -1.417619e-01 5.039883e-02 -6.068436e-01 -1.062914e-01 4.107855e-01 1.127338e+00 1.235869e+00 7.298704e-02 -1.504451e+00 -1.822532e-01 5.784775e-01 4.841034e-01 -4.995884e-01 -4.353875e-01 -3.284114e-01 
-2.412886e-01 -2.595885e+00 -1.522440e+01 -2.125440e+01 -6.670209e+00 -1.227885e+01 7.030917e+00 -7.152108e+00 -1.795383e+01 8.753240e+00 -4.071361e+00 4.531646e-01 2.108582e+01 1.806087e-01 -2.041751e+00 3.528728e-01 3.305138e+00 1.101391e+00 -2.076154e+00 -6.487235e-01 -3.189378e+00 1.669461e+00 4.329611e-01 -7.470201e-01 -1.620010e+00 -1.955795e-01 -3.069315e-01 8.863309e-01 9.682924e-01 5.314085e-01 3.295128e-01 -1.879408e-02 -1.626527e+00 1.549038e-01 8.187904e-01 2.042712e-01 -4.791813e-01 -1.479903e-01 -2.093068e-01 
1.809330e+00 -5.530211e+00 -1.443052e+01 -1.318489e+01 -6.587832e+00 -1.559078e+01 9.595048e+00 -1.068028e+01 -1.483589e+01 9.686768e+00 -3.722655e+00 -1.632258e+00 2.079761e+01 -2.125144e-02 -2.022040e-01 2.201875e+00 2.899617e+00 1.875030e+00 -1.962331e+00 -3.181605e+00 -3.569574e+00 2.690959e+00 4.319767e-01 -1.558522e+00 -1.494226e+00 -3.738283e-01 -2.795856e-01 1.263770e+00 1.054924e+00 -4.687304e-01 4.113771e-02 2.058416e-01 -1.016535e+00 6.460693e-02 3.230513e-01 9.151556e-02 -5.750362e-01 4.631658e-01 -1.049070e-01 
8.451742e-01 -4.291181e+00 -1.534783e+01 -7.961564e+00 -5.116196e+00 -1.333298e+01 2.287949e+00 -1.360084e+01 -1.015591e+01 1.006441e+01 -4.520455e+00 -5.720249e+00 2.034678e+01 -4.846559e-01 1.647072e+00 3.398643e+00 2.855349e+00 1.687850e+00 -9.975003e-01 -3.610081e+00 -2.708694e+00 2.795587e+00 1.540426e+00 -2.059602e+00 4.764965e-01 -4.275063e-01 -3.008458e-01 8.513675e-01 5.447760e-01 -7.260563e-01 -1.537568e-01 2.334851e-01 1.304148e-01 3.435741e-01 -6.217382e-02 1.072157e-01 -4.634062e-01 1.024418e+00 3.038293e-03 
-4.162862e-01 7.440553e-01 -6.037992e+00 -1.071811e+01 -1.226348e+00 -1.568721e+01 -5.305066e+00 -1.763033e+01 -7.920407e+00 1.150047e+01 -8.902348e+00 -3.587153e-01 1.970604e+01 -1.069537e+00 2.083539e+00 3.417472e+00 5.092660e-01 1.335203e+00 -1.056385e+00 -2.162365e+00 -3.023654e+00 1.342950e+00 1.357300e+00 -3.054428e+00 1.125814e+00 -3.581728e-01 -9.019623e-02 -2.259525e-01 -9.810421e-01 -5.643222e-01 -3.019164e-01 3.581628e-01 1.152928e+00 1.265912e+00 -3.929360e-01 -5.874363e-01 1.613854e-01 7.349633e-01 1.121613e-01 
-1.551760e+00 2.502342e+00 -2.427454e+00 -8.211050e+00 -9.117032e-01 -1.721814e+01 -3.569434e+00 -1.722056e+01 -7.433639e+00 1.554852e+01 -1.177953e+01 2.198876e+00 1.949407e+01 -7.994774e-01 1.072215e+00 2.468954e+00 8.700320e-01 6.025211e-01 -1.361701e+00 -5.062693e-01 -1.744467e+00 2.032597e+00 5.063779e-01 -2.316098e+00 2.192057e+00 -1.882158e-01 2.309262e-01 -1.011479e+00 -2.068278e+00 -7.357135e-01 -8.828964e-02 5.060147e-01 1.216764e+00 1.829496e+00 -7.915055e-01 -1.463993e+00 1.030638e+00 -4.413199e-02 1.750314e-01 
-2.339887e+00 1.490723e+00 -3.803350e+00 -1.051382e+01 -2.014065e+00 -1.893013e+01 1.711912e+00 -2.398869e+01 -9.482278e+00 1.373121e+01 -1.536526e+01 3.725002e-02 1.943311e+01 -3.148219e-01 -1.044538e+00 -2.238491e+00 1.070664e+00 9.081126e-01 1.058350e-02 1.031126e+00 2.277872e+00 1.107775e+00 -1.988181e+00 -6.233471e-01 1.322811e+00 6.733284e-02 4.178835e-01 -9.668926e-01 -2.194420e+00 -6.926693e-01 3.265238e-02 9.508236e-01 7.085571e-01 1.925163e+00 -9.075243e-01 -1.446556e+00 1.731161e+00 -5.540770e-01 1.776080e-01 
-2.190412e+00 6.965602e-01 -4.120375e+00 -3.713548e+00 -1.709732e+00 -1.852003e+01 -3.751887e+00 -1.914400e+01 7.880050e-01 1.148092e+01 -1.286949e+01 5.042056e+00 1.954217e+01 2.926175e-01 -1.846285e+00 -4.114764e+00 -1.103917e+00 1.459947e+00 9.990891e-01 8.769934e-01 3.788020e+00 -1.044353e+00 -4.106797e+00 1.878050e+00 1.573383e-01 2.348978e-01 3.025072e-01 -2.822751e-01 -1.394167e+00 -1.136461e+00 -1.465712e-01 1.205576e+00 2.260242e-01 5.868670e-01 -1.092796e+00 -6.713396e-01 1.396465e+00 -1.066955e+00 1.196913e-01 
-1.671070e+00 -3.575744e+00 -1.638399e+01 -7.613537e+00 3.713230e+00 -1.498335e+01 -5.820736e-02 -5.279246e+00 -6.492356e+00 3.593362e+00 -1.147410e+01 4.833747e+00 2.001865e+01 4.738329e-01 -1.291673e+00 -4.262771e+00 -1.967106e+00 1.069752e+00 2.517338e+00 6.887888e-01 3.835917e+00 -1.656197e+00 -3.568895e+00 3.504301e+00 -6.272115e-01 3.183104e-01 8.817776e-02 5.617695e-01 2.297788e-01 -8.750778e-01 -7.861949e-01 8.185867e-01 -4.179475e-01 -1.384892e+00 -2.111519e-01 6.175779e-01 4.077954e-01 -8.613180e-01 1.781948e-02 
-4.230815e-01 -4.195850e+00 -1.671095e+01 -1.518078e+01 3.524382e+00 -1.419608e+01 1.700593e+00 -7.635177e+00 -1.415036e+01 8.345628e-02 -4.334856e+00 5.873189e-01 2.037579e+01 3.187310e-01 -2.155927e-01 -3.489742e+00 -3.293385e+00 -2.111547e-01 3.412802e+00 7.950207e-01 4.108454e-01 -2.049398e+00 -2.059963e+00 2.602403e+00 -2.167709e+00 2.847521e-01 -2.329014e-02 8.739878e-01 9.616820e-01 8.573912e-02 -1.050353e+00 1.175582e-01 -4.044575e-01 -2.016819e+00 7.966123e-01 1.477618e+00 -6.453255e-01 -2.750320e-01 -7.598893e-02 
-8.543876e-01 -2.521439e+00 -1.882191e+01 -1.461573e+01 7.176379e-01 -8.505414e+00 2.429617e+00 -1.056352e+01 -1.029408e+01 1.585472e+00 -2.111071e+00 -8.714388e-01 2.060785e+01 1.130102e-01 9.489629e-01 -1.402108e+00 -2.209991e+00 -2.187311e+00 2.896660e+00 -1.017625e+00 -2.958001e+00 5.545382e-01 7.629192e-02 1.053453e+00 -1.821256e+00 1.315031e-01 -5.780071e-04 6.851729e-01 1.508473e+00 7.629403e-01 -7.733032e-01 -1.019316e+00 -3.369205e-02 -1.379441e+00 7.608063e-01 1.195096e+00 -7.597831e-01 4.347901e-01 -1.456992e-01 
-1.005098e+00 -9.085560e-01 -2.035012e+01 -1.667938e+01 -1.267710e+00 -4.694981e+00 -1.020695e+00 -1.444763e+01 -7.558125e+00 2.185054e+00 -4.538987e+00 -2.943896e+00 2.067133e+01 3.565782e-01 1.403335e+00 -7.366854e-01 -5.537793e-01 -2.163286e+00 1.397219e+00 -2.920873e-01 -2.899119e+00 1.833341e+00 1.458697e+00 -1.231536e-01 -6.207997e-01 -5.164318e-02 2.980894e-02 4.018789e-01 1.762448e+00 1.142326e+00 -1.696139e-01 -1.530395e+00 4.052305e-01 -9.028792e-02 3.662627e-01 4.627058e-01 -1.309576e-01 1.038033e+00 -1.624935e-01 
-8.150103e-01 -4.745768e-01 -2.157494e+01 -1.791419e+01 -4.827281e+00 -5.250598e+00 -3.785687e+00 -1.666302e+01 -7.015784e+00 2.924022e+00 -6.104771e+00 -2.506925e+00 2.052839e+01 4.520193e-01 1.324727e+00 1.903066e+00 4.777927e-01 -1.820698e+00 -1.571450e+00 1.063883e+00 -1.406306e+00 2.064645e-01 6.472570e-01 1.068164e+00 7.732844e-01 -2.419880e-01 -1.748201e-03 2.064503e-01 1.483795e+00 8.610798e-01 5.301700e-01 -1.171024e+00 6.754955e-01 7.169259e-01 -2.012161e-01 -1.238000e-01 2.659262e-01 8.873183e-01 -1.105762e-01 
1.340121e+00 1.797396e+00 -1.901786e+01 -1.630045e+01 -4.519587e+00 -8.837395e+00 3.347808e+00 -1.908102e+01 -6.622806e+00 6.707664e+00 -2.953773e+00 -1.698936e+00 2.015730e+01 2.982711e-01 1.605920e+00 3.669911e+00 1.074355e+00 -1.242531e+00 -2.005116e+00 1.780420e+00 -8.164419e-01 -4.404802e-02 -3.191674e-02 1.940259e+00 1.725187e+00 -3.409697e-01 -1.803805e-01 8.193240e-02 7.511746e-01 3.249948e-01 5.873047e-01 -3.139526e-01 -3.238139e-01 5.996729e-01 -1.618447e-01 -4.886038e-01 8.161211e-02 3.753189e-01 -1.969812e-02 
2.330994e-01 2.749221e+00 -9.972709e+00 -1.241623e+01 -6.759914e+00 -1.429146e+01 5.564778e+00 -1.527835e+01 -9.729417e+00 2.560452e+00 2.437143e+00 2.372504e+00 1.965493e+01 1.334227e-01 1.879922e+00 3.813570e+00 1.281341e+00 3.161287e-03 -1.257293e+00 1.323599e+00 -4.147099e-01 4.871522e-01 2.025986e-01 1.351378e+00 1.442342e+00 -2.767145e-01 -2.880743e-01 -2.871443e-02 -4.377449e-01 3.472332e-02 4.611095e-01 3.366975e-01 -1.403228e+00 2.854168e-01 1.075399e-01 -1.338198e-01 -4.916059e-01 -2.677618e-01 6.976732e-02 
-3.779773e-02 5.509144e+00 -7.801681e+00 -1.405658e+01 -6.514046e+00 -1.020013e+01 3.206169e+00 -1.922218e+01 -6.421549e+00 2.207256e+00 8.913530e-01 3.242323e+00 1.940322e+01 -3.860261e-01 1.535400e+00 2.063935e+00 6.694206e-01 -1.386919e-01 -3.296227e-01 -2.041015e+00 -3.965525e-01 8.837737e-01 -7.619933e-01 1.433002e-01 9.212658e-01 -1.327705e-01 -3.027620e-01 -3.811165e-01 -9.912044e-01 8.481243e-02 2.144953e-01 5.477370e-02 -1.544185e+00 5.041642e-01 -4.994535e-02 5.724358e-02 -6.091896e-01 -4.789090e-01 1.038292e-01 
5.410624e-01 7.069160e+00 -8.115184e+00 -1.262942e+01 -3.814245e+00 -1.085569e+01 2.903128e+00 -1.866599e+01 -4.680652e+00 6.187220e+00 -1.270446e+00 2.234156e+00 1.952186e+01 -6.462038e-01 1.216415e+00 5.173301e-01 8.538766e-01 -6.706972e-02 -7.257088e-01 -4.041538e+00 -1.891665e-01 2.802530e-01 3.431962e-01 -4.913862e-01 -1.635641e-01 2.749062e-03 -3.752718e-01 -9.272802e-01 -5.503116e-01 5.765754e-02 -3.304564e-01 -2.931715e-01 -6.500616e-01 9.078938e-01 -2.662803e-01 3.799405e-02 -5.615330e-01 -4.992982e-01 8.810388e-02 
-7.439908e-01 7.314425e+00 -9.626950e+00 -1.284675e+01 -6.685882e+00 -1.220339e+01 -5.526441e+00 -1.936996e+01 -4.728320e+00 1.084314e+00 -3.834778e-01 2.976567e+00 1.955998e+01 -8.257257e-01 3.209100e-02 3.620093e-01 1.712149e+00 -1.349386e-01 -1.997039e+00 -3.257938e+00 1.591607e+00 -1.903252e-01 1.840024e-01 -1.843069e-01 1.335945e-01 3.844433e-02 -4.231353e-01 -1.000519e+00 4.654575e-01 -3.621589e-01 -6.249676e-01 -3.229061e-03 9.857062e-01 9.149912e-01 -4.699060e-01 4.507989e-01 -5.080069e-01 -6.468773e-01 6.097700e-02 
-2.644823e+00 7.928655e+00 -6.473423e+00 -8.751767e+00 -7.009345e+00 -1.691837e+01 -1.027661e+01 -1.615029e+01 -9.174767e+00 4.837904e+00 6.176279e-01 1.687561e+00 1.959029e+01 -1.523086e+00 -2.004825e+00 1.912976e+00 1.048264e+00 -1.650998e+00 -1.889442e+00 -1.318247e+00 3.130679e+00 -3.072000e-01 -8.042898e-02 -1.292484e+00 -6.603132e-01 7.819748e-02 -4.545037e-01 -6.687149e-01 9.930856e-01 -1.029965e+00 -8.126283e-01 6.312909e-01 1.737496e+00 3.964682e-01 -1.344151e-01 3.332665e-01 -4.212541e-01 -7.481450e-01 4.426622e-02 
-2.573484e+00 5.239852e+00 -6.812515e+00 -7.434659e+00 -5.591188e+00 -1.715399e+01 -6.493651e+00 -1.252199e+01 -5.126117e+00 3.801925e+00 -9.742185e-01 4.183593e+00 1.956123e+01 -2.063262e+00 -1.856574e+00 3.693400e+00 -1.238568e+00 -2.471566e+00 2.360985e-01 1.525871e+00 2.518481e+00 -1.172030e+00 1.703814e+00 -1.996186e+00 -2.064746e+00 1.343903e-01 -3.697712e-01 1.619779e-01 8.140284e-01 -1.219226e+00 -7.265155e-01 9.160032e-01 1.276369e+00 -4.214100e-01 1.782201e-01 3.602773e-01 -1.216983e-01 -8.061927e-01 4.093840e-02 
-6.159623e+00 -1.917677e+00 4.247632e-02 -1.009415e+01 -1.261658e+01 -1.782760e+01 -3.204503e+00 -6.436583e+00 -6.017753e+00 4.426269e+00 -7.437495e+00 -1.670923e+00 1.991223e+01 -2.299955e+00 -1.182827e+00 3.817062e+00 -2.820591e+00 -2.961897e+00 1.314177e+00 2.254039e+00 1.329738e+00 9.903016e-02 1.249623e+00 -1.691717e+00 -2.805119e+00 1.761072e-01 -2.166929e-02 9.332165e-01 -1.698823e-01 -7.356676e-01 -1.129175e-01 5.358846e-01 3.915408e-01 -1.040867e+00 3.849098e-01 5.731513e-02 5.240081e-01 -1.046079e-01 2.296886e-02 
-9.302898e+00 2.954721e+00 5.582101e+00 -1.836840e+01 -1.624010e+01 -1.056828e+01 -1.433139e+00 -1.163441e+01 -1.216698e+01 9.809201e+00 -6.336844e+00 -5.667923e+00 2.007096e+01 -2.286148e+00 4.309818e-01 3.480108e+00 -2.449553e+00 -3.112066e+00 9.811674e-01 1.337764e+00 3.850279e-01 4.976603e-01 1.320363e+00 -5.931816e-01 -2.824966e+00 1.941814e-01 3.218834e-01 6.887062e-01 -1.205046e+00 1.885445e-01 5.307675e-01 -1.660640e-01 -5.098147e-01 -8.460525e-01 5.015333e-01 -4.619279e-01 7.260923e-01 7.104359e-01 7.896176e-03 
-1.077989e+01 3.157085e+00 6.414580e+00 -1.738785e+01 -1.649438e+01 -1.364034e+01 -1.536668e+00 -9.945393e+00 -5.159186e+00 8.082380e+00 -5.159646e+00 -7.412274e+00 2.021596e+01 -1.519990e+00 1.517480e+00 1.170210e+00 -2.024581e+00 -1.895335e+00 4.174469e-01 7.335101e-01 -1.006928e+00 7.825036e-01 3.978721e-01 6.260545e-01 -8.032430e-01 1.631462e-01 4.993540e-01 1.734886e-01 -1.617717e+00 4.941233e-01 9.587164e-01 -1.179050e-01 -5.274288e-01 -4.329953e-01 -1.333507e-01 -4.398285e-01 5.794790e-01 1.156403e+00 -6.033096e-03 
-1.169409e+01 4.857380e+00 7.401970e+00 -1.603557e+01 -1.921262e+01 -1.434178e+01 -6.387469e-01 -8.842446e+00 -3.067099e+00 8.575685e+00 -5.079051e+00 -7.070561e+00 2.038027e+01 -8.438271e-01 2.368041e-01 -1.008406e+00 -6.938503e-01 -3.510098e-01 -1.458566e-01 -2.629383e-01 -5.434483e-01 9.938997e-01 -1.799502e-01 4.753898e-01 4.864952e-01 1.803516e-01 5.256815e-01 -4.906052e-01 -1.462062e+00 4.830653e-01 1.159715e+00 1.836450e-01 -1.087049e-01 1.646142e-01 -2.972308e-01 -6.278954e-01 1.760240e-01 1.077379e+00 -1.869650e-02 
-1.256398e+01 4.718391e+00 4.983592e+00 -2.138347e+01 -2.060699e+01 -1.385362e+01 6.585178e-02 -1.286721e+01 -6.655174e+00 7.032388e+00 -4.936119e+00 -4.985820e+00 2.057331e+01 -5.243447e-01 -2.182953e-01 -2.027265e+00 -1.227826e+00 4.511561e-01 1.288164e+00 4.172465e-01 -3.710003e-01 -8.158431e-01 -1.993630e-01 6.713921e-01 1.321168e+00 1.528566e-01 3.619770e-01 -7.430539e-01 -8.255920e-01 5.666268e-01 8.308463e-01 2.856924e-01 2.765747e-01 7.455878e-01 -1.621710e-01 -8.689872e-01 -3.718382e-01 4.819674e-01 -3.043278e-02 
-1.262999e+01 3.358089e+00 1.255566e+00 -1.983984e+01 -1.593884e+01 -1.119093e+01 -3.549091e+00 -1.289075e+01 -6.449484e+00 9.434446e+00 -4.071659e+00 -4.448674e+00 2.079405e+01 -1.555627e-01 -1.154157e+00 -2.231466e+00 -4.326033e-01 1.513265e+00 1.464034e+00 9.523715e-01 8.901350e-01 -1.893205e-01 -1.520496e+00 2.642696e-01 1.499724e+00 1.058437e-01 2.283421e-01 -4.626055e-01 -3.162434e-01 5.267876e-01 2.479472e-01 2.210602e-01 5.425879e-01 8.133475e-01 6.948636e-02 -1.050654e+00 -9.679661e-01 8.472817e-02 -2.834396e-02 
-1.293366e+01 2.815254e+00 -6.485417e-01 -2.162485e+01 -1.587549e+01 -8.774949e+00 2.004737e+00 -9.776244e+00 -7.547209e+00 6.656184e+00 -2.306382e+00 -2.117380e+00 2.077335e+01 -5.423718e-02 -1.502310e+00 -2.346220e+00 6.779295e-01 1.326759e+00 1.040964e+00 1.508729e+00 2.004219e+00 5.632588e-01 -3.276791e+00 -1.127577e+00 1.099980e+00 4.823627e-02 1.582247e-01 -3.124968e-01 -2.192120e-01 6.770797e-01 -1.414805e-01 -1.684893e-01 2.727374e-01 5.864231e-01 3.295180e-01 -9.183000e-01 -1.504533e+00 -2.181887e-01 8.098527e-03 
-1.228706e+01 3.816524e-02 -9.392948e-01 -1.807789e+01 -1.401204e+01 -9.560947e+00 3.153668e+00 -5.937253e+00 -3.567684e+00 1.161305e+00 -5.072572e+00 -1.006163e+00 2.080946e+01 6.282978e-02 -1.434216e+00 -2.430146e+00 9.872101e-01 4.509248e-01 1.083045e+00 1.904260e+00 2.335680e+00 6.517805e-01 -3.894505e+00 -3.464956e+00 1.020730e+00 9.094200e-02 1.252884e-01 -1.108097e-01 -3.095530e-01 4.227102e-01 -2.093794e-01 -1.762029e-01 -5.343153e-02 1.421828e-01 3.670642e-02 -2.750043e-01 -1.329427e+00 -3.349451e-01 4.559704e-02 
-1.300663e+01 -1.133195e+00 -5.650077e+00 -1.887479e+01 -1.493659e+01 -9.463786e+00 4.258116e+00 -6.322859e+00 -5.279780e+00 -5.214994e+00 -1.007355e+01 -1.207175e+00 2.080678e+01 1.575823e-01 -1.640749e+00 -3.023985e+00 1.447665e+00 2.749242e-01 6.362119e-01 1.304989e+00 1.838343e+00 4.111961e-01 -3.603859e+00 -4.986661e+00 4.697211e-01 2.008001e-01 2.052048e-01 -1.442380e-02 -7.229137e-02 2.850373e-01 3.631887e-01 4.830799e-02 -3.036091e-01 -1.172654e-01 1.886282e-01 6.675124e-01 -4.381270e-01 -1.353467e-01 4.734924e-02 
-1.227936e+01 -1.838769e+00 -8.394394e+00 -1.627882e+01 -1.415366e+01 -5.431286e+00 4.845520e+00 -2.939039e+00 -4.324296e+00 -4.102487e+00 -1.751286e+01 1.998723e-01 2.123204e+01 3.649696e-01 -1.638985e+00 -3.440348e+00 1.296080e+00 9.922862e-01 7.853953e-01 7.870836e-01 1.683987e+00 7.024293e-02 -2.731984e+00 -4.453326e+00 1.401278e-01 2.575470e-01 1.989145e-01 3.743716e-02 3.211246e-01 8.444438e-02 8.505071e-01 1.237566e-01 -5.079640e-01 -3.789745e-01 3.356338e-01 1.211614e+00 7.424971e-01 -3.476451e-02 -1.489561e-02 
-1.214960e+01 -4.450026e+00 -1.204092e+01 -1.528606e+01 -1.443006e+01 -7.658720e+00 7.683756e+00 -2.083635e+00 -5.112922e+00 -8.731216e+00 -2.101954e+01 -3.717920e-01 2.156606e+01 8.207172e-01 -1.472044e+00 -2.202575e+00 1.948681e+00 2.872022e+00 1.431329e+00 5.492715e-01 1.743738e+00 1.797169e+00 -5.204889e-01 -2.824027e+00 8.635473e-01 2.016800e-01 1.696322e-01 2.981856e-01 7.905651e-01 -2.296218e-01 1.055019e+00 2.813442e-01 -6.482490e-01 -5.144740e-01 3.859877e-01 1.397949e+00 1.377305e+00 1.022205e-01 -9.267445e-02 
-1.089073e+01 -6.498346e+00 -1.494562e+01 -1.339186e+01 -9.303879e+00 -6.536504e+00 5.376266e+00 3.630701e-01 -3.299899e+00 -1.074050e+01 -2.186620e+01 -7.232161e-01 2.171756e+01 7.258350e-01 -1.331383e+00 -1.235228e+00 1.158924e+00 3.404912e+00 1.304270e+00 -2.577010e-01 4.881096e-01 1.636963e+00 6.218794e-01 -8.337883e-01 6.499941e-01 1.602402e-02 7.480194e-02 4.103016e-01 9.964958e-01 -5.720674e-01 4.607247e-01 1.530355e-01 -6.952606e-01 -8.546085e-01 1.408548e-01 1.021084e+00 1.218853e+00 -3.447892e-02 -1.290705e-01 
-9.597358e+00 -6.163626e+00 -1.338734e+01 -1.057487e+01 -3.001376e+00 -1.754534e+00 6.739100e+00 7.447777e-01 3.193866e+00 -4.498431e+00 -2.201701e+01 3.572105e+00 2.157242e+01 8.253105e-01 -3.036224e-01 -1.737204e-01 3.681344e-01 4.343704e+00 1.783496e+00 -1.413864e+00 -1.360880e-01 1.557774e+00 1.708956e+00 9.009304e-02 7.258905e-01 -1.418106e-01 -2.998400e-02 3.690023e-01 7.200014e-01 -7.668062e-01 -5.071100e-01 -9.488422e-02 -5.582229e-01 -1.026246e+00 -4.763332e-01 1.507807e-01 7.546709e-01 -3.927107e-01 -1.070787e-01 
-9.926305e+00 -7.638884e+00 -1.389732e+01 -1.283980e+01 -2.843445e+00 -1.862031e+00 4.029343e+00 -1.912698e+00 -2.928734e-01 -3.109482e+00 -2.118307e+01 1.477894e+00 2.130898e+01 7.366825e-01 -1.716879e-01 5.277034e-01 -7.739840e-01 2.560069e+00 1.374489e+00 -1.707652e+00 -1.649143e+00 8.942143e-01 1.258713e+00 1.838772e-01 3.656156e-02 -2.160601e-01 -3.910995e-02 2.338911e-01 3.926244e-01 -4.646528e-01 -9.936303e-01 -3.891962e-01 -1.217661e-01 -6.855751e-01 -5.534877e-01 -4.555667e-01 1.698644e-01 -4.279388e-01 -5.427565e-02 
-8.505259e+00 -5.397869e+00 -1.343367e+01 -1.372142e+01 4.058247e+00 -1.078478e+00 1.287900e+00 -1.626191e+00 1.172437e+00 -4.001946e+00 -2.091064e+01 2.157105e+00 2.106129e+01 6.653734e-01 -2.068802e-01 5.159661e-01 -9.188961e-01 7.588931e-01 9.217976e-01 -1.516867e+00 -2.318866e+00 -2.131227e-01 -8.500218e-02 4.404949e-01 -7.932900e-01 -2.176714e-01 -4.580142e-02 1.624411e-02 4.153134e-02 9.120710e-02 -1.198560e+00 -5.518640e-01 3.781251e-01 -2.568755e-01 -5.754700e-01 -6.503046e-01 -1.182293e-01 -4.312218e-01 -2.361122e-02 
-7.753362e+00 -7.739664e+00 -1.228394e+01 -1.568851e+01 -3.334642e-02 -2.085362e-03 -4.363932e-01 -6.697158e+00 2.181887e+00 -4.695177e+00 -2.150000e+01 1.670918e-01 2.089282e+01 6.102538e-01 -2.102985e-01 3.830511e-01 -5.208246e-01 2.291657e-01 -2.108624e-01 -8.150298e-01 -1.848377e+00 -2.450267e-01 -7.589752e-01 -1.596672e-01 -7.301094e-01 -2.174238e-01 6.395671e-02 2.662874e-01 -2.760772e-01 6.022692e-01 -4.299706e-01 -3.553059e-01 6.063429e-01 4.101596e-01 -1.965396e-01 -3.379409e-01 5.644573e-02 -1.014455e-01 -3.088478e-02 
-7.356962e+00 -7.147637e+00 -1.161420e+01 -1.374499e+01 -6.119597e-01 1.924481e+00 1.387632e+00 -8.457325e+00 8.908722e-01 -4.130595e+00 -1.965607e+01 2.610564e-01 2.069215e+01 6.595178e-01 -2.030966e-01 1.062624e-01 6.975902e-01 -4.836458e-01 -1.831485e-01 3.045100e-02 -1.320849e+00 -7.499554e-01 -5.337228e-01 -3.292812e-01 -1.046883e+00 -2.591848e-01 1.668362e-01 6.151086e-01 -3.258207e-01 6.046172e-01 4.708253e-02 -9.933563e-02 4.707735e-01 8.063585e-01 3.674380e-01 -1.185155e-01 4.699861e-01 1.659031e-01 -5.906923e-02 
-7.449184e+00 -7.815493e+00 -1.289180e+01 -1.543213e+01 6.374869e-01 -4.417822e+00 -9.567198e-02 -7.739015e+00 -1.377225e+00 -6.840034e+00 -2.260869e+01 -1.224629e+00 2.040644e+01 1.059394e+00 1.157857e+00 -6.478308e-01 1.429119e+00 1.031485e+00 1.504332e-01 5.504032e-01 -9.735370e-02 1.799325e-01 -2.066310e-01 8.509939e-01 -3.438693e-01 -3.497272e-01 2.381020e-01 7.583688e-01 -9.363890e-02 4.659830e-01 -1.315544e-01 2.040768e-01 2.954316e-01 8.285288e-01 4.286118e-01 1.738130e-01 8.575845e-01 2.801306e-01 -7.902864e-02 
-5.359759e+00 -6.375438e+00 -1.259843e+01 -1.036165e+01 1.304601e+00 2.136482e-01 1.269794e+00 -7.709507e+00 -7.977840e-01 -5.598131e+00 -2.200270e+01 -2.381449e+00 2.000856e+01 1.274984e+00 2.184585e+00 -5.976966e-01 1.129218e+00 5.931460e-01 2.444717e-01 1.542838e-01 8.374144e-01 1.411588e+00 -9.537516e-01 2.285095e+00 -1.568947e-01 -4.468659e-01 7.567301e-02 5.205812e-01 3.638160e-01 3.856548e-02 -2.464634e-01 3.566562e-02 -2.205301e-01 4.040006e-01 1.401592e-01 1.284599e-01 6.232700e-01 4.636351e-01 -8.140738e-02 
-3.454995e+00 -2.336479e+00 -1.503098e+01 -1.023458e+01 4.165799e+00 1.605497e+00 2.374541e+00 -7.557836e+00 3.925877e+00 -4.994564e+00 -1.607171e+01 -2.310020e-01 1.948598e+01 1.493031e+00 2.387705e+00 2.668361e-01 1.593276e+00 -9.670022e-01 5.957115e-01 6.002117e-01 1.215136e+00 8.172609e-01 3.201039e-01 2.821067e+00 2.255495e-01 -5.187265e-01 -2.503970e-01 -9.631944e-02 8.795540e-01 5.845820e-02 -3.170535e-01 1.757694e-01 -4.338911e-01 -3.315401e-02 -6.835532e-01 2.274481e-01 2.312717e-01 3.737867e-01 -6.772529e-02 
-2.979136e+00 1.035781e+00 -1.353310e+01 -1.069768e+01 5.896140e-01 1.351799e-01 9.239441e-01 -4.360842e+00 5.297260e+00 -9.822087e+00 -1.149908e+01 -1.020230e+00 1.891805e+01 8.210644e-01 1.784886e+00 1.468009e+00 8.083391e-01 -7.167193e-01 -2.274596e-01 -1.097104e+00 4.290943e-02 -3.678236e-01 -1.547906e-01 1.802032e+00 9.865836e-01 -5.817221e-01 -5.602204e-01 -6.422608e-01 7.599415e-01 7.325071e-02 1.300011e-01 3.637303e-01 -1.879899e-01 -3.296932e-01 -1.137841e+00 5.340816e-01 1.715154e-01 5.503231e-01 -3.174498e-02 
-1.174341e+00 4.174218e-01 -1.109028e+01 -7.297741e+00 -3.840030e+00 -1.400031e+00 3.078312e+00 -3.337668e+00 -3.384420e-01 -3.127536e+00 -1.375517e+01 -7.774905e-01 1.835806e+01 3.436892e-02 8.761096e-01 2.717086e+00 1.881850e+00 1.011505e-01 1.265246e+00 -9.933585e-01 1.341287e-01 -2.348128e+00 5.311290e-01 2.248883e+00 9.533252e-01 -6.209255e-01 -7.112767e-01 -7.891444e-01 1.720099e-01 -2.037313e-01 4.648692e-01 3.741820e-01 1.055158e-01 -2.637575e-01 -7.259120e-01 2.918928e-01 4.627545e-01 5.602373e-01 2.809257e-02 
-2.394763e+00 1.172040e+00 -7.228731e+00 -7.788377e+00 1.723920e+00 5.791141e-01 -4.567611e+00 -9.605043e+00 -5.047423e-01 -7.305598e+00 -1.415081e+01 2.824714e+00 1.766391e+01 -7.967869e-01 -2.709212e-01 1.976886e+00 1.351185e+00 7.090752e-01 1.728356e+00 1.111946e-02 -2.705480e-01 -2.694925e+00 1.611144e+00 3.428764e+00 2.230833e+00 -5.544912e-01 -4.715496e-01 -6.498849e-01 -5.106583e-01 -3.494363e-01 5.639523e-02 1.438029e-01 7.022744e-01 1.378243e-01 -9.141473e-02 3.397792e-01 5.139857e-01 2.888772e-01 1.017491e-01 
-3.575336e+00 1.975940e+00 -4.597731e+00 -2.279980e+00 4.104399e+00 7.709758e+00 1.535262e-01 -4.265092e+00 -4.913760e+00 -3.597164e+00 -3.501427e+00 2.613152e+00 1.700842e+01 -1.254427e+00 -5.301136e-01 8.724472e-01 3.031967e-01 6.444467e-01 1.488714e+00 5.736790e-01 5.307689e-02 -1.648749e+00 8.966006e-01 4.321474e+00 2.404611e+00 -3.918791e-01 -1.948808e-01 -3.765579e-01 -7.899948e-01 -5.563432e-01 -3.030550e-01 -3.119386e-01 6.867846e-01 2.319961e-01 3.867420e-01 1.410707e-01 2.080465e-01 9.784957e-02 1.233843e-01 
-5.762573e+00 -1.098084e+00 -6.894941e+00 -6.450631e+00 1.627752e-01 4.222064e+00 2.441934e+00 -5.249870e+00 -5.889704e+00 -1.531555e+00 5.178651e-01 8.438615e+00 1.682041e+01 -8.922855e-01 -7.614271e-01 -1.629631e-01 -1.495159e-01 -7.063912e-01 3.798206e-01 1.630750e+00 7.725568e-01 -1.174587e+00 1.361370e+00 3.335665e+00 1.705326e+00 -1.874998e-01 1.711444e-02 -1.212325e-01 -5.315109e-01 -3.454115e-01 -4.181771e-01 -3.805964e-01 4.296331e-01 2.805689e-01 3.514838e-01 -3.477919e-03 -1.172006e-01 -1.750298e-01 9.383621e-02 
