-1.605601e+01 6.378283e-01 1.415892e+00 -4.912790e-01 -1.459388e+00 -1.535750e+01 3.312605e+00 -9.380411e+00 -6.914608e+00 -9.830166e-02 -1.295876e+01 2.254522e+00 2.026203e+01 3.300133e-02 -3.264143e-01 -2.036513e-01 6.804787e-02 -2.343175e-01 -4.699290e-01 1.846180e+00 8.514647e-01 1.095848e+00 -6.956118e-01 -1.335863e+00 -1.428142e+00 5.115566e-02 4.094291e-01 2.254464e-01 -3.305680e-01 1.629028e-01 -2.755683e-01 6.576904e-01 -5.621567e-01 3.137900e-01 -3.824642e-01 -1.648393e-01 3.738336e-01 2.012807e-01 5.178890e-03 
-1.640217e+01 3.517726e-01 -6.203556e-01 -6.112692e-01 -1.575140e+00 -1.609796e+01 9.316610e+00 -8.455482e+00 -2.317170e+00 6.386022e-02 -1.398194e+01 8.692630e-01 2.036063e+01 9.711831e-01 -2.079748e-01 -9.243294e-01 6.385974e-01 -1.338842e+00 7.210879e-01 6.035646e-01 1.740799e+00 2.827377e-01 -1.413184e+00 -6.942843e-01 -1.256894e+00 7.025490e-02 4.525238e-01 5.502123e-01 -2.062366e-01 1.193619e-01 6.132871e-02 9.929446e-01 -8.299492e-01 5.536096e-02 -5.095893e-01 -1.441827e-01 5.521077e-01 5.152704e-01 -9.858666e-03 
-1.571792e+01 -8.512152e-01 1.415759e+00 -9.104461e-02 -2.573100e+00 -1.733691e+01 9.541502e+00 -5.585552e+00 -3.734086e+00 -3.657442e+00 -1.912648e+01 -4.193559e+00 2.046851e+01 1.611056e+00 7.415978e-01 -1.496152e+00 5.972872e-01 -1.059897e+00 2.223014e+00 -3.432959e-01 1.975747e+00 -4.099172e-01 -1.161022e+00 2.125157e-01 -5.073626e-01 6.750049e-02 9.303492e-02 6.839382e-01 1.857697e-02 8.939018e-02 5.736410e-01 6.551402e-01 -7.790182e-01 -6.723729e-01 -1.271114e-01 7.640770e-02 9.654496e-01 7.221963e-01 -3.576212e-02 
-1.136914e+01 3.424758e-01 -3.205689e+00 2.501591e+00 -7.596741e+00 -1.076235e+01 3.215979e+00 -2.573844e+00 -7.091181e+00 -5.384650e+00 -1.334631e+01 -8.059067e-01 2.051006e+01 1.506593e+00 1.890641e+00 -5.885839e-01 4.002376e-01 4.851158e-01 3.148323e+00 -1.208828e+00 5.661283e-01 -6.992153e-01 -1.183820e+00 6.504864e-01 6.878206e-01 -6.310082e-03 -7.555276e-01 6.335478e-01 2.273547e-01 -1.539589e-01 1.030181e+00 -2.396105e-01 -1.662990e-01 -1.121022e+00 4.137824e-01 3.386477e-01 1.068758e+00 4.463992e-01 -4.393654e-02 
-1.051725e+01 4.350465e+00 -4.772203e+00 9.387270e-01 -3.748073e+00 -6.910233e+00 4.646441e+00 -2.442493e+00 -6.577189e+00 -3.179158e+00 -1.221399e+01 5.552934e-01 2.052481e+01 2.304710e-01 2.043969e+00 -2.786392e-01 6.341787e-01 1.721909e+00 1.592155e+00 -1.142715e+00 -1.923064e+00 9.512680e-01 -4.282552e-01 2.819000e+00 1.210482e+00 -8.937244e-02 -1.428460e+00 2.882202e-01 2.876277e-02 -4.831034e-02 7.385798e-01 -5.431057e-01 1.802563e-01 -6.542916e-01 8.005673e-01 2.652290e-01 7.952734e-01 4.965755e-02 -1.643543e-02 
-1.146954e+01 7.204138e+00 -4.692941e-01 8.750329e-01 1.437926e+00 -5.569691e+00 5.720000e+00 -7.196370e+00 -4.391695e+00 -6.094381e+00 -1.418575e+01 1.933939e+00 2.030092e+01 -2.116163e+00 2.308579e+00 -3.963124e-01 -1.496428e-01 2.421159e+00 -1.615348e-01 1.717787e-01 -1.914902e+00 1.671057e+00 -8.632898e-02 3.346262e+00 1.161795e-01 -7.099132e-02 -1.422704e+00 -2.261658e-01 -5.644283e-01 1.427769e-01 -2.443887e-01 -2.136227e-01 1.234557e-01 3.229017e-01 7.388942e-01 6.177238e-01 4.294886e-01 -1.915961e-01 1.442842e-02 
-1.451536e+01 5.937798e+00 -1.345634e+00 3.893128e+00 1.519110e+00 -1.197247e+01 2.575919e+00 -1.288961e+01 -3.274888e-01 -5.443852e+00 -4.611764e+00 4.889308e-01 2.012621e+01 -3.719866e+00 1.973730e+00 -1.448474e+00 6.306757e-01 1.664980e+00 1.162414e+00 -1.323179e-01 -5.519523e-02 2.407783e+00 -3.836228e-01 2.840995e+00 2.674568e-02 1.766396e-02 -4.108613e-01 -6.773738e-01 -6.447109e-01 1.638149e-01 -1.009607e+00 5.282526e-01 -2.659640e-01 1.118587e+00 -8.994567e-03 6.324539e-01 -4.206292e-01 -2.301883e-01 -1.863894e-02 
-1.995089e+01 1.109171e+01 -6.900535e+00 2.761763e-01 1.875460e+00 -9.038909e+00 5.110134e+00 -6.924797e+00 -1.860745e+00 -4.683948e+00 -4.161190e-01 -1.918277e-01 2.035441e+01 -3.631756e+00 7.949316e-01 -2.825808e+00 1.115874e+00 -7.083634e-01 2.295079e+00 -1.096748e+00 1.246702e+00 2.266998e+00 1.882483e+00 2.786932e+00 3.217086e-01 1.231384e-02 1.135634e+00 -1.358409e+00 6.939227e-02 1.353682e-01 -1.111795e+00 6.894351e-01 -7.483850e-01 9.439514e-01 -4.011795e-01 7.196777e-01 -5.190390e-01 1.413648e-01 -1.416054e-01 
-2.487590e+01 1.227533e+01 -8.798953e+00 4.391534e+00 4.358062e+00 6.364477e-01 4.289784e+00 -2.854256e+00 4.196250e+00 -5.802488e+00 -4.893826e+00 1.751905e+00 2.058639e+01 -1.066038e+00 -5.860764e-01 -2.287446e+00 8.204947e-01 -1.761364e+00 3.005111e+00 -1.838271e+00 2.089071e+00 6.083247e-01 1.749608e+00 9.955186e-01 -4.322375e-02 -2.242197e-01 2.180424e+00 -1.422249e+00 9.958199e-01 -3.795561e-01 -4.506018e-01 1.583601e-01 -4.705302e-01 3.707409e-01 -9.586935e-01 4.422907e-01 -2.507720e-01 8.756180e-02 -2.282185e-01 
-2.444805e+01 8.010029e+00 -1.087168e+01 6.205199e+00 -3.523367e+00 -3.987526e-01 -6.206735e-01 -5.980536e+00 4.681427e+00 3.497351e+00 -1.100618e-01 2.910995e+00 2.013240e+01 2.235096e+00 -3.203565e+00 3.701347e-01 4.322889e-01 -1.424642e+00 2.364293e+00 -2.717170e+00 1.732722e+00 5.648890e-01 2.445444e+00 1.673805e+00 8.579882e-01 -6.580765e-01 1.909535e+00 -8.847052e-01 1.316468e+00 -8.305494e-01 6.299630e-01 -2.951257e-01 -1.406853e-02 -5.797386e-04 -9.079027e-01 -3.133021e-01 -2.783167e-01 2.223461e-01 -1.828795e-01 
-1.759697e+01 4.548254e+00 -1.079729e+01 5.031090e+00 -4.588298e+00 -1.266995e+00 -3.750033e+00 -2.916388e+00 -5.569509e-01 -7.864599e-01 2.128003e-01 -1.278600e+00 1.911612e+01 4.248830e+00 -3.138269e+00 1.932654e+00 -9.253124e-01 -2.298890e-01 1.919608e+00 -1.674758e+00 1.555499e+00 -1.534630e+00 1.546350e+00 2.143699e+00 1.964149e-01 -7.882334e-01 5.112330e-01 -9.329684e-02 7.337973e-01 -7.693748e-01 9.475757e-01 -7.068117e-01 3.727711e-01 -5.450855e-01 -5.080695e-01 -5.256592e-01 -2.655986e-01 2.501310e-01 -8.539677e-03 
-1.241488e+01 -1.062580e+00 -4.050692e+00 2.117843e+00 -7.745727e-01 3.734276e+00 -4.455806e+00 1.769879e+00 3.340301e+00 5.035258e+00 5.399590e+00 5.613366e+00 1.779916e+01 3.258487e+00 -2.352499e+00 1.646484e+00 -2.163970e+00 1.675714e+00 1.362202e+00 -1.248847e+00 1.510589e+00 -1.201038e+00 4.176013e-01 8.212578e-01 1.313620e+00 -6.200770e-01 -9.606058e-01 6.935785e-01 -2.905226e-01 -3.328619e-01 3.614570e-01 -9.446564e-01 9.080688e-01 -9.336545e-01 -1.768671e-01 -7.917578e-01 -6.252378e-01 -3.585865e-02 1.936520e-01 
-9.648340e+00 1.120294e+00 -2.546175e+00 1.808650e+00 1.834220e+00 8.167975e+00 -2.166440e+00 1.048033e+00 -2.806335e+00 1.160310e+00 3.069843e+00 1.382795e+00 1.781185e+01 9.784313e-01 -1.478094e+00 7.433660e-01 -1.728250e+00 1.426336e+00 -2.790293e-02 -7.085770e-01 -5.252904e-01 -1.049059e+00 1.352337e-01 9.379916e-02 9.796152e-01 -2.859178e-01 -1.461112e+00 8.417667e-01 -5.237606e-01 2.850889e-01 -2.905958e-01 -1.121138e+00 8.479221e-01 -1.020456e+00 4.542281e-01 -4.892479e-01 -5.543724e-01 -9.450414e-02 2.795577e-01 
-1.212994e+01 -2.038484e+00 -6.764812e+00 -3.003431e+00 1.643946e+00 1.694773e+00 -7.656706e+00 -4.098004e-01 -1.990723e-01 4.611972e+00 2.567706e+00 8.148396e+00 1.768415e+01 -9.327341e-01 -5.657598e-01 -4.878344e-01 -8.305518e-01 -4.454699e-01 -1.385234e+00 1.340084e+00 -1.895156e+00 -5.622317e-01 -8.077866e-01 -4.274349e-01 2.870948e-01 5.902576e-02 -7.040008e-01 9.966416e-01 -2.184429e-01 4.643205e-01 -6.830404e-01 -7.633303e-01 6.477273e-01 -8.025740e-01 -3.866909e-02 -4.389766e-01 -4.310174e-01 -7.794574e-01 2.915119e-01 
-1.284729e+01 -2.354263e+00 -5.723403e+00 -1.049524e+00 1.334122e+00 -3.867583e-01 -5.692468e+00 -4.453001e+00 -4.032559e+00 1.013517e-01 2.097738e+00 2.351961e+00 1.774403e+01 -9.611224e-01 1.771953e-01 3.810106e-01 -1.665771e-01 -6.222760e-01 -2.312366e+00 1.270386e+00 -1.843910e+00 4.171075e-01 -2.871954e-01 -3.816628e-03 2.371567e-01 2.700037e-01 2.579002e-01 9.621376e-01 -6.987000e-02 -2.146595e-01 -1.042615e-01 -1.684038e-01 5.109840e-02 -4.862086e-02 -3.524222e-01 -4.331067e-01 -6.086552e-01 -9.312865e-01 2.447412e-01 
-1.547908e+01 -2.154101e+00 -4.901249e+00 -6.058298e-01 -2.751873e+00 1.085474e+00 4.007629e+00 -4.955383e+00 1.142255e+00 1.525804e+00 3.748467e+00 6.564256e+00 1.812820e+01 7.082590e-01 1.803065e+00 7.354475e-01 -6.232041e-01 -7.151817e-01 -1.312218e+00 1.000307e+00 -1.842971e+00 -2.127467e+00 -1.566067e+00 -1.285021e+00 -2.212438e+00 5.595219e-01 7.654886e-01 5.344046e-01 -2.058422e-01 -8.276190e-01 6.741855e-01 2.644097e-01 -6.484134e-01 5.628136e-01 -6.020958e-01 -4.350882e-01 -8.347790e-01 -8.324405e-01 1.451578e-01 
-1.277938e+01 2.064079e+00 -1.572903e+00 -2.230367e-01 9.207495e-01 -3.089207e+00 -1.646675e+00 -5.898725e+00 -1.391461e+00 1.267417e+00 2.460379e+00 3.360649e+00 1.893984e+01 1.447436e+00 2.148181e+00 -2.176249e-01 -2.905221e+00 1.039884e+00 -9.064301e-01 -2.831966e-01 -7.944871e-01 -2.028553e+00 -1.651160e+00 -2.520684e+00 -2.427050e+00 6.875399e-01 4.486149e-01 -2.125202e-01 -6.700862e-01 -9.094706e-01 7.051607e-01 5.112739e-01 -4.618835e-01 7.127172e-01 -1.724230e-01 -2.222193e-01 -8.302115e-01 -1.697739e-01 1.823565e-02 
-8.622595e+00 4.767672e+00 -5.162825e+00 -6.532695e+00 -1.725277e+00 -3.515092e+00 -4.678066e+00 -8.901793e+00 -1.215696e+01 -3.801397e+00 -4.038722e+00 -3.418138e+00 1.988386e+01 1.690430e+00 1.120770e+00 -1.217728e+00 -3.599325e+00 2.094378e+00 -7.661533e-01 -1.125191e+00 3.942011e-01 -2.349880e+00 -2.301246e+00 -3.342896e+00 -2.543004e+00 5.760466e-01 -2.081256e-01 -7.705889e-01 -6.860117e-01 -1.158789e-01 5.682682e-01 3.820647e-01 -9.746905e-02 6.648261e-01 9.573811e-01 4.429878e-01 -1.719930e-01 9.211668e-01 -1.164434e-01 
-9.038350e+00 4.925758e+00 -6.680739e+00 -1.261220e+01 6.020246e+00 -2.618626e+00 -2.765604e+00 -6.452231e+00 -7.525716e+00 -5.490845e+00 -6.612086e+00 -4.792094e+00 2.030390e+01 7.908667e-01 -5.442578e-01 -1.992833e+00 -3.225870e+00 1.498748e+00 -2.902925e-02 2.371848e-02 6.010900e-01 -3.338009e-01 -1.030703e+00 -3.125937e+00 -4.464298e-01 3.529196e-01 -5.172220e-01 -6.681245e-01 -4.284688e-01 9.019101e-01 -1.718855e-01 8.703055e-02 1.929629e-01 -3.776686e-02 9.570234e-01 6.757625e-01 4.142240e-01 1.019172e+00 -1.701973e-01 
-8.897442e+00 2.018909e+00 -8.435969e+00 -1.240787e+01 5.170266e+00 -2.980583e+00 -1.058861e+00 -2.707624e+00 -7.540020e+00 -6.601295e+00 -8.429780e+00 -2.074393e+00 2.032640e+01 -4.084301e-03 -7.036597e-01 -1.807007e+00 -1.042274e+00 1.896727e+00 1.594051e-01 3.595045e-01 7.833712e-01 1.812063e+00 3.386431e-01 -1.842360e+00 1.403086e+00 1.446152e-01 -5.347541e-01 -6.410374e-02 -6.330906e-02 1.168729e+00 -3.940352e-01 -2.535779e-01 2.400451e-01 -7.126110e-01 7.094718e-01 7.229974e-01 8.526015e-01 4.809253e-01 -1.485760e-01 
-8.687626e+00 7.171714e-01 -9.900495e+00 -1.341480e+01 4.966718e+00 -3.501608e+00 -3.337685e+00 -5.990359e+00 -5.368934e+00 -2.486148e+00 -1.097378e+01 4.566269e-01 2.048317e+01 -2.914173e-01 -2.802261e-01 -2.065329e+00 3.258039e-01 2.792819e-01 -9.340565e-01 -6.072998e-02 -1.177906e+00 6.755930e-01 4.077086e-01 -1.199832e+00 6.957649e-01 5.226917e-02 -2.497167e-01 5.533404e-01 3.022927e-01 9.505199e-01 -2.223240e-01 -4.369232e-01 8.399443e-02 -7.316614e-01 8.108490e-02 5.149486e-01 1.075509e+00 -1.740216e-01 -1.102502e-01 
-8.818378e+00 3.353667e+00 -1.258798e+01 -1.134277e+01 8.285124e+00 -2.276575e+00 -2.594503e+00 -5.215872e+00 -4.175031e+00 -3.610530e+00 -1.106968e+01 9.729304e-01 2.051730e+01 -4.421985e-01 6.682354e-01 -1.498025e+00 4.684853e-01 7.339348e-01 -1.581529e+00 1.172589e-01 -2.279356e+00 6.927813e-01 5.945355e-01 -4.294081e-02 -7.094751e-01 -1.650810e-02 3.116682e-02 5.045826e-01 6.403557e-01 3.752626e-01 -3.453453e-01 -2.835667e-01 1.263234e-01 -3.598733e-01 -5.030940e-01 4.962427e-01 7.481801e-01 -2.044053e-01 -8.558036e-02 
-1.053497e+01 2.857249e+00 -1.493138e+01 -1.151573e+01 5.859226e+00 -7.640912e+00 -2.301433e+00 -1.108764e+01 -5.830245e+00 -4.947684e+00 -1.129130e+01 -2.836931e+00 2.046980e+01 -2.386599e-01 1.536497e+00 -6.358604e-01 7.713504e-01 9.685243e-01 -1.343178e+00 5.648134e-01 -1.525853e+00 6.312646e-01 1.416094e+00 1.351897e+00 -2.602575e-01 -1.177698e-01 2.264200e-01 1.827441e-01 9.631428e-01 9.125689e-02 -1.196035e-01 2.999517e-01 2.050363e-01 4.681985e-01 -2.646888e-01 7.769675e-01 5.530763e-02 4.126763e-01 -7.834937e-02 
-1.018476e+01 4.290048e+00 -1.341065e+01 -1.101498e+01 8.393686e+00 -8.818577e+00 -9.906929e-01 -1.155576e+01 -3.845458e+00 -2.397849e+00 -8.485723e+00 -3.974989e+00 2.025055e+01 1.253711e-01 9.108917e-01 6.800374e-01 6.112655e-01 -1.746205e-01 -1.053867e+00 6.783496e-01 -8.420216e-01 -6.812423e-01 2.315664e+00 6.226765e-01 8.590704e-01 -1.982672e-01 2.332861e-01 -2.352523e-01 9.208581e-01 -7.062512e-03 -3.652466e-01 5.840358e-01 -2.051532e-02 8.372934e-01 -2.667333e-01 4.735023e-01 -7.034279e-01 6.786273e-01 -4.449259e-02 
-9.197733e+00 7.931466e+00 -1.266846e+01 -9.721938e+00 9.755058e+00 -6.946496e+00 -1.315523e+00 -1.044968e+01 -2.377398e+00 3.987981e+00 -5.506270e+00 1.629299e+00 2.002769e+01 5.568980e-01 5.121663e-01 1.661353e+00 7.106982e-01 1.355421e-01 3.018714e-01 6.839060e-01 4.444190e-01 3.916106e-02 3.431982e+00 -1.256102e+00 1.974874e+00 -2.485981e-01 7.004105e-02 -4.986278e-01 5.991766e-01 -2.047010e-01 -4.007798e-01 5.424764e-01 -1.811239e-01 6.798658e-01 8.045568e-02 -2.715514e-01 -8.437439e-01 1.608866e-01 2.485006e-02 
-8.860141e+00 5.371017e+00 -1.031925e+01 -9.183337e+00 5.464105e+00 -7.893120e+00 3.042905e-01 -9.744960e+00 -9.307667e+00 3.499958e+00 -1.084881e+01 3.035167e+00 1.974701e+01 3.264529e-01 4.139042e-03 1.957659e+00 4.634988e-01 -6.758072e-01 5.161252e-01 -4.486396e-02 9.219753e-01 -3.448334e-01 1.954103e+00 -2.256081e+00 1.566096e+00 -1.735569e-01 -1.343665e-01 -3.254409e-01 1.406835e-01 -3.123120e-01 -4.191901e-01 6.549070e-01 -3.819333e-01 5.403359e-02 4.094975e-01 -8.611622e-01 2.066160e-02 -6.145531e-01 8.944511e-02 
-8.412789e+00 4.877595e+00 -8.170311e+00 -8.878061e+00 8.001727e+00 -6.594284e+00 4.706053e-01 -9.770946e+00 -2.903335e+00 9.263322e+00 -1.639027e+01 3.532361e+00 1.947857e+01 1.100445e-02 -5.032657e-01 1.721212e+00 -1.782712e-01 -7.847813e-01 5.842075e-01 2.080088e-02 9.914773e-01 8.653384e-01 2.391177e-01 -1.427444e+00 1.906630e-01 -5.874634e-03 -2.537382e-01 -2.921546e-01 -1.335738e-01 -3.323683e-01 -9.445803e-01 7.649485e-01 -2.886550e-01 -6.276190e-01 9.688427e-02 -1.252189e+00 9.681129e-01 -1.129239e+00 1.172071e-01 
-8.944970e+00 5.837678e+00 -5.871433e+00 -9.119425e+00 5.891316e+00 -6.414057e+00 -2.108077e+00 -7.285254e+00 -5.306656e+00 4.734995e+00 -1.432413e+01 2.903960e+00 1.965732e+01 -2.735144e-01 -2.085970e-01 1.353526e+00 -5.058098e-01 -1.810409e+00 2.079500e+00 -8.997644e-01 -8.453829e-01 9.531565e-01 -3.937146e-01 8.116554e-01 -1.321589e+00 1.275967e-01 -1.267159e-01 -3.484908e-01 -6.816162e-02 -9.241906e-03 -1.093964e+00 7.948794e-01 -3.318722e-02 -7.230476e-01 -8.639517e-02 -9.168928e-01 1.051058e+00 -9.926909e-01 7.512645e-02 
-9.100296e+00 5.181807e+00 -6.286312e+00 -1.064525e+01 5.617546e+00 -4.764990e+00 -5.334855e-03 -6.722147e+00 -5.121083e-02 4.566051e+00 -1.090583e+01 2.648218e+00 2.004317e+01 -4.118094e-01 -8.422386e-01 1.295551e+00 -4.664891e-01 -4.020058e+00 3.344927e+00 -3.319188e-01 -1.809997e+00 -1.254125e-01 -1.655053e+00 2.050594e+00 -2.227479e+00 1.868607e-01 7.368438e-02 -3.895134e-01 1.726732e-01 3.871920e-01 -6.484922e-01 4.333440e-01 1.484113e-01 -3.420181e-01 -5.622123e-01 -5.818850e-01 3.943509e-01 -6.809965e-01 -7.645511e-03 
-9.883960e+00 4.175926e+00 -4.493624e+00 -1.082879e+01 -2.395851e+00 1.589731e+00 -3.956562e+00 -1.549627e+01 -5.967947e+00 3.880021e+00 -9.532749e+00 -3.130709e+00 2.010270e+01 -9.571962e-02 -1.568828e+00 1.829681e+00 5.613982e-01 -4.527988e+00 3.110163e+00 -3.444023e-02 -1.292526e+00 -2.814338e-01 -1.683276e+00 1.260189e+00 -2.188288e+00 1.057077e-01 1.554457e-01 -2.934643e-01 5.199458e-02 5.811835e-01 6.730543e-01 -5.972309e-01 4.173597e-01 3.350036e-01 -1.645790e-01 -5.079305e-01 -3.041263e-01 -3.653041e-01 -8.426319e-02 
-1.000234e+01 1.497278e+00 -2.381459e+00 -1.035582e+01 -7.954979e+00 6.128457e+00 -2.647462e-01 -1.471542e+01 -3.199753e+00 1.415541e+00 -8.532989e+00 -4.587698e+00 2.019019e+01 2.905290e-01 -1.770717e+00 2.346500e+00 1.224084e+00 -2.668453e+00 2.235596e+00 3.301954e-01 -4.950418e-01 -1.328428e+00 -2.025527e+00 3.200437e-01 -2.780970e+00 -3.315773e-02 -1.673118e-01 2.598338e-01 -4.076032e-01 5.266951e-01 1.826530e+00 -1.198006e+00 3.835970e-01 4.633653e-01 5.076666e-01 -2.729972e-01 -5.225498e-01 -2.387801e-01 -1.106107e-01 
-8.972546e+00 -1.642004e-01 1.324547e+00 -6.457147e+00 -9.962363e+00 3.690032e+00 -2.150572e+00 -9.751247e+00 -5.139554e+00 -2.106129e+00 -9.209608e+00 -4.419524e+00 2.011235e+01 1.525448e-01 -1.211679e+00 1.088024e+00 1.554821e+00 8.790594e-01 -3.519892e-01 8.559766e-01 1.721578e-01 7.317693e-01 -2.748131e+00 1.562987e-01 -2.871364e+00 -1.837101e-01 -7.389842e-01 7.968774e-01 -1.073020e+00 1.296419e-01 1.865066e+00 -9.866759e-01 6.520721e-01 1.627094e-01 1.080662e+00 -8.084182e-02 -1.065311e-01 -1.158037e-02 -7.215758e-02 
-8.103358e+00 -1.501717e+00 2.537104e+00 -6.710650e+00 -3.941462e+00 5.362838e+00 7.426476e-01 -1.206987e+01 -7.107548e+00 -2.568507e+00 -9.467180e+00 -1.061223e+01 1.987255e+01 -1.372501e+00 2.783560e-01 -3.716363e-01 1.670275e+00 2.409068e+00 -9.140257e-01 1.140858e+00 -2.255120e-01 1.906319e+00 -2.487612e+00 -1.021032e-02 -3.079841e+00 -2.214842e-01 -1.093693e+00 1.015128e+00 -1.372504e+00 -1.865204e-01 6.758412e-01 -6.069287e-01 5.816106e-01 4.517978e-01 1.328410e+00 2.603581e-01 9.092672e-02 6.740707e-01 9.791948e-04 
-1.007073e+01 -3.829722e-01 -1.512787e+00 -4.877274e+00 -7.312903e-03 2.125946e-01 -1.803756e-01 -1.595826e+01 -3.552023e-01 -7.868608e+00 -8.284160e+00 -1.447527e+01 1.934297e+01 -2.959126e+00 1.391022e+00 -2.176349e+00 9.865123e-01 2.258582e+00 -2.484057e-01 2.820589e+00 -6.137439e-01 3.504501e+00 -1.856442e+00 8.926600e-01 -2.096755e+00 -1.609169e-01 -8.110024e-01 6.932434e-01 -8.022013e-01 -4.733549e-01 -5.595300e-01 -1.339352e-03 1.750270e-01 8.294778e-01 4.794775e-01 7.754124e-01 3.831401e-01 1.362496e+00 6.296869e-02 
-1.631575e+01 2.998444e+00 -2.820974e+00 -2.794384e+00 -8.871633e-01 3.297047e+00 4.454445e+00 -1.273947e+01 3.939666e+00 -8.141281e+00 -9.046764e+00 -1.495903e+01 1.946746e+01 -3.622098e+00 2.003572e+00 -2.883832e+00 5.756365e-01 2.099215e-02 -8.508393e-01 2.255942e+00 2.156898e+00 3.927255e+00 -1.169580e+00 4.064967e-01 2.020785e-01 -3.965836e-02 3.274183e-02 5.453788e-02 -1.777885e-02 -5.154921e-01 -8.235651e-01 8.549976e-03 -4.336523e-01 8.707700e-01 -3.744678e-01 9.245709e-01 5.093673e-01 1.404237e+00 6.474741e-02 
-1.966198e+01 4.540828e+00 -6.878159e+00 -3.482719e+00 -1.966024e-01 3.480900e+00 1.009647e+01 -1.248516e+01 6.859347e+00 -8.601953e+00 -4.956516e+00 -1.272989e+01 1.951031e+01 -2.777668e+00 1.391930e+00 -1.666885e+00 -2.646344e-01 -7.245523e-01 -3.902791e-01 1.173570e+00 3.128342e+00 2.118689e+00 4.699153e-01 1.863646e+00 2.300156e+00 4.022045e-02 7.638031e-01 -4.176691e-01 7.365118e-01 -3.983016e-01 -5.291541e-01 -1.508267e-01 -1.077646e+00 3.193323e-01 -9.933546e-01 9.334145e-01 4.244477e-01 9.472376e-01 2.331638e-02 
-2.141823e+01 6.054246e+00 -9.199368e+00 -4.529746e+00 -3.741856e+00 -5.255110e-01 6.883932e+00 -3.021927e+00 8.921453e+00 -8.049736e+00 -9.098518e+00 -1.047452e+01 1.959059e+01 -1.299520e+00 5.505914e-01 -7.152628e-01 -2.816122e-01 -2.171904e-01 -8.003390e-01 -2.038937e-01 2.257295e+00 7.268860e-01 9.720637e-01 2.051133e+00 1.742887e+00 1.684189e-03 1.008441e+00 -6.910920e-01 9.056070e-01 -4.194079e-02 2.486282e-01 1.479450e-01 -6.774641e-01 -8.664764e-01 -9.752091e-01 5.947856e-01 2.099670e-01 2.045717e-02 -3.127932e-02 
-2.140783e+01 5.048776e+00 -6.658014e+00 -5.332765e+00 -2.202728e+00 1.724781e-01 4.472730e+00 -5.175326e+00 7.747348e+00 -5.564804e+00 1.059945e+00 -5.216744e+00 1.948251e+01 -3.013998e-01 2.916665e-02 4.219258e-01 -5.763714e-01 -2.680973e-01 -1.027789e+00 -1.337723e+00 9.327189e-01 1.379128e-01 1.739808e+00 2.192580e+00 1.869029e+00 -6.500626e-02 7.533035e-01 -5.877811e-01 4.730240e-01 3.466220e-01 4.855985e-01 2.607670e-01 -3.303779e-02 -1.106514e+00 -4.179133e-01 -8.934081e-03 -6.523243e-01 -6.939864e-01 -5.184519e-02 
-2.194043e+01 5.497427e+00 -6.507361e+00 -3.277422e+00 -9.700523e-01 9.495630e-01 6.246849e+00 -5.107918e+00 7.130095e+00 -4.799537e+00 -1.799328e+00 -1.000117e+01 1.948978e+01 1.819708e-01 -7.705058e-01 5.997984e-01 5.218011e-01 1.035906e+00 2.076409e-01 1.242679e-01 -1.077672e+00 4.159741e-02 1.169401e+00 1.291864e+00 5.199280e-01 -1.434416e-01 3.651282e-01 -3.862620e-01 9.918857e-02 4.260429e-01 3.830672e-01 4.215360e-01 4.072853e-01 -7.350367e-01 -4.923828e-02 -3.664619e-01 -9.037386e-01 -6.391870e-01 -3.297815e-02 
-2.090788e+01 4.965071e+00 -6.114533e+00 -6.990738e+00 -2.922991e+00 -2.395585e+00 3.726400e+00 -6.778575e+00 8.444590e+00 -1.528010e+00 2.356788e+00 -3.621424e+00 1.923569e+01 2.481041e-01 -8.864271e-01 4.070420e-02 1.066769e+00 1.076892e+00 4.095656e-01 8.443001e-01 -7.367421e-01 3.717665e-01 3.265762e-01 -1.018342e+00 -5.582961e-01 -1.464426e-01 1.174934e-01 -2.056593e-01 -1.529777e-01 3.712037e-01 2.577241e-01 3.613928e-01 4.775742e-01 -2.537239e-01 7.738801e-02 -5.109907e-01 -8.263320e-01 -4.976142e-01 -9.401111e-03 
-2.075835e+01 2.243569e+00 -6.472116e+00 -1.091754e+00 1.797804e+00 1.796725e+00 7.878437e+00 -7.608664e+00 8.780819e+00 -4.221128e+00 -3.287618e+00 -8.672540e+00 1.899679e+01 2.513683e-01 -9.229218e-01 -2.870912e-02 1.027032e+00 1.025651e+00 5.886635e-01 7.415212e-01 -5.831580e-01 3.637677e-01 -1.536299e-01 -8.620986e-01 -2.393855e-01 -1.224884e-01 1.420594e-02 -3.413267e-02 -1.326428e-01 9.707246e-02 -7.175135e-03 9.411429e-02 1.131728e-01 1.142613e-01 6.363418e-02 -3.126268e-01 -4.151683e-01 -1.199717e-01 6.586058e-03 
