-5.248532e-01 -2.037436e+00 -3.801238e+00 -4.268764e+00 5.806130e-01 -9.550986e-01 -2.493533e+00 6.474559e+00 -6.363894e+00 -6.960752e+00 -7.178921e+00 8.800861e-01 1.733103e+01 -5.536600e-01 -1.228923e+00 -2.580579e-01 7.602227e-01 3.548353e-01 7.400735e-01 4.082704e-01 1.068150e-01 7.176003e-01 3.663677e+00 2.955425e+00 8.798800e-01 -2.718534e-01 -6.027637e-01 3.209819e-01 -9.961888e-02 -1.726761e-01 -5.580165e-01 -3.820949e-01 -2.719318e-01 -2.811614e-01 -6.133189e-02 -7.017518e-01 -1.926665e-01 -4.436691e-01 3.569176e-02 
-1.489767e+00 -5.776353e+00 -4.577868e+00 -1.549636e+00 2.144468e+00 1.072818e+00 -1.432689e+00 3.878232e+00 -4.515411e+00 2.128189e+00 -2.325033e+00 1.111846e+00 1.662267e+01 -9.467391e-01 -1.002063e+00 -1.039953e+00 -4.027843e-02 -5.618284e-01 5.932045e-01 -8.666245e-01 -1.189056e+00 9.517400e-02 2.311687e+00 2.519602e+00 -1.831254e-01 -3.707601e-01 -8.294352e-01 5.561972e-01 1.892653e-01 -2.058880e-01 -1.116091e+00 -1.242677e+00 -8.363936e-02 -1.595536e-01 -1.478578e-01 -1.162140e+00 -4.526088e-01 -3.821512e-01 2.018056e-01 
-2.810697e+00 -6.312592e+00 -4.703212e+00 -1.827215e+00 1.572862e+00 1.731310e+00 -9.826027e-01 8.306797e+00 -3.700135e+00 6.813163e+00 5.171261e+00 5.163606e+00 1.632595e+01 -3.370939e+00 2.625567e-01 -3.652048e-01 2.970930e-01 -1.976915e+00 -1.096967e+00 -3.139411e-01 -6.510561e-01 7.221540e-01 8.309132e-01 2.210004e+00 -8.069630e-01 -4.394131e-02 -4.550134e-01 5.853955e-01 8.524938e-01 -7.827977e-02 -1.659646e+00 -1.758529e+00 1.296312e-01 -1.811250e-01 -4.911087e-01 -9.554211e-01 -9.121599e-01 -2.278752e-01 3.835420e-01 
-4.115627e+00 -4.910174e+00 -8.550015e+00 -5.690931e+00 -2.724653e+00 6.677192e-01 -7.582120e+00 -3.868421e-01 -7.219904e+00 -2.289275e+00 -7.560019e-01 -2.177301e+00 1.597978e+01 -3.292197e+00 8.063237e-01 7.418420e-01 -3.765260e-02 -4.059744e+00 -4.554794e+00 3.511795e-01 -3.120177e-01 -2.396555e-02 -7.306394e-01 1.065091e+00 -1.874548e-01 6.232184e-01 4.089794e-01 4.876599e-01 1.545668e+00 2.130342e-01 -1.551890e+00 -1.335312e+00 4.432028e-01 -2.482962e-01 -5.454634e-01 3.178880e-02 -8.894004e-01 2.305103e-01 4.532501e-01 
-1.606662e+01 -1.157742e+00 -3.641188e+00 -7.126514e-01 -6.869403e+00 -6.237382e+00 -9.885229e-01 5.351816e+00 -1.400878e+00 -5.974547e-01 3.086584e+00 -1.510155e+00 1.743278e+01 -1.655998e+00 7.938615e-01 3.113513e+00 3.675110e-01 -6.194435e+00 -5.478572e+00 4.475242e-01 -1.237329e+00 -1.678374e+00 4.077352e-01 -8.781195e-01 -2.573313e-01 1.148867e+00 1.427430e+00 2.924220e-01 1.325298e+00 5.897349e-02 -7.816250e-01 2.420578e-01 8.247592e-02 -9.870600e-01 -6.951735e-01 5.283820e-01 -8.719767e-01 1.130399e-01 2.447571e-01 
-1.132279e+01 -4.322159e+00 -1.399670e+00 -2.295180e+00 -1.393312e+01 -1.771680e+01 3.261685e-01 3.795635e+00 -5.784867e+00 2.180300e+00 4.042763e+00 3.511452e+00 1.918535e+01 2.406877e-01 1.170584e+00 4.949028e+00 9.896834e-01 -6.212519e+00 -3.892554e+00 9.686569e-01 -2.137401e+00 -1.431879e+00 2.682220e+00 -3.833385e-01 6.946103e-01 1.299086e+00 1.263870e+00 3.995536e-01 3.207561e-01 1.522745e-01 7.064711e-01 1.857609e+00 9.029818e-02 -1.220158e+00 -3.528194e-01 2.311530e-01 -3.559706e-01 -2.909764e-01 -1.093457e-01 
-7.487104e+00 -2.637292e+00 7.289182e+00 -1.687535e+00 -2.379508e+01 -1.646929e+01 -2.699126e+00 2.891099e-02 -1.280952e+01 6.617051e+00 -1.618719e+00 1.032573e+00 2.046750e+01 1.999767e+00 1.542537e+00 4.157691e+00 7.829244e-02 -4.808653e+00 -2.177975e-01 -2.103003e-01 -4.673665e+00 -2.049757e+00 1.766393e+00 -1.425665e+00 -6.827960e-01 8.419105e-01 4.512421e-01 4.996718e-01 -1.251395e+00 1.318517e-01 2.416768e+00 2.287224e+00 1.136051e-01 -6.382800e-01 4.208470e-01 -8.151838e-01 3.757451e-01 -1.333246e-01 -3.914321e-01 
-7.201945e+00 1.682520e+00 1.072994e+01 -2.550718e-01 -2.532441e+01 -1.367910e+01 -1.883534e+00 -8.412394e+00 -8.674979e+00 7.514572e+00 -3.200431e-01 2.438679e-02 2.095785e+01 1.199270e+00 2.429754e+00 1.823534e+00 8.683289e-01 -1.220280e+00 2.102863e+00 1.131583e+00 -4.694640e+00 -1.602371e+00 -2.542035e-01 -4.409888e-01 -1.429605e+00 2.299685e-01 -6.000454e-01 2.698743e-01 -2.137387e+00 9.065119e-02 3.041207e+00 1.783314e+00 1.657026e-01 6.680604e-01 8.479271e-01 -1.417865e+00 5.530457e-01 2.423214e-01 -4.844152e-01 
-8.128208e+00 3.552602e+00 1.108246e+01 -1.341243e+00 -2.521703e+01 -9.345223e+00 -9.351729e-01 -1.191249e+01 -1.020461e+01 5.567377e+00 -1.860336e+00 -3.180602e+00 2.075608e+01 1.209221e-01 2.662635e+00 -1.580713e+00 1.087447e+00 3.393284e+00 2.959840e+00 9.340868e-01 -3.150110e+00 5.111073e-01 -2.199972e+00 1.029431e+00 1.381532e-01 -2.737343e-01 -1.369786e+00 -2.031336e-01 -1.821257e+00 7.511787e-02 2.463923e+00 7.566208e-01 2.138491e-01 1.966559e+00 1.072824e+00 -8.146484e-01 6.377481e-01 8.622843e-01 -3.582359e-01 
-5.005892e+00 4.731665e+00 5.821360e+00 1.873319e+00 -1.932355e+01 -1.076452e+01 5.102105e+00 -1.370686e+01 -1.509918e+01 1.434120e+00 1.958628e+00 -1.529983e+00 2.019090e+01 -1.820117e+00 1.959906e+00 -2.868707e+00 9.383623e-01 4.892548e+00 3.435196e+00 1.224976e+00 4.411239e-01 1.527324e+00 -2.423924e+00 1.154342e+00 1.495743e+00 -5.651678e-01 -1.468896e+00 -8.148371e-01 -7.300283e-01 -4.225407e-01 8.775454e-01 4.700992e-02 -2.732143e-01 2.266222e+00 1.036608e+00 2.516249e-01 3.115382e-02 8.058742e-01 -1.525153e-01 
-7.980520e+00 9.151311e+00 1.839908e+00 2.685503e+00 -9.829092e+00 -3.127373e+00 -1.521512e+00 -1.307440e+01 -7.041884e+00 -1.342582e+00 2.389100e+00 2.500524e+00 1.948230e+01 -3.339469e+00 7.617928e-01 -2.602475e+00 4.188651e-01 4.454546e+00 2.899140e+00 8.122487e-01 2.591247e+00 1.749514e+00 -1.221989e+00 9.654102e-01 2.165951e+00 -5.517008e-01 -9.476290e-01 -1.392065e+00 1.275990e-01 -7.466942e-01 -8.553419e-01 -7.319759e-01 -3.041231e-01 1.635811e+00 4.427959e-01 8.513076e-01 -4.403377e-01 7.131257e-02 2.372766e-02 
-1.637638e+01 8.682696e+00 1.007682e+00 2.423366e+00 -8.555636e+00 3.879571e-01 4.534516e+00 -5.625819e+00 -2.619720e+00 -1.150068e+00 3.326951e+00 4.662538e+00 1.876890e+01 -4.415015e+00 -6.940103e-01 -1.315726e+00 -9.100839e-01 2.636816e+00 2.368262e+00 -1.735698e-01 3.765792e+00 2.961468e+00 5.149293e-01 -2.532093e-01 1.585867e+00 -3.936249e-01 1.345247e-01 -1.391854e+00 3.694161e-01 -7.378460e-01 -1.655965e+00 -1.250571e+00 -6.604898e-01 5.452706e-01 1.242890e-01 7.213724e-01 -4.999253e-01 -4.006984e-01 1.147540e-01 
-1.914031e+01 5.386050e+00 4.769250e-01 4.780583e-01 -8.328249e+00 -4.257633e-01 3.409865e+00 -2.996781e+00 -7.696765e+00 7.495279e-01 2.282553e+00 4.552895e+00 1.870858e+01 -3.319774e+00 -2.970732e+00 -1.719208e+00 -1.721801e+00 2.444404e-01 -1.665728e-01 1.127443e-01 3.366611e+00 2.008015e+00 5.871396e-01 -4.684818e-01 4.496540e-01 -2.408674e-01 1.316765e+00 -7.477804e-01 2.399807e-01 -3.021807e-01 -1.529957e+00 -1.322326e+00 -5.530244e-01 -4.278456e-01 6.869850e-02 8.284071e-02 -3.526907e-01 -7.339935e-01 2.022821e-01 
-2.150107e+01 3.144244e+00 -7.577939e-02 -1.573378e+00 -6.889886e+00 -2.740165e-01 1.768568e+00 8.328655e-02 3.559999e-02 2.962712e+00 7.458550e-01 5.373167e+00 1.860964e+01 -1.157341e+00 -3.133100e+00 -1.463260e+00 -1.680535e+00 -1.282224e+00 -1.284805e+00 -1.727720e+00 2.779795e+00 2.019518e+00 2.783743e-01 -6.283380e-01 3.503998e-01 -1.468143e-01 2.232211e+00 6.792983e-02 -1.083022e-01 8.304606e-02 -8.105246e-01 -1.239696e+00 -4.665872e-01 -7.353206e-01 -5.756322e-01 -2.966765e-01 -5.041171e-01 -8.930300e-01 3.122451e-01 
-2.201704e+01 -2.933123e+00 -6.214402e+00 -3.925131e+00 -9.439765e+00 -3.629250e+00 4.251837e-01 9.040977e-01 1.670529e+00 -4.632734e-01 1.337239e+00 4.393480e+00 1.835759e+01 1.615518e+00 -1.757565e+00 -1.328805e+00 -7.068130e-01 -1.235721e+00 -1.885957e+00 -1.175798e+00 9.450173e-01 2.563981e+00 -6.895076e-01 -6.104789e-01 -8.862823e-01 3.363047e-01 2.106638e+00 4.865275e-01 -5.865133e-02 1.894840e-01 -2.807379e-06 -7.226707e-01 -3.912738e-01 -2.785702e-01 -1.062020e+00 8.860390e-02 -1.047720e+00 -1.170238e+00 3.888807e-01 
-2.072472e+01 -2.823215e+00 -2.962953e+00 -3.777712e+00 -1.441100e+01 -4.434324e+00 -2.611746e+00 6.322718e+00 2.794225e+00 8.482042e-01 6.579179e-01 6.494245e+00 1.821032e+01 4.278392e+00 -9.609450e-01 -2.052439e+00 -1.002348e+00 -6.757268e-01 -2.970526e+00 -1.862235e+00 1.299986e+00 -1.946760e-01 -3.301293e-01 -2.702796e+00 -2.211315e+00 8.790144e-01 1.136981e+00 -9.577601e-02 -2.246805e-01 -1.698277e-02 5.766329e-01 -1.443273e-01 6.284942e-02 2.244832e-01 -1.523165e+00 3.661418e-01 -1.228918e+00 -1.371885e+00 3.315586e-01 
-1.145090e+01 -4.180430e-01 -4.723514e+00 -1.953839e+00 -1.074630e+01 -7.775392e+00 -2.789678e-01 -1.391410e+00 3.743829e+00 -1.640756e+00 -7.258728e-01 -4.390555e-01 2.058976e+01 4.495548e+00 -1.624172e+00 -1.717875e+00 -1.113474e+00 -5.882215e-02 -2.937066e+00 -1.776367e+00 2.713664e+00 -2.194989e+00 1.334411e+00 -4.669852e+00 -4.120677e+00 1.190622e+00 -3.045577e-01 -8.874089e-01 -1.041916e-01 -2.988375e-01 5.019481e-01 7.375472e-01 6.198546e-02 7.934951e-01 -1.460356e+00 5.867966e-01 -7.268081e-01 -6.933362e-01 5.534149e-02 
-5.392184e+00 -2.918021e+00 -1.108342e+01 -7.570762e+00 -9.615254e+00 -1.305358e+01 -7.190531e+00 7.730972e+00 -1.974430e+00 1.900807e+00 -1.173657e+01 -3.267142e+00 2.188862e+01 3.087547e+00 -3.678676e+00 -2.392127e+00 -1.562118e+00 1.012491e+00 -1.480887e+00 -1.113189e+00 3.017888e+00 -3.216824e+00 1.097124e+00 -4.743241e+00 -4.891826e+00 1.083820e+00 -1.308542e+00 -7.627586e-01 2.682023e-01 -2.278717e-01 5.453615e-01 1.508487e+00 3.033818e-01 2.566676e-01 -3.273499e-01 1.853958e-01 5.404619e-01 3.542138e-01 -2.051609e-01 
-7.205565e+00 -1.100658e+01 -1.074355e+01 -7.595978e+00 -1.213175e+01 -1.400495e+01 -6.167261e+00 1.376829e+01 -6.920090e+00 5.682479e+00 -1.581478e+01 -1.132921e+01 2.247155e+01 6.881522e-01 -4.835743e+00 -1.679919e+00 -1.921116e+00 4.299107e-01 1.056960e+00 -1.240394e+00 4.053542e+00 -3.226726e+00 1.530849e+00 -3.224297e+00 -3.012708e+00 5.106093e-01 -1.239104e+00 2.100076e-01 3.356318e-01 -2.060787e-01 6.794149e-01 1.417548e+00 1.652555e-01 -3.571451e-01 4.598444e-01 -3.563598e-01 1.514689e+00 1.353036e+00 -3.189477e-01 
-7.409651e+00 -1.592232e+01 -1.191357e+01 -8.767232e+00 -8.655815e+00 -8.723977e+00 -5.233542e+00 1.383231e+01 -7.957936e+00 2.672206e+00 -1.551384e+01 -1.251981e+01 2.268853e+01 -3.606226e-01 -3.168953e+00 -7.304052e-01 -1.737885e+00 1.806714e+00 2.574894e+00 -6.133129e-01 1.913385e+00 -1.315557e+00 4.986306e-01 -7.232641e-01 -9.942304e-01 1.932161e-01 -6.206167e-01 1.170203e+00 4.301085e-01 2.066250e-01 1.214380e-01 7.452525e-01 -3.121665e-02 -6.072022e-01 7.841471e-01 -4.812509e-01 1.651770e+00 1.560445e+00 -2.741773e-01 
-7.001406e+00 -1.809461e+01 -1.270803e+01 -1.096118e+01 -9.076463e+00 -4.655395e+00 -7.459430e+00 1.582563e+01 -9.398049e+00 5.627789e+00 -1.495872e+01 -1.087626e+01 2.274286e+01 2.411375e-02 -8.289957e-01 -8.705770e-01 -2.055984e+00 2.941141e+00 2.122786e+00 -1.200028e+00 1.480190e+00 -8.464004e-01 -1.481412e-01 8.936064e-01 6.957071e-01 4.118538e-02 1.614257e-01 1.325796e+00 3.494219e-01 6.955906e-01 -4.798962e-01 -2.762080e-01 1.569881e-01 -7.647102e-01 6.598279e-01 -4.737290e-01 1.301544e+00 8.605030e-01 -1.636340e-01 
-7.297377e+00 -1.521877e+01 -1.375320e+01 -1.457759e+01 -2.109324e+00 -4.853886e+00 -9.611011e+00 1.626923e+01 -7.313235e+00 4.421305e+00 -1.578092e+01 -8.464767e+00 2.271905e+01 3.164825e-01 1.689647e-01 -6.462557e-01 -4.615588e-01 3.640663e-01 1.712462e+00 -1.289455e+00 1.268553e+00 -4.862512e-01 -4.696358e-01 1.456657e+00 1.056192e+00 -5.235443e-02 5.338418e-01 9.316574e-01 5.808436e-01 1.213271e+00 -1.440248e+00 -8.872517e-01 3.664940e-01 -7.952591e-01 2.596692e-01 -2.334879e-01 6.559479e-01 2.336843e-01 -1.462619e-01 
-7.141133e+00 -1.550333e+01 -1.417662e+01 -1.497072e+01 -6.992902e-01 -5.326069e+00 -9.978665e+00 1.995078e+01 -1.147444e+01 4.067224e+00 -1.121321e+01 -9.878194e+00 2.266221e+01 1.156728e+00 1.242803e-01 2.511549e-02 9.186743e-01 -1.248247e+00 1.071353e-01 -1.173821e-01 5.524073e-01 -3.422392e-01 -3.536626e-01 2.193463e+00 2.645959e-01 -1.847755e-01 4.793468e-01 4.164084e-01 7.020692e-01 1.313438e+00 -1.658654e+00 -8.355466e-01 6.482413e-01 -1.246295e+00 6.604494e-01 -1.467611e-02 -3.373286e-02 -2.294248e-03 -1.281374e-01 
-5.757374e+00 -1.637314e+01 -1.441056e+01 -9.070257e+00 -1.102407e+01 1.736725e-01 -1.042120e+01 1.811250e+01 -9.350995e+00 1.104310e+00 -1.010331e+01 -7.737882e+00 2.246708e+01 1.742279e+00 1.012696e+00 1.725966e+00 2.841142e+00 -3.299831e+00 -8.535390e-01 6.778344e-01 -1.599019e+00 -2.692914e-01 -5.660484e-01 1.906547e+00 3.897465e-01 -4.251129e-01 2.756489e-01 -4.041046e-02 4.401999e-01 4.021176e-01 -6.025282e-01 -7.764422e-01 4.619507e-01 -1.108605e+00 7.539659e-01 2.405522e-02 -4.203173e-01 -1.381942e-01 -5.833355e-02 
-1.987765e+00 -1.689602e+01 -1.225377e+01 -9.121476e+00 -1.086032e+01 -6.633497e+00 -7.641247e+00 1.766603e+01 -1.009037e+01 5.517973e+00 -6.830208e+00 -9.916725e+00 2.194497e+01 1.707950e+00 8.311803e-01 1.453658e+00 2.859854e+00 -3.520183e+00 -7.719466e-01 1.057534e+00 -3.317498e+00 2.347367e+00 -1.733154e-01 4.999970e-01 1.017459e+00 -4.131222e-01 -1.362488e-01 -1.422261e-01 -6.928313e-02 -2.666065e-01 2.508928e-01 -2.276955e-01 3.037781e-02 -5.006710e-01 7.707164e-01 -1.628371e-01 -4.968280e-01 -1.412611e-01 4.072960e-02 
-1.162665e+00 -9.458947e+00 -6.084789e+00 -3.296498e+00 -1.352796e+01 -8.467867e+00 -7.390548e+00 9.416506e+00 -9.351730e+00 8.656886e-01 -8.439683e+00 -6.496769e+00 2.095211e+01 1.419116e+00 -3.865376e-01 8.404725e-01 5.784394e-01 -1.512607e+00 -1.730208e+00 4.328404e-01 -2.339519e+00 1.938775e+00 -4.395332e-01 2.018034e-01 -1.121039e-02 -2.298489e-01 -5.138933e-01 -1.083042e-01 -5.238558e-01 -8.240317e-01 1.258979e+00 -1.189116e-01 -1.950019e-01 2.099384e-01 3.717788e-01 -2.719579e-01 -1.583680e-01 -5.181338e-02 1.050217e-01 
-8.987400e-01 -1.480453e+01 -1.107121e+01 -3.558329e+00 -1.704826e+01 -4.865032e+00 -6.206319e+00 7.711287e+00 2.627589e-01 3.319957e+00 -9.545034e+00 -5.411457e+00 2.135408e+01 6.370661e-01 1.127665e-01 1.214468e-01 7.169932e-01 -8.873947e-01 -5.930079e-01 1.570039e-01 -1.580698e+00 2.407310e+00 -1.231106e+00 5.616949e-01 -2.412313e-01 -7.875957e-02 -5.506533e-01 1.074919e-01 -3.475689e-01 -8.921443e-01 1.454021e+00 -1.165784e-01 -4.006357e-01 6.433581e-01 -5.643464e-01 -2.702972e-01 2.453047e-01 -1.583319e-01 7.494958e-02 
7.936940e-01 -1.935157e+01 -1.079948e+01 -8.959634e+00 -1.549313e+01 -9.361598e+00 -8.974461e+00 1.139228e+01 -4.833682e+00 5.651732e-03 -7.736881e+00 -1.004657e+01 2.161327e+01 -2.917455e-01 8.303822e-01 -2.272072e-01 -2.075854e-01 1.678672e+00 -1.537566e+00 1.530902e-01 -1.417727e+00 1.559631e+00 -1.396943e+00 1.083858e+00 7.600246e-01 -6.718578e-02 -3.470052e-01 3.420445e-01 -1.905243e-01 -4.095674e-01 8.255242e-01 3.063621e-01 -3.350389e-01 5.736840e-01 -5.483451e-01 1.763724e-01 1.005233e-01 -6.812672e-02 2.074520e-02 
2.193862e-01 -1.138588e+01 -9.289197e+00 -2.704943e+00 -1.431471e+01 -9.151671e+00 -6.064271e+00 8.774657e+00 -3.128417e-01 -2.075362e-01 -4.373134e+00 -9.347982e+00 2.122059e+01 -1.898863e-01 7.601799e-01 2.496531e-01 -1.207855e+00 2.154284e+00 -1.451159e+00 -8.057691e-01 -5.616037e-01 -2.847933e-01 -1.046097e+00 1.285493e+00 -1.598182e-01 -1.197058e-01 -1.808863e-01 3.043572e-01 2.295883e-01 -1.604473e-01 1.117123e-01 5.103534e-01 -1.490200e-01 -1.414996e-02 -9.293035e-01 6.127167e-01 -2.277652e-01 -2.552325e-01 -3.271942e-02 
-3.180455e+00 -7.016361e+00 -8.111833e+00 -4.761118e+00 -6.501378e+00 -1.401238e+01 -6.696121e+00 1.796186e+00 -1.265774e+00 -4.355279e+00 -5.606344e+00 -7.283835e-01 2.068293e+01 9.756643e-02 9.999781e-01 -1.762520e-01 -5.069734e-01 1.094175e+00 2.306786e-01 -7.609676e-01 1.935434e-02 5.431013e-01 3.498244e-01 3.425208e-01 -3.925506e-01 -1.056498e-01 2.526668e-02 7.551612e-02 2.446133e-01 1.642337e-01 -7.741650e-01 7.858528e-01 -2.366537e-03 9.441169e-02 -7.351955e-01 7.809885e-01 -2.833905e-01 -6.600236e-01 -2.948542e-02 
1.389029e-01 -1.717123e+01 -1.116677e+01 -1.169686e+01 -1.077272e+01 -9.795438e+00 -1.137433e+01 9.701315e+00 -2.945161e+00 2.699404e-01 -4.182837e+00 -1.086964e+01 2.122073e+01 -4.620213e-01 1.549755e+00 1.243911e+00 6.445043e-02 -3.658476e-02 1.074637e+00 -1.310671e-01 -2.369989e+00 -1.730943e+00 9.590940e-01 -2.064629e-01 -9.411060e-01 -2.231247e-01 7.417996e-02 -4.858885e-02 1.506696e-01 3.040169e-01 -6.064512e-01 3.364303e-01 3.635119e-01 3.221202e-01 -4.341942e-01 4.343391e-01 1.431175e-02 -1.942757e-01 -2.339054e-02 
1.321768e+00 -1.145900e+01 -1.074195e+01 -6.998541e+00 -1.179326e+01 -7.886322e+00 -1.012427e+01 1.102572e+01 -8.020151e-01 1.516036e+00 -6.119426e+00 -1.124849e+01 2.108495e+01 -2.934465e-02 8.131755e-01 4.987304e-01 -2.256956e-02 -1.096719e+00 1.128799e+00 -1.960935e-01 -4.147596e-02 -1.393271e+00 1.505404e+00 4.128834e-01 -2.149449e+00 -1.629034e-01 1.631608e-01 -5.021709e-01 2.902560e-01 1.784982e-01 -1.444802e-01 -2.987893e-01 3.319668e-01 4.695849e-01 -3.760656e-01 -7.406978e-02 4.466670e-01 2.864866e-01 -8.930149e-03 
-4.341832e+00 -1.415784e+00 -1.754584e+00 -1.263979e+00 -1.185170e+01 -6.841517e+00 -5.005534e+00 -7.690053e+00 -9.199438e+00 1.652277e+00 -5.148908e+00 -8.793458e+00 1.990395e+01 2.444690e-01 6.106369e-01 6.655099e-01 7.002745e-02 2.174754e-01 -2.180684e-01 7.293535e-01 1.079413e+00 -1.487578e+00 5.478091e-01 1.321871e+00 -2.527475e-01 -2.080317e-01 4.279857e-01 -7.274274e-01 -1.336565e-01 -4.719066e-03 1.147660e-01 -4.332678e-01 8.171851e-03 1.018420e+00 5.531392e-01 -1.907136e-01 4.191245e-01 4.654873e-01 3.221085e-02 
-1.086811e+00 -1.082821e+01 -1.032427e+01 -1.009041e+01 -1.144548e+01 -9.845343e+00 -1.086099e+01 1.028449e+01 -5.104990e+00 2.480573e+00 -3.058892e+00 -1.251372e+01 2.052680e+01 5.601252e-01 -1.041318e+00 1.564229e+00 3.827291e-01 2.447439e-01 -6.169153e-01 4.686559e-01 6.425782e-01 -1.458910e+00 1.851180e-01 1.811689e+00 6.957034e-01 -1.578470e-01 2.156145e-01 -1.760872e-01 -3.883097e-02 -2.995833e-02 1.689949e-01 -3.212763e-02 1.872323e-01 -3.788671e-02 5.876543e-01 2.043609e-01 -2.663628e-01 2.657824e-01 2.785431e-02 
2.565537e+00 -1.443345e+01 -8.048058e+00 -9.800792e+00 -9.859227e+00 -9.906269e+00 -7.359206e+00 1.546899e+01 -8.231564e+00 2.526717e+00 8.962485e-01 -1.150076e+01 2.045964e+01 1.383172e+00 -1.160136e+00 4.287899e-02 -1.617943e-01 -1.334861e-01 -2.188450e-01 -4.225826e-01 2.380081e+00 1.067572e+00 6.656693e-01 1.189757e+00 -3.624563e-02 -6.459866e-02 -8.593397e-02 3.310710e-01 -3.412767e-01 -3.490566e-01 -9.926030e-02 4.804615e-01 2.871524e-01 -4.653038e-01 5.580562e-01 8.691139e-01 -8.132752e-01 -5.894538e-01 5.019083e-02 
6.687093e-01 -1.015676e+01 2.259285e-01 -8.164888e-01 -1.156577e+01 -9.438522e+00 -6.604151e+00 2.659089e+00 -8.580501e+00 2.004405e+00 -8.355920e-02 -6.416323e+00 2.001787e+01 4.793765e-01 8.181261e-01 6.158910e-01 -5.645037e-02 -7.626352e-02 9.685496e-01 1.316036e+00 -8.812439e-01 2.674254e-01 2.468279e+00 -8.528737e-01 -9.287879e-01 -9.534836e-02 -2.472942e-01 5.507358e-01 -6.568165e-01 -7.307742e-01 6.162236e-03 5.412469e-01 5.546331e-01 -1.075515e-01 1.998785e-01 1.020034e+00 -7.818996e-01 -9.691488e-01 6.252494e-02 
1.696269e+00 -7.552187e+00 -6.815289e+00 -6.709909e+00 -1.245898e+01 -8.139153e+00 -9.246865e+00 8.023054e+00 -2.123824e+00 5.218707e+00 -6.877894e-01 -1.202339e+01 1.983542e+01 -1.448264e-01 1.336270e+00 -5.667050e-01 -1.455666e+00 -1.183224e-01 1.391507e+00 1.741426e+00 -4.851955e-01 4.395353e-01 3.751798e+00 -1.412224e+00 -2.387771e+00 1.167316e-02 -3.403472e-01 2.377996e-01 -1.921165e-01 -4.093572e-01 1.118027e-01 2.351222e-01 5.883689e-01 -1.727766e-01 -4.482154e-01 4.489886e-01 -2.506713e-01 -4.704138e-01 5.421015e-02 
1.744706e+00 -1.017821e+01 -7.861202e+00 -1.191810e+01 -1.052692e+01 -5.886153e+00 -3.336977e+00 9.601241e+00 -6.821733e+00 1.347597e+01 -6.531241e+00 -1.689635e+01 2.036217e+01 8.765340e-02 4.641586e-01 -1.415062e+00 -2.624206e+00 2.679732e-01 1.284143e+00 2.159817e+00 1.537459e+00 -1.454988e-01 3.742226e+00 -7.968185e-01 -2.974278e+00 1.166418e-01 -1.182033e-01 -2.354984e-01 -3.717583e-02 -1.205542e-01 1.031077e-01 -9.316976e-02 1.918616e-01 3.168225e-01 -3.875515e-01 -1.867439e-01 2.843090e-01 1.486386e-02 4.803945e-02 
1.303407e+00 -7.741374e+00 -6.838017e+00 -1.152832e+01 -1.097026e+01 -4.724921e+00 -2.856647e-01 9.571940e+00 -6.913271e+00 1.554992e+01 -2.941031e+00 -1.819960e+01 2.034586e+01 -1.227022e-01 2.058460e-01 9.777288e-02 -9.247028e-01 2.534093e-01 7.989694e-01 2.097371e+00 3.068472e-01 -9.670431e-01 2.273639e+00 -9.162726e-02 -1.365569e+00 1.004570e-01 -1.661070e-02 -2.519160e-01 2.841791e-01 2.761429e-01 7.288994e-02 -1.670248e-01 6.494458e-02 3.534735e-02 -3.634701e-01 -4.424905e-01 3.346385e-01 3.653112e-01 1.613829e-02 
