-2.526116e+00 3.721505e+00 -2.596965e+00 -3.123486e+00 -1.401840e+01 -9.180015e+00 -4.269975e+00 -2.649251e+00 -9.760668e+00 -1.237018e+01 -1.406800e+01 -5.476582e+00 2.009002e+01 -1.324950e-01 -8.683203e-01 -2.373333e-01 7.150229e-01 4.363497e-01 3.511422e-01 -6.028618e-01 -1.022148e+00 -1.607424e-01 6.647825e-02 1.526613e-01 -1.621279e+00 1.567179e-01 -7.679424e-02 3.082770e-01 -5.303745e-01 -1.666155e+00 1.713357e-01 -5.068474e-01 1.481264e-01 -6.850783e-02 -2.242471e-01 5.970677e-01 4.990158e-01 1.667547e+00 1.239329e-01 
-1.626283e+00 2.122427e+00 -4.801152e+00 3.347290e-01 -1.124945e+01 -8.413025e+00 -4.651377e+00 -6.359018e+00 -1.053997e+01 -1.590485e+01 -1.088097e+01 -7.981583e+00 2.022623e+01 -2.381105e-01 -5.321966e-01 -9.998680e-01 -2.431372e+00 5.320587e-01 -4.849702e-01 -8.361250e-01 -9.635376e-01 -5.773212e-01 1.268210e+00 1.183148e+00 1.322329e+00 4.307007e-01 -6.025098e-02 3.991929e-01 -7.187731e-01 -2.041541e+00 3.549498e-01 -7.598300e-01 4.837973e-01 -2.328778e-01 -4.468839e-01 8.107080e-01 7.424707e-01 2.531353e+00 1.483057e-01 
-3.638507e+00 1.794422e-01 -2.681538e+00 -1.277478e+00 -1.322113e+01 -7.807798e+00 -7.093583e+00 -5.905107e+00 -1.017473e+01 -1.027046e+01 -1.489821e+01 -1.233048e+01 2.080551e+01 -4.636585e-01 5.050024e-01 -2.507938e+00 -6.042557e+00 1.245174e+00 -1.765038e+00 2.544018e-01 -1.393992e+00 -1.073688e+00 2.450951e+00 2.132497e+00 5.244653e+00 6.393911e-01 1.194114e-01 2.161425e-01 -6.668537e-01 -1.224905e+00 4.624864e-01 -5.153378e-01 3.219033e-01 -3.724773e-01 -7.612312e-01 6.438287e-01 1.149007e+00 2.103661e+00 7.839997e-02 
-3.160472e+00 2.831553e+00 -7.554018e+00 -1.620335e+01 -1.175675e+01 -1.229097e+01 -7.038795e+00 -5.839011e+00 -1.244024e+01 -7.078995e+00 -7.737162e+00 4.562011e+00 2.188578e+01 -2.681682e-01 4.409828e-01 -2.695896e+00 -6.113893e+00 1.806687e+00 -2.389917e+00 1.387493e+00 -2.000615e+00 -1.938689e+00 2.927782e+00 2.875097e+00 7.602518e+00 6.569099e-01 3.311955e-01 -2.404393e-01 -1.064269e-01 9.699287e-01 4.960762e-01 5.288109e-02 -5.714096e-01 -1.787216e-01 -4.849467e-01 1.011848e-01 9.367056e-01 -3.639970e-01 -9.359066e-02 
-4.077314e+00 5.891954e+00 -1.376022e+01 -2.506723e+01 -7.538887e+00 -1.606623e+01 -1.804256e+00 -9.879215e+00 -1.417897e+01 -4.528350e+00 -4.977425e+00 1.447489e+01 2.245720e+01 4.795909e-01 -2.741974e-01 -2.723588e+00 -3.568244e+00 2.111467e+00 -1.273073e+00 -1.051540e-01 -2.365996e+00 -3.286214e+00 2.455836e+00 5.051722e+00 5.756929e+00 4.356131e-01 4.684989e-01 -5.425145e-01 7.189020e-01 2.746666e+00 1.953704e-01 8.302139e-01 -1.433681e+00 2.054211e-01 2.369353e-01 -1.891687e-01 5.362592e-02 -2.728500e+00 -2.546342e-01 
-2.747720e+00 1.471085e+00 -1.274129e+01 -1.833986e+01 -5.057137e+00 -1.623339e+01 -3.585762e-01 -1.437504e+01 -1.823129e+01 -4.136990e+00 -1.465880e+00 1.662832e+01 2.268493e+01 9.462422e-01 -1.344793e+00 -1.424178e+00 1.181115e+00 2.579293e+00 -4.665475e-01 -3.513395e+00 -1.371144e+00 -1.895792e+00 1.771692e+00 4.407063e+00 -7.537943e-01 6.463642e-02 1.834913e-01 -1.464543e-01 9.764435e-01 2.660137e+00 -3.225389e-01 1.065140e+00 -1.171639e+00 3.520946e-01 1.086657e+00 -5.341039e-01 -9.231778e-01 -3.505681e+00 -3.072528e-01 
-1.446929e+00 -5.113106e-01 -1.370584e+01 -1.805045e+01 -6.013601e+00 -1.220195e+01 -1.095946e+01 -1.346707e+01 -2.371028e+01 5.377164e-01 7.224752e+00 1.042101e+01 2.258400e+01 1.271631e+00 -1.314682e+00 4.507125e-01 4.043272e+00 1.835723e+00 1.424346e+00 -4.463557e+00 -6.816223e-01 8.953972e-02 2.083153e+00 1.634644e+00 -4.219690e+00 -3.376432e-01 -3.756713e-01 4.915377e-01 8.503561e-01 1.412836e+00 -8.398841e-01 3.699076e-01 3.237423e-01 -1.578425e-01 1.530487e+00 -9.888488e-01 -1.489704e+00 -2.168971e+00 -2.153223e-01 
2.555462e-01 -6.907805e-01 -1.470210e+01 -1.380616e+01 3.770761e-01 -1.655585e+01 -2.002817e+01 -1.090080e+01 -1.715355e+01 -7.535698e-01 8.197068e+00 2.819976e+00 2.214557e+01 2.532682e-01 2.289536e-01 5.991715e-01 3.381035e+00 3.318647e-01 1.587073e+00 -2.291500e+00 -1.082329e+00 1.806717e+00 4.436038e-01 -3.225298e-02 -4.937577e+00 -4.927259e-01 -7.849166e-01 8.036310e-01 4.623400e-01 -3.179947e-01 -1.296793e+00 -1.102178e-01 1.707603e+00 -7.726979e-01 1.186265e+00 -1.372211e+00 -7.796062e-01 7.873003e-02 -4.163519e-02 
7.792074e-01 3.994763e-01 -1.052626e+01 -7.117719e+00 -1.077379e+00 -8.783274e+00 -1.428725e+01 -1.502445e+01 -1.427014e+01 4.195707e+00 -1.635681e+00 2.806101e-01 2.103867e+01 -1.052279e+00 1.396617e+00 5.165182e-01 2.395975e+00 -9.642390e-01 -4.503451e-01 9.026100e-01 -3.299616e+00 2.514966e+00 -1.824364e+00 -1.771396e-01 -2.996034e+00 -3.623173e-01 -9.230016e-01 6.239083e-01 1.351608e-02 -1.291132e+00 -8.794701e-01 -8.726901e-01 1.683533e+00 -7.693863e-01 5.843912e-01 -1.410627e+00 1.451946e-01 1.209794e+00 1.086847e-01 
-2.594448e+00 2.160460e+00 -1.133522e+01 -6.901046e+00 -5.865925e+00 -1.000737e+01 -1.015218e+01 -1.900800e+01 -1.391777e+01 -3.747966e+00 2.803072e+00 -2.989363e+00 2.099397e+01 -1.816386e+00 1.317712e+00 8.546189e-01 4.147900e-01 -2.504690e+00 -8.029099e-02 2.341537e+00 -3.925636e+00 2.822817e+00 -3.135603e+00 1.414924e+00 -9.719719e-01 -1.312025e-01 -4.919577e-01 -7.256989e-02 5.715464e-02 -1.060324e+00 -1.376340e-02 -7.485052e-01 6.421735e-01 -8.508265e-02 3.129785e-01 -4.290309e-01 6.988809e-02 1.597913e+00 1.246879e-01 
-5.283326e+00 5.046156e+00 -1.280669e+01 -9.523131e+00 -7.713296e+00 -1.772792e+01 -1.138441e+01 -2.591155e+01 -1.275333e+01 -7.086905e+00 9.036053e+00 -1.654490e+00 2.134821e+01 -2.308550e+00 1.260480e+00 3.905692e-01 -9.292637e-01 -1.143351e+00 -2.105422e+00 1.637592e+00 -3.106900e+00 2.503446e+00 -3.180381e+00 1.637028e+00 -1.535243e-01 2.501869e-02 -1.172577e-01 -5.483404e-01 2.528580e-01 -3.952863e-01 6.194865e-01 -3.461989e-02 -8.846603e-02 1.086251e+00 -1.667662e-02 6.918856e-01 -4.555215e-01 9.209350e-01 3.100776e-02 
-5.795117e+00 3.574439e+00 -9.288791e+00 -1.052951e+01 -8.828415e+00 -1.248498e+01 -9.771907e+00 -2.508543e+01 -3.797874e+00 -1.079028e+01 9.935820e+00 -1.072333e+00 2.133479e+01 -1.578385e+00 -6.582732e-02 9.479192e-01 -2.579660e-01 3.526035e-01 -1.327915e+00 5.518768e-01 -1.604100e+00 3.377370e+00 -1.023542e+00 -5.898965e-01 1.630735e+00 -6.295452e-02 -1.006406e-01 -5.317281e-01 2.956663e-01 3.560790e-01 1.032005e+00 1.686703e-01 -1.654281e-01 1.543497e+00 -4.459666e-01 1.282387e+00 -8.596188e-01 2.942315e-01 -7.231759e-02 
-9.163207e+00 5.994888e+00 -9.596627e+00 -9.949806e+00 -5.312888e+00 -1.807158e+01 -6.289425e+00 -2.752023e+01 -6.812866e+00 -8.185040e+00 2.983088e+00 -1.445526e+00 2.099335e+01 -1.757568e+00 -6.533152e-01 1.734158e+00 7.559218e-01 7.045467e-01 3.673554e-04 1.355110e+00 9.708713e-01 2.154307e+00 5.790337e-01 -1.452337e+00 3.072876e-01 -2.414024e-01 -3.233772e-01 -5.016326e-01 4.365832e-01 5.796006e-01 6.999283e-01 7.430230e-01 2.418802e-01 1.813470e+00 -3.933005e-01 1.214522e+00 -3.672643e-01 1.514236e-01 -1.080933e-01 
-8.546430e+00 1.356957e+00 -8.200658e+00 -7.977539e+00 -5.303112e+00 -1.647511e+01 -9.940288e+00 -2.622416e+01 -1.155077e-03 -8.316610e+00 2.880072e+00 5.059829e+00 2.085662e+01 -2.595080e+00 -3.840308e-01 1.661156e+00 1.352592e+00 1.731389e+00 -2.898346e-01 1.655637e+00 1.752964e+00 7.675536e-01 1.396628e+00 -1.338488e+00 2.687797e-01 -3.595799e-01 -7.285414e-01 -1.571966e-01 1.921275e-01 1.466821e-01 1.483720e-01 4.420716e-01 7.218975e-01 1.386147e+00 -7.045578e-01 3.787305e-01 4.785457e-02 9.992708e-02 -6.332350e-02 
-1.269551e+01 2.888321e+00 -4.679965e+00 -7.019507e+00 -5.953214e+00 -1.573102e+01 -4.524666e+00 -2.048783e+01 -3.880158e+00 -5.428570e+00 5.302242e+00 -3.184133e+00 2.038028e+01 -3.417088e+00 -1.088581e+00 2.216867e+00 1.163460e+00 1.666898e+00 1.090652e+00 2.295113e+00 4.281919e+00 1.841851e+00 1.682145e+00 1.750029e-01 1.284571e+00 -3.671350e-01 -6.283345e-01 -7.682712e-02 -6.149741e-02 -3.000173e-01 -2.892109e-01 3.968112e-01 4.004048e-01 6.468571e-01 -2.657785e-01 -3.923524e-01 7.471357e-02 5.342904e-01 2.877140e-02 
-1.700437e+01 3.207568e+00 -3.441343e+00 -5.231696e+00 1.486929e-01 -1.510444e+01 -2.376100e+00 -1.983681e+01 -1.426459e+00 -5.185374e+00 2.083802e+00 1.140869e+00 1.984342e+01 -4.391331e+00 -6.341773e-01 1.667202e+00 2.716751e-01 6.132877e-01 3.373008e-01 3.691363e+00 3.671111e+00 1.080898e-02 3.185546e-01 -1.164294e+00 1.641728e+00 -3.167057e-01 -1.096409e-01 1.165343e-01 -1.304787e-01 -3.724036e-01 -6.530505e-01 7.539602e-01 4.000804e-01 1.151505e-01 -2.143415e-01 -9.678572e-01 1.155447e-01 2.223933e-01 1.072070e-01 
-2.201968e+01 -3.733237e-01 -8.919513e-01 -5.505426e+00 2.956999e-01 -1.330366e+01 1.404044e+00 -9.304310e+00 3.109042e+00 -1.339933e+00 4.256237e+00 6.936811e+00 1.966428e+01 -4.001115e+00 -9.123775e-01 1.423648e+00 -2.037057e-01 -1.824572e-01 1.670856e+00 2.339271e+00 3.246084e+00 1.203787e+00 -8.436917e-01 -1.165866e+00 2.292265e+00 -1.189825e-01 5.136474e-01 5.159799e-01 -4.746789e-01 -2.021759e-01 -5.165957e-01 8.252880e-01 9.610955e-02 -7.194766e-01 -3.499256e-01 -1.051344e+00 1.989644e-02 -7.270896e-01 1.432609e-01 
-2.584100e+01 -1.831070e-01 -1.758652e+00 -7.376204e+00 -5.361130e+00 -1.600229e+01 5.552172e+00 -1.346037e+01 -3.441710e+00 -8.768156e+00 -2.418393e+00 8.207998e+00 1.963110e+01 -2.851271e+00 1.105388e-01 1.405372e+00 1.741574e-01 -6.091865e-01 3.189865e+00 3.633960e+00 2.846634e+00 1.487820e-02 -2.179739e+00 -9.033015e-02 8.768991e-01 5.237865e-02 9.516113e-01 6.325388e-01 -5.802895e-01 4.608272e-03 -1.839267e-01 7.386796e-01 -6.587769e-01 -7.137519e-01 1.011433e-01 -1.436773e-01 5.586757e-01 -1.226248e+00 1.361372e-01 
-2.828277e+01 2.177128e-02 1.596928e+00 -6.965782e+00 -4.110589e+00 -6.927813e+00 3.207552e+00 -7.445632e+00 3.146402e+00 -7.855638e+00 1.724009e+00 4.743629e+00 1.989153e+01 -1.618881e+00 1.118960e+00 -2.561250e-02 2.013396e-01 -3.048431e-01 3.790810e+00 2.804362e+00 1.096774e+00 9.018850e-02 -2.325429e+00 -2.624967e-01 -1.968462e+00 1.646271e-01 9.835803e-01 4.864816e-01 -8.175423e-01 4.596023e-02 7.638811e-02 5.835519e-02 -1.249828e+00 -8.164607e-01 -6.586604e-02 5.815317e-01 3.712468e-01 -1.334257e+00 7.688297e-02 
-2.812918e+01 3.562715e+00 2.341077e+00 -3.630731e+00 -6.940950e-01 -2.343036e+00 1.489194e+01 -6.532973e+00 -1.370748e+00 -1.282622e+01 2.898266e+00 6.621955e+00 1.999169e+01 -8.243917e-01 1.512848e+00 -5.096149e-01 9.219375e-02 -2.451531e-01 2.970721e+00 1.649331e-01 1.177006e+00 1.073325e+00 3.410366e-01 1.177400e+00 -2.359147e+00 2.221754e-01 7.491105e-01 -2.400921e-01 -6.007001e-01 3.357230e-02 1.224980e-01 -6.259707e-01 -2.286992e+00 -7.349284e-01 8.491902e-02 1.313070e+00 7.040183e-02 -4.969683e-01 -3.541108e-03 
-2.897000e+01 3.348566e+00 -3.069878e+00 -6.371465e+00 -3.562033e+00 -1.179232e+00 1.075597e+01 -7.284135e+00 2.524503e+00 -1.093805e+01 2.854243e-01 -2.112479e+00 2.030712e+01 -9.665279e-02 8.188761e-01 -1.706570e+00 6.707723e-02 1.746663e-02 2.072203e+00 -2.175356e+00 -1.405668e-03 3.452334e-01 8.035789e-01 5.650251e-02 -2.760999e+00 1.805340e-01 7.774714e-01 -7.438806e-01 9.655546e-02 6.995136e-02 -2.170752e-01 -1.190785e+00 -1.990865e+00 -4.024815e-01 -2.117949e-01 1.002177e+00 -1.756856e-01 5.668148e-01 -6.266359e-02 
-2.961934e+01 5.717734e+00 -1.973323e+00 -7.212394e+00 -6.861174e+00 -4.022974e+00 2.602630e+00 -7.656085e+00 2.235863e+00 -5.521769e+00 4.187901e+00 -1.596813e-01 2.053418e+01 1.331673e-01 -9.398799e-01 -7.576499e-01 4.091501e-01 -1.578514e-01 9.193149e-01 -5.311140e+00 -2.789174e-01 3.119508e-01 2.821107e+00 1.021794e-01 -1.211674e+00 2.671967e-02 1.296202e+00 -1.216698e+00 4.006903e-01 -3.640406e-01 -1.149202e+00 -1.841639e+00 -1.049095e+00 -5.186001e-01 -7.917418e-01 -1.801639e-01 -1.083596e+00 7.339074e-01 -1.814081e-02 
-2.802095e+01 3.038642e+00 -4.778724e+00 -4.839564e+00 -9.397162e-01 4.273172e+00 -1.524572e+00 -6.891105e+00 3.069264e+00 -7.489969e+00 1.361704e+00 -5.670549e+00 2.052296e+01 1.789696e+00 -1.374079e+00 5.811823e-01 3.926182e-01 -1.433870e+00 -1.137413e+00 -4.411924e+00 -1.876712e-01 -5.880991e-01 1.445423e+00 -6.033141e-01 2.918751e-01 -5.096302e-02 1.601038e+00 -1.301115e+00 7.911114e-01 -9.516577e-01 -1.857348e+00 -2.404662e+00 2.285129e-01 -1.174845e-02 -7.866744e-01 -6.369866e-01 -1.118004e+00 9.131476e-01 1.013252e-01 
-2.793786e+01 -9.817229e-01 -5.927497e-01 -2.350931e+00 -2.794510e+00 -4.726644e-01 -5.523487e+00 -8.124075e+00 -8.337412e-02 -4.447244e-01 2.871023e+00 2.342622e+00 2.001737e+01 4.713444e+00 -3.474166e+00 3.499603e-01 -1.890780e+00 -5.265495e+00 -4.632667e+00 -3.962256e+00 -1.322862e+00 -2.418718e+00 -8.807047e-01 -3.910674e+00 -2.160470e-01 2.472198e-01 1.297551e+00 -1.033197e+00 5.975863e-01 -1.312508e+00 -1.544830e+00 -1.836509e+00 1.430940e+00 6.676570e-01 -3.697738e-01 -9.956614e-01 -7.977740e-01 2.567025e-01 2.076633e-01 
-2.086225e+01 -1.721004e-01 -8.542539e-01 -6.839105e+00 -1.276471e+01 -8.641452e+00 -7.240596e+00 -7.988496e+00 7.436263e-01 -6.249456e+00 -2.072707e+00 -1.904255e+00 2.031071e+01 5.618398e+00 -4.419557e+00 1.695181e+00 -3.541246e+00 -6.715454e+00 -7.175115e+00 -1.707234e+00 4.618242e-01 -2.222804e+00 -5.304484e-01 -3.527091e+00 1.306925e+00 5.769098e-01 -2.275007e-02 -6.688236e-01 3.885864e-01 -8.103250e-01 -3.041639e-01 -2.633438e-01 1.720341e+00 1.286096e+00 5.090531e-01 -3.177666e-01 2.996549e-01 -1.117214e-01 1.737346e-01 
-9.631473e+00 -1.004772e+01 -2.185757e+00 -1.566652e+01 -2.727615e+01 -2.072900e+01 -1.435064e+01 -1.372170e+01 -8.694909e+00 -1.054555e+01 -1.364826e+01 -3.123063e+00 2.187640e+01 4.706572e+00 -4.583128e+00 1.673282e+00 -4.186458e+00 -5.241210e+00 -5.244378e+00 4.912151e-01 2.734620e+00 -7.195659e-01 -1.169265e+00 -2.424802e+00 -4.356863e-01 7.510998e-01 -1.505994e+00 4.387509e-01 2.512693e-01 5.816476e-01 1.080402e+00 1.691656e+00 1.765800e+00 1.588736e+00 1.519194e+00 5.812055e-01 1.915851e+00 -2.095898e-01 -1.446463e-02 
-9.082152e+00 -1.452614e+01 4.493686e+00 -1.588800e+01 -2.227617e+01 -2.147424e+01 -5.647166e+00 -1.783172e+00 -3.738989e+00 -5.091799e+00 -8.014107e+00 3.596920e+00 2.247799e+01 1.679382e+00 -4.163716e+00 1.862453e+00 -2.511168e+00 -2.966831e+00 -2.148277e+00 1.963045e+00 4.214068e+00 1.107590e+00 8.695126e-04 1.520246e-01 -1.569122e-01 5.657700e-01 -1.757845e+00 1.083804e+00 -2.117574e-01 1.546420e+00 1.237757e+00 2.765047e+00 6.478912e-01 5.630636e-01 1.338788e+00 7.479092e-01 2.020793e+00 -3.722505e-01 -1.781873e-01 
-1.029506e+01 -1.672034e+01 5.099692e+00 -1.875878e+01 -2.424484e+01 -2.027816e+01 -3.864126e+00 2.446363e+00 -1.439896e+00 -6.869875e+00 -6.282287e+00 -2.586398e+00 2.268923e+01 -8.470186e-01 -1.408332e+00 1.522671e+00 5.024190e-01 -1.737795e+00 1.312194e+00 3.031604e+00 4.744697e+00 3.512054e+00 1.759664e+00 3.829022e+00 -5.320775e-01 1.804667e-01 -1.059184e+00 1.199890e+00 -2.688890e-01 1.746197e+00 1.082824e+00 2.405238e+00 -4.758733e-01 -6.065110e-01 2.767832e-01 8.106045e-01 1.323951e+00 4.278462e-01 -2.580487e-01 
-1.213355e+01 -1.765437e+01 4.815287e+00 -1.784882e+01 -2.911453e+01 -1.960826e+01 -2.668627e+00 4.997812e+00 2.654069e+00 -8.082945e+00 -4.995573e+00 -2.957149e+00 2.273314e+01 -3.940306e-01 -5.879329e-01 7.117001e-01 1.846414e+00 -2.278375e+00 3.371832e+00 2.620275e-01 2.272104e+00 2.355326e+00 1.744633e+00 3.449961e+00 -5.061317e-01 -2.870998e-02 -1.543033e-02 1.070602e+00 -3.060111e-01 1.101395e+00 1.223061e+00 1.344844e+00 -1.167742e+00 -1.300515e+00 -9.780353e-01 3.092656e-01 -1.488798e-01 6.155087e-01 -2.510435e-01 
-1.234087e+01 -1.552527e+01 5.266797e+00 -1.217402e+01 -3.254594e+01 -1.510102e+01 -6.818900e-01 6.611297e+00 5.668832e+00 -2.516573e-01 3.987578e+00 -2.506417e+00 2.265116e+01 4.473592e-01 -3.715715e-01 9.042137e-01 2.365734e+00 -1.713196e-01 4.021756e+00 -1.037643e+00 6.730472e-01 4.048200e-02 2.011876e+00 2.545987e+00 1.878154e+00 -2.419035e-01 4.356263e-01 8.472025e-01 -3.801385e-01 -6.321988e-02 1.623142e+00 -2.257705e-01 -1.505432e+00 -1.080494e+00 -1.544856e+00 -2.170846e-01 -1.533198e+00 6.532657e-01 -2.068236e-01 
-1.002940e+01 -1.806334e+01 7.968634e+00 -9.948306e+00 -2.951748e+01 -7.203646e+00 -5.928146e+00 7.494879e+00 4.483280e+00 3.222588e-01 4.100768e+00 1.026271e+00 2.235347e+01 9.550414e-01 6.709142e-01 6.416261e-01 2.064149e+00 2.365236e+00 3.221160e+00 -1.841043e+00 -2.526839e-01 -2.046801e+00 1.421091e+00 4.914341e-02 1.715515e+00 -4.782623e-01 1.368225e-01 1.116963e+00 -5.174416e-01 -7.860482e-01 1.550076e+00 -1.349553e+00 -1.039937e+00 -7.654922e-02 -5.773360e-01 -2.614081e-01 -1.581943e+00 2.230541e-01 -1.447435e-01 
-9.110335e+00 -1.837371e+01 8.044086e+00 -1.088036e+01 -2.489996e+01 -6.371685e+00 -7.422580e+00 4.563065e+00 -2.152091e+00 -1.013099e+00 1.899476e+00 4.812664e+00 2.166955e+01 6.565768e-01 2.198257e+00 -3.429844e-01 7.745238e-02 4.056112e+00 2.586777e-01 -3.444023e+00 6.046222e-01 -2.011162e+00 8.360118e-01 -2.136558e+00 1.623427e+00 -6.288751e-01 -7.603034e-02 1.021995e+00 -6.277257e-01 -1.047947e+00 6.012515e-01 -1.522506e+00 -6.984848e-01 4.153538e-01 7.309622e-01 -2.118235e-01 -9.407738e-01 -6.186881e-01 -2.846857e-02 
-8.973610e+00 -1.287558e+01 6.634772e+00 -8.174902e+00 -2.111134e+01 -7.867123e+00 -8.503497e+00 4.758508e+00 -3.669473e+00 -5.967677e-01 -3.705805e+00 1.960887e+00 2.083264e+01 1.854732e-01 3.711965e+00 -1.251909e+00 -9.396858e-01 3.358292e+00 -1.494394e+00 -3.734465e+00 1.923570e+00 4.944682e-01 1.025525e+00 -2.118481e+00 7.365025e-01 -5.589415e-01 -6.252132e-02 3.712701e-01 -3.480037e-01 -7.992355e-01 -4.432636e-01 -7.980405e-01 -8.225727e-03 2.428681e-01 1.311647e+00 -5.246923e-02 1.431988e-01 -8.903872e-01 8.891310e-02 
-9.585877e+00 -7.127862e+00 4.218805e+00 -1.267346e+01 -1.646846e+01 -1.347589e+01 -1.661433e+01 1.100259e+01 -3.106011e-01 4.387915e+00 -2.791926e+00 5.143412e+00 2.026720e+01 4.519916e-01 3.217878e+00 -1.287647e+00 -1.372081e+00 2.338410e+00 -1.232997e+00 -3.583356e+00 1.661689e+00 2.424659e+00 1.150541e+00 -1.074070e+00 -7.257797e-01 -3.439068e-01 4.464544e-02 -4.175001e-01 1.491939e-01 -2.089899e-01 -1.075377e+00 1.109598e-01 9.678733e-01 -6.507215e-01 5.943902e-01 -1.536580e-01 5.694805e-01 -1.068971e+00 1.223173e-01 
-8.864263e+00 -5.126442e+00 3.621730e+00 -1.375019e+01 -1.694177e+01 -1.112351e+01 -2.000459e+01 1.389296e+01 6.034875e+00 2.749376e+00 -4.145939e+00 4.543409e+00 2.025994e+01 7.447274e-01 2.017454e+00 -6.260611e-01 -1.207262e+00 1.007769e+00 -2.320519e-02 -1.812505e+00 4.331234e-01 2.293525e+00 1.001480e+00 2.338931e-01 -1.561817e+00 -1.761810e-01 5.404010e-03 -6.762391e-01 4.408612e-01 -1.190152e-01 -7.373515e-01 2.482998e-01 1.663695e+00 -1.370507e+00 -9.126336e-01 -1.684831e-02 3.764429e-01 -7.944841e-01 5.019234e-02 
-6.905051e+00 -6.158889e+00 3.112371e+00 -1.495313e+01 -1.529269e+01 -1.090847e+01 -1.958881e+01 8.304281e+00 5.119028e+00 3.066536e+00 -3.250805e+00 -1.074954e-01 2.023636e+01 6.001769e-01 9.580123e-01 9.006097e-02 -8.337091e-01 -1.455128e-01 7.788267e-02 4.343638e-01 -1.903762e+00 6.126065e-02 7.974386e-02 -4.653431e-01 -2.572268e+00 -2.086689e-01 -1.952969e-01 -5.678345e-01 3.326572e-01 9.216370e-02 -3.111386e-01 5.453347e-02 1.667593e+00 -1.285190e+00 -1.481063e+00 8.104147e-02 -8.409370e-02 2.049540e-01 -2.969004e-02 
-6.590386e+00 -3.272792e+00 4.057684e+00 -1.307138e+01 -1.666038e+01 -9.266857e+00 -1.607878e+01 8.273281e+00 5.083338e+00 5.071323e+00 -2.306900e+00 -3.222743e+00 1.996715e+01 1.384006e-01 1.460703e+00 2.635432e-01 -1.803948e+00 9.134961e-01 -9.083341e-01 2.575149e+00 -3.146240e+00 -2.887001e+00 1.476682e+00 -5.406300e-01 -2.312674e+00 -3.755987e-01 -2.640991e-01 -7.928079e-01 -2.543580e-01 2.720066e-01 -3.736418e-02 1.640275e-01 1.139159e+00 -3.602452e-01 -5.943882e-01 -2.886285e-01 -7.868419e-01 1.108118e+00 -3.035513e-02 
-7.721931e+00 -3.264626e+00 4.451133e+00 -1.718141e+01 -1.733672e+01 -1.401480e+01 -1.640542e+01 4.293623e+00 4.714707e-01 3.625660e+00 -6.038161e+00 -3.834851e+00 1.937025e+01 -2.213297e-01 6.570818e-01 -6.916342e-02 -6.129199e-01 8.298532e-01 -5.177649e-01 2.560784e+00 -2.974577e+00 -2.390396e+00 1.318148e+00 -1.107277e+00 6.744189e-01 -3.926481e-01 -1.348161e-01 -1.084132e+00 -8.569437e-01 8.489059e-01 -4.928744e-02 8.072149e-01 6.658880e-01 8.165621e-01 9.193193e-01 -1.145707e+00 -1.016920e+00 1.395766e+00 4.624977e-02 
-7.763819e+00 7.299389e-01 4.270065e+00 -2.165578e+01 -1.135228e+01 -1.411201e+01 -8.720547e+00 1.670914e-01 -6.076350e+00 9.853225e+00 -5.455411e+00 -5.156285e+00 1.881500e+01 -1.650149e-01 -1.796120e+00 -1.818239e+00 4.237642e-02 3.332652e-01 1.094756e+00 2.820079e+00 -8.326950e-01 5.474122e-01 -1.060864e+00 -3.379349e+00 2.355428e+00 -2.359671e-01 -1.026194e-01 -9.248151e-01 -1.073550e+00 1.181289e+00 -4.103840e-01 1.141892e+00 3.537286e-01 1.320459e+00 1.452159e+00 -1.578753e+00 -1.164914e+00 7.682922e-01 1.057715e-01 
-7.424983e+00 -4.874845e+00 2.660363e+00 -1.372552e+01 -1.379747e+01 -1.107472e+01 -1.046401e+01 -2.515509e+00 -1.253106e+00 7.266325e+00 -7.212932e+00 4.231370e+00 1.884920e+01 7.780437e-02 -2.834238e+00 -3.153767e+00 2.487658e+00 -1.018345e-01 3.112412e+00 3.641338e+00 1.022275e+00 2.940650e+00 -4.380019e+00 -4.130582e+00 2.072509e+00 -4.723587e-02 -9.384253e-02 1.262608e-01 -5.945422e-01 6.599418e-01 -2.807955e-01 6.876090e-01 4.962149e-01 6.449763e-01 7.018377e-01 -8.505448e-01 -4.423679e-01 -3.120373e-01 5.366322e-02 
-7.563935e+00 -1.144828e+01 -4.138125e+00 -1.458744e+01 -1.676367e+01 -5.263119e+00 -4.949093e+00 7.514372e+00 8.682688e+00 -2.053331e+00 -1.861626e+01 4.521287e+00 1.904784e+01 -5.242636e-01 -1.417713e+00 -3.561905e+00 2.552210e+00 -6.725802e-01 2.986036e+00 3.803515e+00 1.457626e+00 1.708269e+00 -3.568001e+00 -4.853548e+00 8.297421e-01 -1.944714e-02 -9.235382e-02 1.035134e+00 2.198805e-01 1.233367e-01 3.788109e-01 -1.090727e-01 -1.895900e-02 -6.858420e-01 -5.150707e-01 5.147499e-01 9.360235e-01 -6.150060e-01 -5.167881e-02 
-7.432852e+00 -1.134670e+01 -7.113605e+00 -8.277291e+00 -1.514019e+01 -2.877192e+00 -8.445203e-02 5.731359e+00 7.795204e+00 -1.232116e+01 -2.011064e+01 1.688907e+00 1.901765e+01 -5.109180e-01 1.099182e+00 -2.170042e+00 1.431872e+00 -7.120152e-02 1.974640e+00 4.550140e+00 -8.948563e-01 5.383645e-01 -1.681008e+00 -2.582017e+00 -1.229245e-01 -2.325920e-01 7.717470e-02 8.942310e-01 7.606400e-01 -3.879337e-01 6.845427e-01 -7.240189e-01 -7.729552e-01 -1.212637e+00 -1.102558e+00 1.275897e+00 1.335967e+00 -4.516385e-01 -1.069232e-01 
-1.038120e+01 -3.122699e+00 -8.652476e+00 -1.161885e+01 -1.404382e+01 -3.280600e+00 5.107249e+00 3.331789e+00 -2.059159e+00 1.806959e+00 -2.327429e+01 2.636569e-01 1.863354e+01 -3.324228e-01 1.412839e+00 -1.210699e+00 1.186953e+00 2.212003e+00 1.118279e+00 2.270883e+00 -3.303339e+00 -8.267981e-01 1.633794e-01 5.264856e-01 3.781149e-01 -4.016830e-01 2.573112e-01 -7.566452e-04 9.455921e-01 5.107368e-02 4.955467e-01 -1.042318e+00 -1.336251e+00 -8.384043e-01 -5.352985e-01 9.033440e-01 1.294966e+00 -2.065603e-01 -7.262196e-02 
-8.570939e+00 -3.541725e+00 -5.932668e+00 -8.050454e+00 -1.551341e+01 -2.192779e+00 7.258522e+00 -4.898498e+00 6.809640e+00 -3.068860e+00 -1.779400e+01 5.745563e+00 1.789339e+01 3.677575e-01 2.216415e-01 -5.261699e-01 1.230618e+00 1.878587e+00 4.261960e-01 5.428780e-01 -2.660427e+00 -1.304607e+00 1.337764e-01 -1.407629e-01 4.012979e-02 -3.907341e-01 1.752485e-01 -3.841360e-01 6.812314e-01 6.238105e-02 -2.665498e-01 -1.029160e+00 -1.266298e+00 5.242950e-01 -2.757436e-01 6.907412e-01 5.488898e-01 -3.443833e-01 2.354923e-02 
-8.657005e+00 -8.286575e+00 -1.078209e+01 -8.766092e+00 -5.517050e+00 -1.393335e-02 2.733836e+00 -3.687397e+00 5.041480e+00 -5.862582e+00 -1.714215e+01 4.383534e+00 1.760156e+01 3.229547e-01 -9.827261e-01 3.441196e-01 2.908205e+00 8.302587e-01 -1.451330e+00 -8.741118e-01 -1.851610e+00 -4.673748e-02 4.132628e-02 4.006573e-01 -2.845865e-01 -3.034859e-01 -4.943690e-02 2.579583e-02 4.293872e-01 -3.218516e-01 -8.910604e-01 -8.492455e-01 -2.790217e-01 1.391219e+00 1.571451e-01 4.542480e-01 1.975570e-01 -5.791553e-02 7.266271e-02 
-6.456163e+00 -7.656557e+00 -8.679648e+00 -3.550583e+00 -1.001064e+01 -2.379545e+00 3.816645e+00 -4.061182e+00 -2.278149e+00 -7.817504e+00 -2.388053e+01 -1.703828e-01 1.757997e+01 3.763552e-02 3.762850e-01 4.587060e-01 8.831514e-01 -7.130784e-01 -1.886357e+00 -2.088507e-01 1.000754e+00 -1.230384e+00 1.833725e+00 2.253460e-01 -1.513490e+00 -1.639444e-01 -3.058998e-01 5.310912e-01 7.492850e-02 -7.874413e-01 -2.760516e-01 -4.116898e-01 1.869200e-01 1.264127e+00 2.094992e-01 4.002222e-01 9.054881e-01 4.553032e-01 4.586659e-02 
-9.823817e+00 -5.978913e+00 -5.558388e+00 6.722388e-01 -1.264391e+01 -1.044387e+01 2.457628e+00 -6.344921e+00 2.251048e+00 4.387913e+00 -1.822775e+01 1.798697e+00 1.727282e+01 -4.145463e-01 1.464497e+00 4.437994e-01 -2.485719e-01 -9.474656e-01 -1.971673e+00 1.251639e+00 1.822164e+00 -7.818393e-02 1.584646e+00 1.331216e+00 8.653472e-01 -1.517643e-01 -4.301862e-01 7.649727e-01 -1.948268e-01 -1.133573e+00 6.960486e-01 1.936745e-01 2.944072e-01 7.036996e-01 -1.746884e-01 -1.801182e-01 1.207131e+00 7.317892e-01 2.908777e-02 
-7.799356e+00 -2.814131e+00 -6.250988e+00 -8.353863e+00 -1.551537e+01 -6.409595e+00 6.352372e+00 1.434035e+00 2.052936e+00 9.745157e-01 -1.612448e+01 -5.294694e-01 1.723804e+01 -7.929908e-01 1.653486e+00 -2.013673e-01 -1.128200e+00 1.387192e+00 -1.372082e+00 4.146025e-01 1.823319e+00 -2.413874e-01 1.363227e+00 3.921398e+00 1.741679e+00 -2.372620e-01 -7.056469e-01 5.590861e-01 -1.932594e-01 -4.766883e-01 1.324141e+00 4.989522e-02 -2.248096e-01 -4.225473e-01 -8.703043e-02 -3.358583e-01 1.296481e+00 4.986776e-01 4.154789e-02 
-1.005814e+01 -3.385304e+00 -9.777421e+00 -7.607312e+00 -7.502013e+00 -7.857274e+00 7.724168e+00 2.675815e+00 2.485017e+00 -2.335363e+00 -1.436410e+01 8.889813e+00 1.701370e+01 -1.412663e+00 2.203537e+00 -2.999777e-01 -1.753982e+00 3.260366e+00 -7.400947e-01 2.861974e-01 1.255605e+00 -1.414678e+00 -6.240163e-01 4.588287e+00 1.746775e+00 -1.213882e-01 -7.766633e-01 4.797381e-01 -4.213419e-02 1.015144e-01 9.357251e-01 1.910182e-01 -2.970898e-01 -9.201350e-01 1.886698e-02 1.746681e-01 4.985063e-01 -5.854173e-01 9.107256e-02 
-1.030396e+01 -6.859301e-01 -7.576969e+00 -5.051806e+00 -5.645632e+00 -1.053325e+01 3.256387e+00 5.450469e-01 -3.602071e+00 2.360272e+00 -6.205360e+00 4.992454e+00 1.652322e+01 -2.991540e+00 2.802195e+00 -1.357027e-01 -7.475851e-01 3.803712e+00 -2.252670e+00 -8.501781e-01 -8.287030e-01 -9.972891e-01 1.258764e+00 5.079217e+00 5.391842e-01 2.860699e-02 -5.750602e-01 2.840725e-01 1.237578e-01 4.513990e-01 -7.275064e-02 4.459842e-01 3.528974e-01 -6.669423e-01 5.202899e-01 3.727129e-01 -5.930572e-01 -8.581998e-01 1.088434e-01 
-1.563483e+01 3.974671e+00 -6.395287e+00 -9.748699e+00 -1.276947e+00 -1.208251e+01 5.436608e+00 3.775986e-01 -1.994838e+00 5.749531e-01 -2.458692e-01 7.771610e+00 1.702329e+01 -3.198588e+00 3.288833e+00 2.002962e-01 6.869268e-02 2.522900e+00 -5.762880e-01 3.985806e-01 -1.452500e+00 3.941018e-01 2.510218e+00 3.244838e+00 -1.460492e+00 1.706640e-01 6.001963e-02 -3.903127e-01 7.609940e-02 6.934263e-01 -7.997016e-01 9.657905e-01 5.245436e-01 -9.593257e-02 7.081441e-01 3.399781e-01 -1.319066e+00 -5.917231e-01 1.881544e-02 
-1.996871e+01 7.516858e+00 -8.620569e+00 -1.102109e+01 3.906556e-01 -1.556032e+01 3.245261e+00 -1.560373e+00 -6.935816e-01 5.813177e+00 2.212494e+00 2.725554e+00 1.737628e+01 -2.775330e+00 2.531201e+00 1.672848e-01 2.174582e-01 1.392172e+00 7.759358e-01 2.122898e+00 -1.573398e-01 1.455672e+00 1.659675e+00 1.627837e+00 -9.456867e-01 1.609287e-01 8.562008e-01 -8.912618e-01 2.374464e-01 3.758224e-01 -9.637527e-01 1.112857e+00 1.195181e-01 4.768063e-01 2.196153e-01 -3.379441e-01 -1.648131e+00 6.918591e-02 -7.779245e-02 
-2.121870e+01 8.957466e+00 -8.254140e+00 -4.279204e+00 2.094341e+00 -8.225177e+00 9.722634e+00 -3.533975e+00 3.001282e+00 8.489275e+00 -2.348838e+00 2.720803e+00 1.744049e+01 -1.220670e+00 3.874707e-01 -7.097445e-02 1.230628e+00 4.676285e-01 2.574555e+00 1.422378e+00 4.402606e-01 8.995617e-01 8.754188e-01 -2.813513e-01 -4.694049e-01 -9.347191e-02 1.045669e+00 -9.707118e-01 3.065993e-01 -1.622479e-01 -6.348550e-01 2.310590e-01 -8.189894e-01 1.814510e-01 -4.675487e-01 -7.475840e-01 -1.286896e+00 3.597566e-01 -1.115056e-01 
-2.138867e+01 9.478676e+00 -5.811118e+00 -6.699263e+00 -3.704164e-01 -8.582239e+00 1.172786e+01 1.714135e+00 1.178231e+00 6.701484e+00 2.985307e+00 2.789423e+00 1.711926e+01 3.005051e-01 -2.034323e-01 1.187165e+00 5.505593e-01 1.258396e-02 1.736192e+00 -7.644861e-01 6.089484e-01 -1.519425e-01 3.864433e-01 -1.398344e+00 3.895702e-01 -2.282873e-01 7.473921e-01 -5.469529e-01 3.126266e-01 -1.855724e-01 -8.399089e-02 -1.905489e-01 -1.158837e+00 -3.811964e-01 -5.359215e-01 -4.838803e-01 -7.651557e-01 1.095298e-01 -6.499477e-02 
-2.102821e+01 4.931115e+00 -8.154884e+00 -5.756474e+00 1.441732e+00 -2.698780e+00 8.307195e+00 9.416481e-01 1.567064e+00 4.507893e+00 -2.039032e+00 5.392650e+00 1.668444e+01 4.918390e-01 -1.974095e-01 1.223353e+00 -9.090976e-01 3.841837e-02 9.887876e-02 -2.252674e+00 -9.283890e-01 -1.139834e+00 -5.910861e-01 -1.676553e+00 -3.293377e-01 -1.922562e-01 1.747826e-01 -3.862980e-02 1.080759e-01 -3.392194e-01 1.004662e-01 -5.006385e-01 -4.339537e-01 -2.630976e-01 -1.061303e-01 -1.296125e-01 1.760214e-01 -8.783343e-03 1.218553e-02 
-1.856143e+01 8.512872e+00 -2.734375e+00 -7.529663e+00 7.798801e-01 -9.642560e+00 1.305506e-01 -7.534419e-01 -7.361853e-01 9.736084e+00 -4.934131e+00 3.337481e+00 1.661287e+01 1.053764e-01 8.887653e-02 1.083254e+00 3.594591e-01 1.186823e+00 1.061030e+00 -1.833763e+00 -1.378997e+00 -2.042370e-01 -2.647424e-02 -1.500341e+00 -4.680711e-01 -1.146530e-01 -2.481118e-01 -2.057479e-01 -4.415335e-01 -2.080372e-01 -1.364497e-01 -1.704933e-01 4.378300e-01 1.005464e-01 3.422366e-01 -4.372368e-02 1.014819e+00 1.240433e-01 2.085291e-02 
-2.017313e+01 8.453321e+00 -3.675747e+00 -8.409492e+00 1.711285e+00 -7.200623e+00 4.257920e+00 -6.942132e+00 -1.740681e+00 4.016544e+00 -6.771883e+00 8.000857e-01 1.673241e+01 -2.491930e-01 4.816733e-02 5.213605e-01 -3.699187e-01 3.828403e-01 4.089436e-01 -2.127526e-01 1.187456e-01 3.950573e-01 4.338152e-01 6.497540e-01 -8.450098e-02 -8.936138e-02 -1.072451e-01 -2.956715e-01 -5.476754e-01 -3.589896e-02 -3.374512e-01 -1.957154e-01 3.772269e-01 5.231152e-01 1.946705e-01 1.835288e-01 1.063849e+00 5.091206e-01 -1.131815e-02 
-2.128933e+01 8.161956e+00 -2.634417e+00 -3.575459e+00 5.428920e+00 -1.026170e+00 4.583687e+00 -1.238961e+00 1.810919e+00 6.814787e+00 -2.149972e+00 2.745350e+00 1.652201e+01 -5.695381e-01 -1.354960e+00 -6.695069e-01 -7.592160e-01 -8.418753e-01 7.286935e-01 4.047032e-01 5.881131e-01 7.917948e-01 -3.446258e-01 2.512597e+00 8.873686e-01 -1.754702e-01 1.883199e-01 -1.626439e-01 -5.233588e-01 -3.023084e-01 -3.557240e-01 -3.886605e-01 1.994515e-01 3.384933e-01 -4.209951e-01 -8.311424e-02 3.765950e-01 2.287530e-01 -1.710131e-02 
-2.091022e+01 5.347410e+00 -5.598061e+00 -9.583170e+00 1.031413e+00 -4.962257e+00 5.016863e+00 1.778136e+00 2.268799e+00 8.137617e+00 -1.823409e-01 5.266211e+00 1.628306e+01 2.930708e-01 -9.538485e-01 -6.386435e-01 -5.292548e-01 -6.344889e-01 -7.135304e-01 -1.485773e+00 7.036315e-01 -6.644978e-01 4.856336e-01 1.636225e+00 1.538546e+00 -2.184383e-01 2.656463e-01 -2.453296e-02 -1.852689e-01 1.992034e-01 2.990951e-02 -3.790198e-02 2.132965e-01 -1.769774e-01 -4.024681e-01 -5.782205e-03 -3.909074e-01 -1.034728e-01 1.818062e-02 
-2.104058e+01 3.291025e+00 -5.120752e+00 -1.073890e+01 -3.089560e+00 -7.118275e+00 1.774595e+00 -2.173010e+00 1.218049e+00 5.952419e+00 4.334084e+00 5.541261e+00 1.596019e+01 7.758440e-01 -2.233353e-01 -9.535381e-01 -1.072415e+00 -8.313314e-02 -3.210358e-01 -1.999953e-01 2.102625e-02 -1.779435e+00 -4.679546e-01 -1.106017e-01 -1.358294e-01 -1.356211e-01 1.330490e-01 7.601999e-02 1.420653e-01 4.994904e-01 2.059518e-01 1.887665e-01 6.394018e-01 -2.304790e-01 1.017603e-01 3.450279e-01 -6.247082e-01 -2.833282e-01 6.779787e-02 
-1.883215e+01 6.119544e+00 -5.625797e+00 -7.474044e+00 2.798080e+00 -7.722222e+00 -1.766398e+00 -2.956950e+00 -4.766735e+00 6.875896e+00 -1.832787e+00 7.094860e+00 1.592113e+01 4.063473e-01 -6.403100e-01 -2.629686e-01 7.826978e-01 1.530168e-01 7.442984e-01 1.156079e+00 -4.825976e-01 -3.316682e-01 4.665686e-01 6.816387e-03 -9.026589e-02 -1.838284e-02 -2.204752e-01 -2.503198e-01 2.344277e-01 4.575371e-01 -1.886920e-01 3.526339e-01 9.681950e-01 -1.866347e-01 8.665239e-01 3.651440e-01 -7.482397e-03 -1.518705e-01 7.578494e-02 
-1.844914e+01 6.659213e+00 -7.388239e+00 -9.992098e+00 4.129920e+00 -1.251367e+00 6.975341e+00 1.233713e+00 -3.568487e+00 5.105875e+00 -1.877758e+00 1.151878e+00 1.602487e+01 3.906860e-02 -1.131630e+00 -1.470180e-01 1.082260e+00 -2.058689e-01 9.436115e-01 2.280786e+00 2.883296e-02 1.134181e+00 1.390046e+00 2.037605e-01 2.851335e-01 6.349144e-02 -3.280787e-01 -4.166920e-01 2.560750e-01 3.405412e-01 -4.536494e-01 1.149719e-01 5.588344e-01 -2.597910e-02 1.052448e+00 4.616399e-01 4.539282e-01 2.068061e-01 4.724152e-02 
-2.017420e+01 4.617658e-01 -5.779160e+00 -6.043084e+00 -1.813243e+00 -4.174219e+00 8.196885e+00 -2.338213e+00 3.003726e+00 1.089373e+01 2.957662e+00 7.009573e+00 1.615881e+01 -4.409172e-01 -1.751300e+00 1.302352e-01 6.810933e-01 -1.516581e+00 4.173153e-01 2.114811e+00 -2.334454e-01 2.211313e+00 1.382353e+00 1.441632e+00 5.687120e-01 6.093006e-02 -2.174515e-01 -2.841651e-01 1.063661e-01 -6.043755e-02 -4.649908e-01 -1.180262e-01 1.751489e-01 2.360263e-02 6.163095e-01 1.823875e-01 4.107502e-01 1.601534e-01 1.560644e-02 
