-8.023396e+00 3.374054e+00 -6.509879e+00 -2.571799e+00 -1.082071e+01 -4.531257e+00 -1.456794e+01 -3.464436e+00 6.862235e+00 2.427579e+00 -5.328328e+00 2.232538e+00 1.895572e+01 -2.239346e+00 -1.411352e+00 -1.593493e-01 1.481067e+00 5.712126e-01 -2.810975e-01 -1.272362e-01 -5.255407e-01 -1.372061e+00 8.661604e-01 1.018498e+00 9.515478e-01 -3.253208e-01 1.214838e-03 -1.103358e-01 -2.676731e-01 -1.434482e-01 2.404981e-01 3.561589e-01 2.743783e-01 4.451190e-01 5.922468e-01 -1.411072e-01 6.081650e-02 -4.688933e-01 -1.929865e-02 
-1.432955e+01 6.882541e-01 -4.716665e+00 2.431365e+00 -8.151499e+00 -2.723914e+00 -1.246675e+01 -4.702644e+00 4.053421e+00 2.429192e+00 -5.548143e+00 6.258119e+00 1.822439e+01 -2.655762e+00 -1.991460e+00 -1.062371e+00 1.416233e+00 1.178482e+00 3.786583e-02 -4.486498e-01 -1.749016e-01 -6.636752e-01 1.451776e+00 1.997833e+00 -5.534057e-01 -3.974856e-01 5.059668e-01 1.989334e-01 -3.789985e-02 -5.990160e-01 9.341140e-02 4.057110e-01 2.716616e-01 1.708814e-01 8.319351e-01 -5.111025e-01 -3.946320e-01 -5.753175e-01 4.092520e-02 
-1.606705e+01 -2.339804e+00 -8.203232e+00 2.331955e+00 -9.299249e+00 -6.840415e+00 -1.625472e+01 -5.473035e+00 1.406337e+00 6.757575e+00 -1.259328e-01 4.977488e+00 1.769478e+01 -2.025064e+00 -1.672977e+00 -1.046204e+00 7.962431e-01 1.470068e+00 1.340215e+00 1.405362e+00 1.524735e+00 1.234980e+00 -1.321832e-01 8.329124e-01 -6.404420e-01 -3.857317e-01 1.200268e+00 6.851318e-01 3.399921e-01 -1.081934e+00 -2.476198e-01 3.676210e-01 4.164306e-01 -3.347984e-01 7.628633e-01 -7.764980e-01 -9.376260e-01 -4.491218e-01 1.755517e-01 
-1.728038e+01 -3.726318e+00 -1.097506e+01 2.057488e+00 -5.689026e+00 -3.187348e+00 -1.596780e+01 -3.334644e+00 6.271808e+00 7.521460e+00 2.059638e+00 -1.906965e+00 1.759876e+01 1.833471e-01 -2.858723e-01 9.457884e-02 -1.171601e+00 5.888418e-01 9.368011e-01 4.647728e-01 -6.962717e-01 1.484094e+00 -1.190180e+00 -8.618702e-01 -1.129045e+00 -9.048939e-02 1.797175e+00 8.806305e-01 5.318269e-01 -1.219726e+00 -9.254225e-01 -1.580205e-02 3.211740e-01 -9.646326e-01 -1.350598e-02 -5.717863e-01 -8.032224e-01 -6.007244e-02 3.146029e-01 
-1.667330e+01 -2.783543e+00 -8.611703e+00 1.596356e+00 -4.701602e+00 2.401537e+00 -5.790608e+00 3.475239e+00 1.192794e+01 -7.794709e-01 -4.967657e+00 3.112870e+00 1.733988e+01 2.342437e+00 1.161513e+00 9.621361e-01 -2.634688e+00 -3.720661e-01 1.107540e+00 1.498206e+00 -1.938848e+00 1.368371e+00 -1.695351e+00 -2.239781e+00 -1.006241e+00 3.989397e-01 1.803891e+00 6.186960e-01 1.956113e-02 -9.083927e-01 -1.171907e+00 -5.639490e-01 -2.754993e-01 -1.218046e+00 -8.980619e-01 4.034441e-01 2.521024e-01 -1.617235e-01 3.616072e-01 
-1.310969e+01 -5.192384e-01 -4.039536e+00 -3.058841e+00 -7.506113e+00 -2.660885e+00 -1.537495e+01 -1.265814e+01 6.213090e+00 2.468140e-01 -7.436632e+00 1.545204e+00 1.794940e+01 4.146362e+00 9.944471e-01 5.925931e-01 -2.966930e+00 -2.527564e+00 7.519337e-02 1.110798e+00 -3.266273e+00 -7.979005e-01 -6.255715e-01 -4.819323e-01 -6.708682e-01 7.831930e-01 1.066963e+00 1.134177e-01 -5.180787e-01 -3.078139e-01 -8.531645e-01 -3.538736e-01 -8.197638e-02 -1.789331e-01 -9.799188e-01 1.000903e+00 1.015211e+00 -1.224974e-01 2.307597e-01 
-6.440209e+00 1.864221e+00 -6.860312e+00 -8.283320e+00 -1.025104e+01 -1.565948e+00 -9.060120e+00 -1.050553e+01 8.277550e+00 1.918141e+00 -6.576703e+00 -1.779804e+00 1.951416e+01 5.012886e+00 7.803434e-01 -1.197406e+00 -2.848056e+00 -2.831264e+00 -1.048726e+00 -2.951472e-01 -3.280494e+00 -2.114332e+00 1.602733e+00 1.903456e+00 -1.678148e+00 9.854630e-01 -5.848884e-04 -2.328320e-01 -4.623193e-01 1.907111e-01 -4.300739e-01 -1.561643e-01 -4.545364e-01 2.831230e-01 -6.875178e-01 9.522316e-01 9.307073e-01 -2.073955e-02 -1.878479e-02 
-1.665117e+00 -1.077965e+00 -8.887788e+00 -7.837324e+00 -1.555213e+01 -8.276388e-01 -8.779057e+00 -1.267563e+01 4.107502e+00 3.044796e+00 4.544998e-01 -2.814969e+00 2.042758e+01 4.182937e+00 4.718013e-01 -1.416044e+00 -2.603986e+00 -2.447381e+00 2.455659e-01 9.515673e-01 -9.201140e-01 -1.674149e+00 2.165290e+00 2.142569e+00 -1.405578e+00 7.700472e-01 -9.609483e-01 -1.659927e-01 -5.881830e-02 4.395637e-01 2.273837e-01 1.202640e-01 -5.120170e-01 6.646153e-01 4.011419e-01 1.188254e-01 -1.658025e-01 1.737654e-01 -2.265498e-01 
2.668844e+00 1.397537e+00 -1.217460e+01 -1.025468e+01 -1.483492e+01 -3.758714e+00 -1.056429e+01 -1.291849e+01 2.409078e+00 5.835203e+00 6.040562e-01 -3.097784e+00 2.102810e+01 2.321225e+00 2.586762e-01 -3.451416e-01 -1.862604e+00 -2.562527e+00 2.415321e-01 -6.948609e-01 -1.696313e+00 -1.631094e+00 1.670376e+00 1.101505e+00 -7.425840e-01 3.115887e-01 -1.597470e+00 -2.454069e-01 4.808284e-01 8.849114e-01 7.005837e-01 4.261411e-02 -3.628469e-01 7.447433e-01 1.066746e+00 -7.715442e-01 -1.001678e+00 6.608084e-01 -3.419899e-01 
3.250471e+00 2.073110e+00 -8.462610e+00 -1.509309e+01 -1.745108e+01 -3.366721e-01 -9.865026e+00 -1.605223e+01 7.765814e-01 9.114736e+00 -3.141684e-01 -4.823699e+00 2.104267e+01 6.874505e-01 4.253173e-01 -1.276304e-01 -1.261837e+00 -1.525014e+00 3.138422e-02 -1.249430e+00 -7.352880e-01 9.661900e-01 -6.526627e-02 -9.099693e-01 -2.698231e-01 -1.261902e-02 -1.851218e+00 -1.824701e-01 6.255603e-01 1.330090e+00 1.320616e+00 -5.480525e-01 -5.151916e-01 7.233950e-01 1.008828e+00 -9.672535e-01 -1.025373e+00 1.000954e+00 -3.331103e-01 
2.708123e+00 1.582065e+00 -8.798609e+00 -1.396846e+01 -2.211419e+01 -6.037706e-01 -1.199144e+01 -1.729879e+01 1.787540e+00 7.235050e+00 -6.848437e-01 -4.488359e+00 2.076457e+01 -1.226722e+00 -4.234492e-01 5.625297e-01 9.054264e-01 2.104708e-01 -7.285644e-01 -1.008883e+00 3.508096e-01 1.899231e+00 -1.139710e+00 -1.578666e+00 1.058016e+00 -3.331537e-01 -1.839706e+00 -1.802948e-01 5.661219e-01 1.461066e+00 1.822758e+00 -3.862261e-01 6.074989e-02 1.173861e+00 5.529078e-01 -6.569182e-01 -5.141960e-01 1.012910e+00 -2.744541e-01 
1.752496e+00 9.563578e-01 -1.121394e+01 -1.228962e+01 -1.953756e+01 -2.248190e+00 -1.431263e+01 -1.416192e+01 9.249221e+00 2.018541e+00 -3.450897e+00 -3.468797e+00 2.049625e+01 -3.299177e+00 -9.948669e-02 1.257921e+00 2.662450e+00 2.769201e+00 -2.009649e+00 -1.467379e+00 1.673300e+00 1.604829e+00 -1.265934e+00 -1.644212e+00 2.698893e+00 -5.731331e-01 -1.507844e+00 -2.009910e-01 5.863138e-01 1.263377e+00 1.353902e+00 1.397733e-01 4.840883e-01 1.036076e+00 -2.968988e-01 -1.641067e-01 1.966685e-01 6.450074e-01 -2.106864e-01 
-2.715779e+00 -1.613329e-01 -7.986292e+00 -7.129286e+00 -1.273932e+01 -6.445778e+00 -1.338490e+01 -1.210960e+01 7.668912e+00 3.684752e+00 -5.720909e+00 1.514847e+00 1.963553e+01 -4.883993e+00 -3.803956e-01 1.792692e+00 3.480580e+00 4.404159e+00 -6.690819e-01 -2.821367e-01 2.968700e+00 8.141257e-01 -1.013881e+00 -1.102354e+00 2.837609e+00 -7.804249e-01 -7.384311e-01 -2.789007e-01 1.260512e-01 4.105241e-01 2.868760e-01 7.435528e-01 7.347071e-01 4.321228e-01 -4.898880e-01 2.865984e-01 7.401327e-01 6.928516e-03 -8.758466e-02 
-1.053346e+01 2.447376e+00 -2.579161e+00 -5.200427e+00 -8.292510e+00 -7.463912e+00 -1.650519e+01 -1.028033e+01 5.860040e+00 4.560213e+00 -6.017195e+00 5.669162e+00 1.874152e+01 -5.023133e+00 -6.011645e-01 2.188858e+00 3.767470e+00 3.147652e+00 7.005095e-01 8.076388e-01 3.136147e+00 2.424865e-02 -9.487139e-01 -1.647831e-01 2.065418e+00 -8.424155e-01 3.555902e-01 -6.000302e-01 -4.968330e-01 -4.837951e-01 -9.618806e-01 7.203915e-01 8.151252e-01 -3.466000e-01 -4.762219e-01 1.989385e-01 7.970749e-01 -6.001285e-01 5.309188e-02 
-1.556886e+01 -1.065422e+00 -4.152537e+00 -1.101566e-01 -5.715923e+00 -1.341319e+00 -1.230584e+01 -4.396085e+00 7.552758e+00 8.948100e-01 -4.913465e+00 5.130708e+00 1.773981e+01 -4.056900e+00 -1.567114e+00 7.273175e-01 2.405537e+00 1.455625e+00 1.634121e+00 1.527143e+00 1.780000e+00 2.400812e-01 1.346724e-01 1.382283e+00 1.409396e+00 -6.364359e-01 1.442892e+00 -3.185788e-01 -6.420919e-01 -1.159678e+00 -1.380793e+00 -1.817155e-01 2.925958e-01 -1.037975e+00 -4.288643e-01 -5.311592e-02 5.927590e-01 -9.052683e-01 2.231609e-01 
-1.693663e+01 -1.597420e+00 -2.186526e+00 3.038163e+00 -7.310995e+00 -1.297871e+00 -1.081397e+01 -2.337940e+00 9.428541e+00 -1.330057e+00 -4.678535e+00 5.050360e+00 1.723204e+01 -1.934773e+00 -2.506278e+00 -6.935567e-01 7.809964e-01 -5.659352e-01 4.407074e-01 1.703607e+00 5.346497e-01 -4.892581e-01 -8.455183e-01 1.098844e+00 4.123568e-01 -3.796682e-01 2.146662e+00 1.860922e-01 -4.454503e-01 -1.240249e+00 -1.322897e+00 -1.029335e+00 -5.197867e-02 -1.065385e+00 -3.779418e-01 -4.196824e-01 2.172187e-01 -9.643434e-01 3.455369e-01 
-1.979869e+01 -5.974505e+00 -4.546022e+00 7.791026e-01 -5.951954e+00 -1.358194e+00 -8.594800e+00 -7.180789e+00 7.085068e+00 7.303249e+00 5.211760e-01 8.871229e+00 1.720809e+01 7.862852e-01 -1.020733e+00 2.343984e-02 -8.245739e-01 -6.430134e-01 -1.447758e+00 7.328584e-01 -9.204285e-01 -1.073443e+00 -1.331058e+00 1.229627e+00 -8.622017e-01 1.040062e-01 2.351789e+00 8.345672e-01 1.166635e-01 -5.649605e-01 -1.353122e+00 -1.227471e+00 -2.397542e-01 -3.739942e-01 -4.475458e-01 -8.483996e-01 1.436308e-02 -1.120308e+00 3.874999e-01 
-1.809241e+01 -7.629474e+00 -5.850202e+00 -1.740074e+00 -1.100417e+01 -5.251937e+00 -9.842678e+00 -6.214726e+00 3.647595e+00 -2.871598e+00 -3.240294e+00 5.860685e+00 1.710903e+01 3.288582e+00 5.610568e-02 3.135452e-01 -8.187200e-01 -2.417515e+00 -2.905226e+00 9.448878e-01 -8.405657e-01 -1.208699e+00 -2.314260e+00 9.976385e-01 -1.620501e+00 5.150482e-01 1.759505e+00 1.139720e+00 2.732527e-01 1.875391e-02 -1.285746e+00 -3.672773e-01 -1.297805e-01 -6.508607e-02 -4.215524e-01 -1.226988e-01 3.614650e-01 -7.074350e-01 3.405460e-01 
-1.105954e+01 -3.153058e+00 -2.203500e+00 -1.843907e+00 -7.084403e+00 -6.603079e+00 -9.127195e+00 -7.059834e+00 5.076018e+00 -4.989711e+00 5.155507e-01 4.145364e-01 1.832134e+01 5.090367e+00 1.324530e+00 8.070842e-01 3.805926e-01 -4.384193e+00 -2.830270e+00 7.077316e-01 5.976368e-01 -1.637928e+00 -3.372955e+00 1.504701e+00 -3.175717e+00 8.537056e-01 5.201415e-01 6.157474e-01 -9.265025e-02 9.026339e-02 -1.306931e+00 3.474636e-01 -1.289112e-01 3.377018e-01 -6.722280e-01 8.116381e-01 3.646190e-01 -1.454858e-01 1.558855e-01 
-4.863294e+00 -2.727615e+00 -1.790062e+00 2.560680e-01 -1.883235e+01 -1.320156e+01 -5.823329e+00 -6.601246e+00 4.389574e+00 -6.754879e+00 3.124707e-01 1.176203e+00 1.925065e+01 4.710711e+00 2.019690e+00 2.808847e-01 2.721827e-01 -5.124078e+00 -7.044235e-01 1.067268e+00 -5.498132e-01 -2.314778e+00 -4.380641e-01 2.768632e+00 -1.968060e+00 9.482118e-01 -7.321181e-01 1.499240e-01 -2.523941e-01 -3.761212e-01 -6.953192e-02 5.658794e-01 -3.835713e-01 5.621698e-01 -4.346558e-01 1.463371e+00 2.310711e-01 2.537347e-01 -4.598240e-02 
-9.614172e-01 -1.802784e+00 -2.540671e+00 1.683995e+00 -2.395883e+01 -1.153473e+01 -7.065816e+00 -3.999345e+00 -1.475560e+00 -7.619883e+00 6.268300e+00 -4.665116e+00 2.040581e+01 2.675928e+00 1.076212e+00 -4.234812e-01 -9.187083e-01 -5.824387e+00 -8.108414e-01 2.711225e-02 6.227041e-01 -3.881543e+00 1.789034e+00 2.167225e+00 -1.415851e+00 6.668518e-01 -1.413854e+00 -2.948478e-01 -2.991644e-01 -6.993582e-01 1.214836e+00 1.690620e-01 -4.954417e-01 8.240792e-01 3.497997e-01 1.310327e+00 -4.346101e-01 8.124880e-01 -2.109628e-01 
4.120797e-01 1.793839e+00 -4.277193e+00 -2.143112e+00 -2.818734e+01 -6.308228e+00 -5.537028e+00 -1.049404e+01 -4.650505e+00 -3.746833e+00 7.726492e+00 -1.439791e+00 2.080786e+01 8.352106e-01 9.298846e-01 -3.331425e-01 -2.049675e+00 -2.045078e+00 -1.085543e+00 -6.326590e-01 1.957750e+00 -2.260170e+00 2.421601e+00 1.821732e+00 -1.231760e+00 3.785631e-01 -1.279554e+00 -6.047641e-01 -3.345876e-01 -3.976904e-01 2.036194e+00 -5.923780e-01 -4.733036e-01 1.274829e+00 1.455087e+00 -1.679376e-02 -1.286219e+00 4.771952e-01 -2.451162e-01 
-3.175895e-01 -3.272404e-02 -3.077340e+00 -5.237859e+00 -3.152884e+01 -1.410395e+01 -9.134785e+00 -1.999918e+00 -9.811655e+00 2.451436e+00 7.644666e+00 -5.356720e+00 2.087700e+01 -4.115260e-02 3.951938e-01 -3.817243e-01 -1.955269e+00 1.504873e-01 -1.794400e+00 -9.195133e-01 3.464251e+00 8.376701e-02 1.748850e+00 -1.948993e-01 5.185724e-01 8.371601e-02 -7.267109e-01 -4.361655e-01 -4.371515e-01 2.478781e-01 2.079871e+00 -4.471033e-01 7.081583e-02 4.403344e-01 2.363526e+00 -6.789607e-01 -1.827155e+00 2.073550e-01 -1.652761e-01 
-1.009155e+00 1.036778e+00 -3.187439e+00 -6.531383e+00 -2.527273e+01 -1.734466e+01 -7.952140e+00 2.187791e+00 -2.743229e+00 3.174654e-01 8.732948e+00 -4.636796e+00 2.090788e+01 -3.285208e-01 -6.636214e-01 -1.412932e+00 -1.197989e+00 2.069454e+00 -3.174534e+00 -8.259372e-01 4.403556e+00 2.978002e+00 -5.019410e-01 -2.481399e+00 -5.492964e-01 1.419888e-02 -2.097022e-01 -2.571350e-01 -4.793115e-01 7.168818e-01 9.906105e-01 -1.392796e-01 4.213992e-01 -8.122282e-01 1.740605e+00 -4.974883e-01 -1.653660e+00 -6.395842e-02 -7.889335e-02 
-4.565630e-01 5.517152e-01 -4.994169e+00 -5.898216e+00 -2.466370e+01 -1.498851e+01 -1.045583e+01 6.980995e+00 -2.010363e+00 -9.077812e-01 4.790576e+00 -4.737513e-01 2.077438e+01 -3.757606e-01 -3.078621e-01 -2.069344e+00 -1.051611e-01 2.517704e+00 -2.001862e+00 4.778305e-01 1.601473e+00 5.317002e+00 -1.439991e-01 -4.816987e+00 -7.203078e-01 2.265339e-02 1.528273e-01 -9.582553e-03 1.257543e-01 7.905410e-01 1.796290e-01 2.378813e-01 4.408882e-01 -1.892075e+00 1.725598e-01 -6.634059e-02 -2.126859e-01 -4.500547e-01 -1.231598e-02 
-1.161038e+00 -1.816488e+00 -1.038344e+01 -7.802879e+00 -2.127264e+01 -2.173862e+01 -9.006193e+00 7.033288e+00 6.338861e+00 -4.576930e+00 -3.253458e+00 -6.627757e+00 2.093016e+01 -4.599624e-02 -4.262209e-03 -1.885890e+00 6.096796e-01 1.724366e+00 -1.678210e+00 7.756652e-01 -1.172002e+00 3.826237e+00 8.805841e-01 -4.135524e+00 -9.321122e-01 1.462765e-02 3.129243e-01 3.665432e-01 1.167316e+00 3.477528e-01 -5.728999e-01 1.063447e+00 9.723390e-03 -2.199141e+00 -1.936223e+00 3.295548e-01 1.549689e+00 -4.039811e-01 1.833267e-03 
-2.120451e+00 -1.454019e-01 -9.826063e+00 -5.127917e+00 -2.094036e+01 -2.191628e+01 -6.218606e+00 3.584697e+00 1.223231e+01 4.178638e+00 -1.044706e+01 -7.962779e+00 2.097912e+01 5.817218e-01 1.760144e-02 4.835262e-01 1.093601e+00 1.221176e+00 -1.353155e+00 4.841263e-01 -3.208347e+00 5.224488e-01 7.258846e-01 -4.312662e-01 -1.540293e+00 2.192173e-02 3.167249e-01 2.978955e-01 1.764827e+00 -3.613392e-01 -8.844936e-01 1.343226e+00 -3.585608e-01 -1.317658e+00 -3.303132e+00 -1.605000e-01 2.595534e+00 -5.573794e-01 1.295521e-02 
-4.071919e-01 1.364025e+00 -1.020094e+01 -3.868134e+00 -1.851257e+01 -2.227183e+01 -6.192425e+00 -1.974071e+00 9.266618e+00 2.177176e+00 -4.325851e+00 -5.552844e+00 2.087864e+01 7.573594e-01 1.006363e+00 3.147212e+00 -5.860646e-02 -1.467821e-01 1.818347e+00 -7.804681e-01 -4.187237e+00 -4.305835e+00 7.108911e-01 3.074185e+00 -2.159209e+00 2.373104e-02 1.221773e-01 1.684826e-01 1.536999e+00 -6.233791e-01 -9.670655e-01 1.447562e+00 -3.158941e-01 -2.322842e-01 -2.772393e+00 -2.206497e-01 1.876247e+00 -5.398515e-01 2.617479e-02 
2.075123e+00 -9.505340e-01 -2.667785e+00 -2.397582e+00 -1.993786e+01 -2.148769e+01 -9.442080e+00 -4.557057e+00 -8.619975e-01 -6.554108e-01 3.170442e+00 -8.712675e+00 2.090975e+01 8.061862e-01 6.763031e-01 4.238239e+00 -1.577714e+00 -9.691904e-01 2.965991e+00 -5.369068e-01 -3.479200e+00 -7.132619e+00 -8.616526e-01 4.555829e+00 -2.893656e+00 8.287773e-02 -9.401777e-02 8.294190e-02 3.065384e-01 -4.011043e-01 -7.181337e-01 9.053683e-01 9.772658e-03 6.229061e-01 -9.468293e-01 4.812449e-02 9.767593e-02 9.031298e-02 1.299435e-02 
5.279722e-01 3.617892e+00 1.773484e+00 -9.461079e+00 -2.250781e+01 -1.286118e+01 -1.129680e+01 -9.832018e+00 -8.643159e+00 1.394550e+00 5.308715e+00 -1.704885e+01 2.108350e+01 4.526581e-01 5.087999e-01 3.921750e+00 -1.171558e+00 -2.015778e+00 3.400028e+00 -2.932890e-01 -2.197996e+00 -6.208193e+00 5.711042e-01 2.752161e+00 -2.954689e+00 1.150236e-01 -1.944794e-01 -3.047372e-01 -8.583859e-01 3.614236e-01 -9.430984e-03 -7.493539e-01 4.787217e-01 1.511045e+00 9.832422e-01 -1.757381e-01 -1.289662e+00 1.246409e+00 -4.408417e-03 
1.442898e+00 2.109180e+00 5.377920e+00 -1.022001e+01 -2.378870e+01 -1.179166e+01 -6.350954e+00 -9.882332e+00 -1.447589e+01 2.616878e-01 7.514797e+00 -1.668305e+01 2.129108e+01 2.639836e-01 6.810924e-01 1.628949e+00 -3.554442e-01 -1.434995e+00 2.382846e+00 2.894000e-01 -1.088436e+00 -3.260519e+00 1.036401e+00 2.181254e-01 -6.909889e-01 4.124718e-02 -3.500589e-01 -2.765781e-01 -1.430250e+00 7.446567e-01 3.915740e-01 -1.682263e+00 4.508887e-01 1.375505e+00 2.017464e+00 -3.344671e-01 -1.177549e+00 1.666146e+00 -1.096432e-02 
2.172211e+00 2.378167e+00 5.384953e+00 -5.814709e+00 -2.666604e+01 -1.011971e+01 -9.204432e+00 -1.030141e+01 -1.496740e+01 4.574148e+00 7.262777e+00 -1.634110e+01 2.126310e+01 5.606356e-02 -5.197176e-01 1.599277e-01 1.137377e+00 3.896523e-02 -1.636850e+00 1.199987e+00 2.172606e+00 -1.325674e+00 -1.116826e+00 -1.205273e+00 2.971502e+00 2.250423e-02 -4.027876e-01 -9.232886e-02 -1.182007e+00 2.071560e-01 4.193077e-01 -1.592979e+00 3.990995e-01 7.044007e-01 1.699416e+00 -5.933560e-01 -3.113081e-01 1.188375e+00 9.097537e-03 
2.572922e+00 3.074790e+00 3.671227e+00 -5.997988e+00 -2.503372e+01 -1.094419e+01 -9.041262e+00 -9.764540e+00 -1.400247e+01 2.936793e+00 3.284038e+00 -1.252150e+01 2.102619e+01 -7.458111e-01 -1.923286e-01 -1.032099e+00 9.911022e-01 -3.869190e-02 -2.926885e+00 9.708986e-01 1.213023e+00 5.134400e-01 -1.690023e+00 6.468009e-01 2.473979e+00 7.431583e-02 -3.232570e-01 3.227684e-02 -4.580291e-01 -1.351108e-01 4.740930e-03 -4.889061e-01 6.664049e-02 1.397246e-01 7.679165e-01 -1.164566e-01 -1.423420e-02 -1.213241e-02 3.829725e-02 
2.432781e-01 5.364989e-01 3.426469e+00 -5.885208e+00 -2.169047e+01 -2.146916e+01 -3.951709e+00 9.721156e-01 -1.550824e+01 -5.527132e+00 1.397728e+00 -4.272123e+00 2.132847e+01 -1.056383e+00 4.838660e-01 -6.577629e-01 -8.090512e-01 -6.173906e-01 -1.910004e+00 1.361459e+00 1.732777e-01 4.019070e-01 -1.032464e+00 9.812832e-01 1.404702e+00 1.439770e-01 -7.608569e-03 2.245847e-01 -7.265326e-02 -2.638806e-01 -9.653315e-02 1.121201e+00 -3.974363e-01 -6.689178e-01 -3.899304e-02 9.351929e-01 -4.974886e-01 -1.167435e+00 2.992277e-02 
-1.321691e+00 2.068371e+00 1.196669e+00 -5.229254e+00 -2.646994e+01 -2.075135e+01 -4.122823e+00 -9.453981e+00 -1.163827e+01 -3.137786e+00 1.368133e+01 -1.034765e+01 2.162997e+01 -7.960784e-01 3.406847e-01 -2.523508e-01 -5.778437e-02 -1.083112e+00 7.489185e-02 5.418662e-01 6.098511e-01 -2.847269e-01 4.119368e-01 -9.463239e-01 3.174877e-02 1.719971e-01 2.635383e-01 -2.808626e-01 3.357104e-01 3.545640e-02 3.771670e-01 1.406404e+00 -5.797303e-01 -2.411881e-01 -6.475079e-01 9.158649e-01 -1.295905e+00 -9.010407e-01 8.868009e-03 
-1.162396e+00 5.300706e+00 3.333418e+00 -1.024433e+01 -2.903488e+01 -1.476615e+01 -4.856355e+00 -9.590305e+00 -1.413996e+01 2.449115e+00 6.970549e+00 -1.040451e+01 2.168109e+01 4.315435e-02 3.366992e-01 -5.932125e-01 3.424168e-01 7.850971e-02 2.468267e+00 -5.726783e-01 -8.703969e-01 -1.121556e+00 2.508159e+00 -2.896154e+00 -1.644559e+00 1.232775e-01 1.463110e-01 -7.262881e-01 3.669288e-01 4.993819e-01 6.199905e-01 7.700839e-01 -6.179534e-01 -1.373321e-02 -5.742877e-01 2.961479e-01 -7.481425e-01 -5.232514e-01 -6.802197e-03 
-7.046333e-01 2.396110e+00 2.455998e+00 -4.107348e+00 -2.677707e+01 -1.392124e+01 -5.879608e+00 -1.434074e+00 -1.611024e+01 1.008353e+00 -4.233992e+00 -9.296561e+00 2.170987e+01 2.211161e-02 -1.523058e+00 6.141781e-01 5.926502e-01 1.499193e+00 1.915998e+00 -9.606840e-01 5.289198e-01 -1.962368e+00 1.118991e+00 -3.894007e+00 -5.065941e-01 1.290056e-01 -1.601873e-01 -4.394604e-01 2.879455e-01 3.419545e-01 3.350762e-01 -1.923917e-01 -1.042099e-01 -2.657299e-01 -1.005936e-01 -3.460536e-01 5.510243e-01 -1.923513e-01 -2.675451e-02 
1.505208e-01 2.056125e+00 -1.692578e-01 -4.734077e+00 -2.114436e+01 -1.254288e+01 -5.936708e+00 -7.389822e+00 -1.888004e+01 4.940592e+00 -4.125383e+00 -1.302046e+01 2.190491e+01 -7.339226e-01 -2.215703e+00 7.436168e-01 1.362641e+00 1.191409e+00 1.019862e+00 -9.770323e-01 1.450773e-01 -1.630711e+00 9.474824e-02 -1.285588e+00 -9.423833e-01 1.314617e-01 -5.408072e-01 4.208660e-01 2.434513e-01 2.836665e-01 -1.532459e-01 -9.986961e-01 4.540955e-01 -2.293714e-01 6.680699e-01 -6.388067e-01 1.051901e+00 5.231169e-01 -7.254869e-02 
-1.867592e+00 -3.924629e+00 6.018898e+00 -5.021130e+00 -2.291924e+01 -1.228300e+01 -8.386066e+00 -7.909624e+00 -1.908008e+01 1.211428e+00 -2.407427e-01 -1.157264e+01 2.216309e+01 -1.208477e+00 -5.804160e-01 5.189623e-01 1.141876e+00 3.581905e-02 -1.628639e-01 2.229936e-01 -1.226535e+00 -5.331173e-01 -1.116260e-01 1.003515e+00 -1.281096e+00 3.413238e-02 -8.051187e-01 1.511705e+00 -3.692617e-01 3.474810e-01 2.960892e-01 -8.025380e-01 7.440023e-01 -2.878360e-01 1.324896e+00 -2.984014e-01 7.902597e-01 1.149478e+00 -1.831347e-01 
-4.250530e+00 -2.617441e+00 5.270052e+00 -2.974235e+00 -2.500675e+01 -1.048596e+01 -8.488287e+00 -5.627144e+00 -2.080860e+01 2.821319e+00 -1.454016e+00 -1.397839e+01 2.211179e+01 -2.045588e+00 1.969708e+00 6.716518e-01 1.486136e+00 4.396725e-02 -1.485782e+00 1.105961e+00 -1.139526e+00 1.504168e+00 -7.056628e-02 -8.540981e-02 1.358277e+00 -1.920294e-01 -1.055704e+00 1.342750e+00 -7.484191e-01 2.056531e-01 1.081741e+00 -1.387005e-01 5.481468e-01 1.166291e-01 1.329909e+00 -2.274730e-01 1.802097e-01 1.882388e+00 -2.848590e-01 
-4.546491e+00 1.830813e+00 2.331155e+00 7.221099e-01 -2.466678e+01 -1.576402e+01 -3.488850e+00 -8.448091e+00 -1.781155e+01 1.509860e+00 -5.521019e-01 -1.522308e+01 2.177709e+01 -3.347649e+00 3.942762e+00 -1.196148e+00 2.268307e+00 3.553360e+00 -8.438695e-01 1.717831e+00 -2.679587e-01 3.094670e+00 -2.903590e-01 -5.427971e-01 4.090468e+00 -6.249226e-01 -1.074486e+00 2.506374e-01 -7.408169e-01 -6.784280e-02 1.361175e+00 8.382598e-01 -9.818819e-03 5.768608e-01 5.939470e-01 -1.986590e-01 4.162779e-02 1.773577e+00 -2.970258e-01 
-8.737967e+00 9.026944e+00 5.032873e+00 -1.750148e-01 -2.005075e+01 -1.823128e+01 -2.855512e+00 -1.281822e+01 -1.199346e+01 4.438545e+00 -4.396752e+00 -4.403861e+00 2.113776e+01 -4.942857e+00 2.236458e+00 -2.140924e+00 1.827691e+00 4.841341e+00 6.668625e-01 1.016283e+00 2.489345e-01 3.204938e+00 -9.532503e-01 3.886164e-01 5.783776e+00 -9.633061e-01 -2.230078e-01 -6.920534e-01 -2.262375e-01 -5.624448e-01 6.968678e-01 1.190285e+00 -4.569293e-01 6.847540e-01 -1.555797e-01 -1.113834e-01 5.245066e-01 1.868980e-01 -2.134695e-01 
-1.636212e+01 9.966987e+00 1.567472e-01 4.920797e+00 -7.630438e+00 -1.262969e+01 -2.613298e+00 -5.653880e+00 -8.014298e+00 -1.048980e+00 -1.483360e+00 4.092434e+00 1.952549e+01 -5.132272e+00 5.393956e-01 -1.778834e+00 6.318847e-01 4.443007e+00 2.952113e+00 2.187382e-01 9.635382e-01 1.586233e+00 -6.635787e-01 9.746405e-01 5.374041e+00 -1.065358e+00 1.269814e+00 -9.776446e-01 6.758063e-01 -9.431906e-01 -5.235270e-01 5.955580e-01 -4.118167e-01 3.176568e-01 -4.313388e-01 2.206296e-01 6.746255e-01 -1.342516e+00 -4.956146e-02 
-2.305700e+01 4.496761e+00 -4.347362e+00 4.064877e+00 -9.318217e+00 -8.718820e+00 -3.844646e+00 -5.779577e+00 -9.682537e+00 -6.655121e-01 9.546953e-01 5.282741e+00 1.842106e+01 -2.268315e+00 2.111241e-01 -1.681926e-01 -5.078762e-01 3.083483e+00 2.567651e+00 -4.291391e-01 1.668495e+00 1.480488e+00 -4.408732e-01 1.778404e+00 1.650980e+00 -1.039159e+00 2.327458e+00 -3.534741e-01 9.489552e-01 -7.596673e-01 -8.497909e-01 -8.859444e-02 3.059625e-01 2.379253e-01 -1.698156e-01 3.070709e-01 8.403040e-02 -2.205576e+00 6.384230e-02 
-2.304834e+01 6.792883e+00 -1.872900e+00 1.761588e+00 -7.818009e+00 -5.759686e+00 -1.900592e+00 -7.149721e+00 -1.103585e+01 7.439946e-01 1.645377e+00 6.803826e+00 1.780865e+01 1.664149e+00 6.720600e-02 1.196518e+00 -1.279862e+00 1.814655e+00 1.183526e+00 3.814586e-01 6.105450e-01 1.800201e+00 5.566006e-01 2.135437e+00 -5.557122e-01 -8.348034e-01 2.195328e+00 -1.670504e-01 3.153127e-01 -3.750044e-01 -1.005676e+00 -6.257436e-01 6.905180e-01 -1.795360e-02 2.040971e-02 -8.346522e-02 -4.888193e-01 -1.755222e+00 1.274631e-01 
-1.673643e+01 1.166962e+01 5.206733e+00 -1.134791e+00 -4.539547e+00 -8.828026e+00 -5.357561e+00 -3.727822e+00 -3.080246e+00 1.337691e+00 2.930900e+00 2.495345e+00 1.680039e+01 3.296224e+00 7.051819e-01 1.116177e+00 -1.014773e+00 1.906563e+00 1.108184e+00 2.464736e+00 1.615058e+00 2.248876e+00 -2.798543e-02 2.283704e-01 -2.279228e+00 -7.593719e-01 9.297921e-01 -3.131045e-01 -6.008057e-01 6.890523e-02 -1.069366e+00 -4.824949e-01 7.137921e-01 -7.399317e-02 -4.858885e-01 -5.127579e-01 -9.729952e-01 -3.535506e-01 1.769586e-01 
-1.120166e+01 6.716589e+00 1.362290e+00 1.121323e+00 -9.464998e-01 -6.657451e+00 5.045228e-02 -3.627033e+00 -2.314441e+00 7.324210e-01 8.205721e+00 2.707571e+00 1.616181e+01 3.062099e+00 -5.428853e-01 -8.444554e-01 -9.896890e-01 3.086925e-03 5.531286e-01 2.224391e+00 9.004890e-01 1.304087e+00 -1.287349e+00 -6.944393e-01 -1.436966e+00 -5.679359e-01 -3.996693e-01 -3.322629e-01 -9.101335e-01 2.304645e-01 -8.104979e-01 -4.580861e-01 -3.406686e-01 -3.095964e-01 -7.791758e-01 -5.464543e-01 -8.868235e-01 4.620959e-01 1.686380e-01 
-1.249922e+01 8.060818e+00 -3.840730e-01 -6.888546e-01 -3.221156e+00 -2.729019e+00 7.503510e+00 5.343676e-01 -2.798861e+00 -7.996525e-01 -1.183625e+00 -4.065272e+00 1.544762e+01 1.681671e+00 -1.049353e+00 -2.151734e+00 -3.084364e-01 -1.357563e+00 4.703748e-01 2.218356e+00 1.153558e+00 -7.008976e-01 -2.082688e+00 -1.671634e+00 3.238544e-01 -2.877999e-01 -8.303550e-01 -4.152002e-01 -5.475838e-01 3.905932e-01 -3.278086e-01 -4.537229e-01 -1.459595e+00 -8.579946e-01 -6.948177e-01 9.321035e-02 1.279460e-01 7.949063e-01 1.377961e-01 
-9.856449e+00 5.882856e+00 -3.299774e+00 -3.409825e+00 -8.461770e+00 -6.043546e+00 2.790825e+00 -4.778370e+00 -4.656104e+00 -4.624077e+00 2.304430e-01 2.899306e+00 1.564536e+01 4.730794e-01 -7.168412e-01 -1.720194e+00 -4.807074e-01 -6.057719e-01 -7.880000e-01 -1.198695e+00 -7.066871e-01 -6.207916e-01 -1.148320e+00 -1.348678e+00 4.532258e-01 -2.273993e-01 -8.181378e-01 -4.877028e-01 1.022173e-01 6.840236e-01 3.921828e-01 4.685389e-02 -1.152317e+00 -6.724308e-01 1.497643e-01 7.877482e-01 4.283361e-01 2.681981e-01 1.220671e-01 
-9.000685e+00 6.839720e+00 -3.220906e+00 -4.113990e-01 -7.569727e+00 -6.783104e+00 4.364031e+00 2.615634e+00 -5.413902e+00 -6.397501e+00 -1.439631e+00 4.018750e+00 1.561961e+01 4.389589e-01 -1.283841e+00 -1.183873e+00 6.837026e-01 5.719495e-01 -4.898666e-01 -3.121698e+00 -1.871327e+00 -2.627729e-01 3.685518e-01 1.195220e+00 7.502072e-01 -2.406600e-01 -4.819945e-01 -7.797148e-01 6.971460e-02 3.123344e-01 2.625555e-01 4.504578e-01 -4.475524e-01 -4.784032e-01 8.215434e-01 9.227115e-01 3.155964e-01 -2.633631e-01 2.032855e-01 
-1.058553e+01 3.742932e+00 -5.820265e+00 -1.420942e+00 -1.801074e+00 -8.570408e+00 -4.373281e+00 -8.201101e+00 -4.110878e+00 -2.210253e+00 1.590331e+00 9.316886e-01 1.493882e+01 -4.072341e-01 -2.864155e+00 -8.172997e-01 1.934359e+00 9.992448e-01 1.267519e+00 -8.671659e-01 -9.492224e-01 1.833846e+00 1.425772e+00 1.381459e-02 -3.091519e-01 1.882973e-02 3.436850e-01 -5.224851e-01 -4.972402e-01 -3.613703e-01 -6.199770e-01 2.209232e-01 1.079111e-01 2.546013e-01 6.094145e-01 3.427493e-01 -2.810820e-01 -7.802456e-01 4.451463e-01 
-9.939887e+00 2.711574e+00 -5.043192e+00 1.735217e+00 -3.691756e+00 -3.914921e+00 -4.522928e+00 -7.110903e+00 -4.385339e+00 -1.638058e-01 4.112531e+00 6.695722e-01 1.459759e+01 -2.881450e-01 -3.874269e+00 -2.254609e+00 4.570235e-02 -8.472940e-01 1.694904e+00 -1.851706e-01 -1.117191e+00 2.179501e+00 1.243823e+00 -7.748984e-01 -6.117721e-01 6.055128e-01 9.816777e-01 1.061762e-01 -8.846606e-01 -1.180711e+00 -1.335544e+00 -6.744958e-01 -4.265955e-01 5.542127e-01 3.203649e-01 -2.944143e-01 -7.845029e-01 -1.510477e+00 5.856037e-01 
-1.142302e+01 -6.373846e+00 -6.475130e+00 5.188663e+00 -5.404531e+00 -1.140044e+00 2.898475e+00 -4.661213e+00 3.998846e+00 -6.120636e-01 -2.476565e+00 3.028135e+00 1.625052e+01 2.555056e+00 -2.034052e+00 -3.671028e+00 -1.968559e+00 -2.996035e+00 -7.757692e-01 -2.127403e+00 1.892510e-01 1.205144e+00 1.277913e-01 -1.769029e+00 -2.767013e+00 1.575246e+00 1.229086e+00 8.313273e-01 -6.090819e-01 -1.292983e+00 -1.484097e+00 -1.285432e+00 -1.320179e+00 6.079784e-01 -2.316399e-01 -6.776713e-01 -1.469598e-01 -1.742032e+00 4.291837e-01 
-1.002266e+01 -7.473238e+00 -1.416652e+01 -3.487690e+00 -1.000447e+01 -2.023764e+00 -1.976994e-01 -4.740262e+00 1.428738e+00 -9.774795e-01 -3.280674e+00 -8.833425e-02 1.799133e+01 3.866202e+00 -1.168012e+00 -4.180312e+00 -3.268392e+00 -4.108130e+00 -2.840702e+00 -4.624557e+00 3.304994e-01 1.653402e+00 -4.545293e-01 -1.835873e+00 -5.573246e+00 1.909151e+00 5.437890e-01 8.206480e-01 3.862668e-01 -3.031092e-01 -8.646311e-01 -1.048494e+00 -7.018995e-01 8.119649e-01 -2.094743e-01 -7.393839e-01 2.732792e-01 -1.248629e+00 5.541673e-02 
2.231143e+00 -1.334924e+00 -1.961374e+01 -8.652282e+00 -1.362489e+01 -1.339483e+01 -1.717291e+01 -8.440166e+00 -9.921952e-01 -1.164460e+00 -3.558212e+00 -1.252442e+01 2.111818e+01 3.661021e+00 -6.064773e-02 -2.899857e+00 -2.873507e+00 -4.790823e+00 -2.891837e+00 -5.248369e+00 1.366825e+00 9.386960e-01 -1.113408e+00 -1.904969e-01 -6.538574e+00 1.512929e+00 -8.356465e-01 1.771222e-01 1.127231e+00 7.894332e-01 8.406796e-02 5.260123e-02 1.181816e+00 9.420989e-01 -4.122984e-02 -3.389837e-01 5.155784e-01 3.754950e-01 -3.593615e-01 
2.564041e+00 -5.647946e+00 -1.937545e+01 -7.686271e+00 -2.012223e+01 -1.199103e+01 -1.761002e+01 -3.568929e+00 6.377194e+00 -2.160254e+00 -4.526010e+00 -1.942038e+01 2.170951e+01 1.877818e+00 -7.577318e-01 -7.088602e-01 -1.017369e+00 -4.273055e+00 -2.489531e+00 -2.134185e+00 2.353847e+00 1.265353e+00 -1.832497e+00 -1.977684e-01 -4.969136e+00 9.137546e-01 -1.279922e+00 1.183092e-02 1.198762e+00 1.302954e+00 9.810373e-01 6.227183e-01 2.326085e+00 9.068917e-01 -2.894832e-01 1.758356e-01 3.806219e-01 1.805214e+00 -4.730125e-01 
5.887344e-01 -7.589730e+00 -1.836995e+01 -7.079581e+00 -2.429977e+01 -1.061559e+01 -1.463721e+01 1.587243e+00 6.218098e+00 -5.587715e+00 -2.806381e+00 -1.999871e+01 2.195607e+01 -6.289843e-01 -1.353581e+00 2.294039e-01 8.530958e-01 -2.493233e+00 -6.883485e-01 2.536493e+00 3.888072e+00 1.193020e+00 -8.781434e-01 -1.018939e-02 -1.191593e+00 2.761362e-01 -9.393779e-01 8.443704e-03 7.078732e-01 1.132990e+00 1.495165e+00 6.467407e-01 2.057784e+00 4.164277e-01 -2.278908e-01 6.937007e-01 4.604542e-03 2.102887e+00 -3.572715e-01 
1.876294e-01 -8.134494e+00 -1.833271e+01 -9.360887e+00 -2.603231e+01 -1.586104e+01 -1.213647e+01 2.015268e+00 4.150358e+00 -7.928337e+00 -4.645432e+00 -2.119687e+01 2.214115e+01 -3.884040e-01 -4.623903e-01 2.488657e-01 1.383075e+00 -3.517395e-01 -8.288539e-01 3.113438e+00 3.604334e+00 7.882471e-02 3.070167e-01 -2.291741e-02 7.793304e-01 1.624846e-01 -2.691842e-01 2.333663e-01 1.786436e-01 5.705554e-01 1.332613e+00 6.108280e-01 6.999954e-01 -1.534382e-01 -2.106303e-01 8.283962e-01 1.574507e-02 1.419346e+00 -1.899437e-01 
2.744274e-01 -6.859556e+00 -1.898809e+01 -3.549495e+00 -2.313602e+01 -1.490157e+01 -7.227220e+00 8.208093e+00 6.086321e+00 -2.671135e+00 -3.549448e+00 -1.759414e+01 2.228304e+01 9.724243e-02 -1.660999e-01 1.606462e-01 1.591223e+00 7.243446e-01 -4.884718e-01 2.416740e+00 2.823720e+00 3.925064e-01 1.285339e+00 -2.548997e-01 1.101625e+00 1.022066e-01 2.152723e-01 2.615630e-01 -5.146352e-03 1.309767e-01 7.681876e-01 3.599564e-01 -3.909419e-01 -5.023981e-01 -6.274896e-02 5.132499e-01 5.323253e-03 4.546805e-01 -5.617540e-02 
7.791741e-01 -8.324985e+00 -1.782205e+01 -2.535941e+00 -2.246280e+01 -1.399231e+01 -5.747829e+00 1.114232e+01 6.837206e+00 -2.083460e+00 -4.269063e+00 -1.672602e+01 2.235845e+01 1.687836e-01 -1.846410e-01 2.187366e-01 1.466344e+00 7.812235e-01 4.646710e-01 1.425668e+00 2.118832e+00 6.124581e-01 1.227743e+00 3.312111e-03 9.809831e-01 5.100098e-02 1.185916e-01 5.369577e-02 -2.167687e-04 4.166186e-03 2.322805e-01 3.540193e-01 -4.366612e-01 -3.675892e-01 1.287219e-01 1.783857e-01 3.106708e-02 2.826635e-02 -2.741728e-02 
