-1.903087e+00 -1.043104e+01 -6.202457e+00 -2.968407e+01 -1.392435e+00 9.291861e+00 8.458518e+00 -1.486312e+01 2.443123e+00 3.654510e+00 -7.310952e+00 -4.577188e+00 2.117425e+01 1.219478e+00 2.798290e+00 1.478105e+00 1.309597e+00 -1.207317e+00 -4.112197e-01 -3.534978e+00 7.247925e-03 -1.344365e+00 -7.549394e-01 -1.103407e+00 2.954915e+00 -4.301550e-01 2.291084e-02 8.981586e-03 -6.016424e-02 -3.521267e-01 -2.574663e-01 1.088951e-01 2.091812e-01 2.814602e-01 2.193044e-01 -4.594325e-01 -4.008670e-02 -3.956957e-01 2.154172e-02 
8.263477e-01 -2.920966e+00 -2.725771e+00 -2.857543e+01 -5.973684e+00 1.074752e+01 1.428740e+00 -1.491325e+01 -3.776154e+00 5.808239e+00 -8.343488e+00 3.891753e+00 2.045128e+01 1.459476e+00 3.085634e+00 1.694034e+00 1.043410e+00 -2.025226e+00 -5.895057e-01 -3.555380e+00 8.011508e-01 -1.041237e+00 -2.141124e+00 -1.256811e+00 2.252816e+00 -4.828152e-01 -2.069858e-01 -3.362828e-01 -2.789655e-01 -7.888196e-01 -2.482675e-01 2.468471e-01 8.608230e-01 2.739592e-01 6.486228e-01 -4.871914e-01 -9.633255e-03 -6.737280e-01 1.185356e-01 
2.829584e+00 -1.946322e-01 -5.502744e-01 -2.369041e+01 -5.138395e+00 6.507933e+00 -5.701484e+00 -1.480182e+01 -1.169066e+00 -1.197053e+00 -1.231172e+01 5.962917e+00 1.938495e+01 1.214033e+00 2.699525e+00 1.069319e+00 -3.179436e-01 -2.085694e+00 2.223987e-01 -2.478871e+00 1.017598e+00 -3.994074e-01 -2.359010e+00 -1.227138e+00 1.327486e+00 -2.961163e-01 -4.832958e-01 -7.769179e-01 -4.154345e-01 -1.127184e+00 -1.772922e-01 4.742538e-01 1.496037e+00 4.175521e-02 6.079701e-01 9.680901e-02 1.814063e-01 -4.757253e-01 2.279295e-01 
3.027958e+00 -1.210755e-01 -5.583777e-01 -2.746385e+01 -9.645585e+00 7.736296e+00 -2.238381e+00 -1.088802e+01 -9.569671e-01 -4.625328e+00 -1.109463e+01 1.416839e+00 1.965482e+01 1.872709e-01 1.166258e+00 2.876704e-01 -1.820731e+00 -2.009466e+00 5.062063e-01 2.410835e-01 8.718689e-01 1.426270e+00 -2.388861e+00 -1.089707e+00 3.999895e-01 9.550343e-02 -6.678286e-01 -1.128891e+00 -4.109604e-01 -7.974700e-01 3.799827e-01 3.702188e-01 1.535990e+00 -3.825490e-01 1.279786e-01 9.985049e-01 3.792008e-01 1.670204e-01 2.511173e-01 
3.066271e+00 1.666639e+00 -1.939557e+00 -3.182958e+01 -9.984953e+00 1.190947e+01 -2.102276e+00 -1.178775e+01 -9.635082e-01 -2.923758e+00 -1.207107e+01 3.297701e+00 2.009190e+01 -5.608991e-01 -1.266117e-01 1.041146e-01 -2.894251e+00 -2.101658e+00 1.412194e+00 2.046977e+00 1.806649e-01 4.617319e-01 -1.470257e-01 -2.799270e-01 1.502702e+00 4.203331e-01 -7.067159e-01 -1.224043e+00 -1.539169e-01 4.069540e-02 9.343068e-01 -2.100955e-01 9.425220e-01 -6.306782e-01 -3.725417e-01 1.319842e+00 8.302652e-01 2.557145e-01 1.565026e-01 
1.644358e+00 1.979689e+00 -5.927782e-01 -3.360950e+01 -1.359774e+01 1.057778e+01 8.345533e-01 -1.206094e+01 3.252416e+00 -5.272712e+00 -1.391235e+01 7.224308e+00 2.057533e+01 -9.922012e-01 -1.145751e+00 1.218346e-01 -1.655786e+00 -1.173307e-01 6.666909e-01 1.861644e+00 -6.931278e-01 -8.319134e-01 1.745409e+00 1.655874e-01 3.000310e+00 4.145464e-01 -5.310349e-01 -1.080452e+00 1.418094e-01 7.392655e-01 1.513933e+00 -6.032880e-01 -5.379494e-01 -4.342245e-01 -5.841433e-01 1.277990e+00 1.094008e+00 -2.299433e-01 2.399503e-03 
7.168878e-01 -1.878073e+00 -1.250121e-02 -3.508884e+01 -1.367061e+01 1.214816e+01 2.996935e+00 -1.331203e+01 -9.650974e-01 -1.608489e+00 -1.230249e+01 1.057269e+01 2.102637e+01 -1.729811e+00 -2.264683e+00 3.826529e-01 -1.969391e-01 1.639772e+00 -9.083210e-01 1.423459e+00 -1.353295e+00 -1.133024e+00 2.173062e+00 2.296540e+00 1.305898e+00 3.268751e-01 -2.774038e-01 -5.876027e-01 4.241986e-01 9.560960e-01 1.683658e+00 -4.882534e-01 -1.814552e+00 5.042791e-02 -2.259848e-02 6.595225e-01 7.705207e-01 -1.081352e+00 -1.284565e-01 
-7.583565e-01 -4.077476e+00 -9.127322e-01 -3.411315e+01 -8.389411e+00 1.095041e+01 4.520234e+00 -1.359152e+01 -5.115739e+00 3.444081e+00 -1.015098e+01 1.278089e+01 2.126031e+01 -1.883448e+00 -3.166967e+00 8.574484e-01 5.269405e-01 3.689482e+00 -1.349976e+00 -2.136904e+00 -5.322737e-01 -6.970689e-01 2.841043e+00 3.092098e+00 -6.513254e-01 1.542299e-01 2.676258e-01 1.457838e-01 5.733794e-01 1.078181e+00 8.264245e-01 5.683618e-01 -2.481111e+00 5.113918e-01 4.910514e-01 -2.715221e-01 2.389801e-01 -1.750992e+00 -2.046821e-01 
-4.381427e+00 -6.628194e+00 1.336852e-01 -3.256245e+01 -4.390254e+00 7.181551e+00 3.172179e+00 -1.778894e+01 -2.444553e+00 3.583158e+00 -2.469054e+00 7.048901e+00 2.138378e+01 -1.502295e+00 -2.054018e+00 1.857301e+00 7.948658e-01 4.413227e+00 -2.073951e-02 -5.026509e+00 3.523774e-01 2.813173e-01 2.602770e+00 2.109421e+00 -2.078239e+00 -9.179115e-02 9.559034e-01 1.115733e+00 1.923698e-03 1.388881e+00 -5.081073e-01 8.018047e-01 -1.498854e+00 8.055569e-01 2.893336e-01 -1.059578e+00 -5.200971e-01 -1.569365e+00 -2.355247e-01 
-5.223722e+00 -1.148009e+01 3.621371e+00 -3.223799e+01 2.094955e-01 6.311207e+00 -9.937592e+00 -1.248386e+01 5.067986e-01 6.336679e+00 -3.368579e+00 5.729577e+00 2.116777e+01 2.321699e-01 -5.221652e-01 2.251408e+00 3.239216e+00 2.628065e+00 3.064709e+00 -7.318925e+00 1.010995e+00 9.161727e-01 1.729443e-01 1.454047e+00 -4.062579e+00 -3.995312e-01 1.149375e+00 1.694658e+00 -6.687752e-01 1.575312e+00 -1.468707e+00 2.143303e-01 6.608161e-01 6.684168e-01 6.517964e-02 -1.680756e+00 -8.056232e-01 -1.065776e+00 -2.004104e-01 
-4.561905e+00 -8.446856e+00 7.006951e+00 -3.205209e+01 4.096073e+00 1.436406e+01 -1.490670e+01 -1.210398e+01 -2.369780e+00 9.959061e+00 -5.146585e+00 3.707155e+00 2.061368e+01 1.991897e+00 1.991582e+00 -3.047083e-01 5.391330e+00 -3.700553e-01 8.933598e-01 -3.479802e+00 1.902855e+00 -4.929773e-01 -1.790779e+00 5.150797e-01 -4.835302e+00 -5.738680e-01 5.934995e-01 1.417361e+00 -9.499038e-01 1.430328e+00 -1.512934e+00 -1.113055e+00 2.206074e+00 5.098853e-01 3.410583e-02 -1.518727e+00 -5.987126e-01 7.598414e-02 -1.443166e-01 
4.927319e-01 -5.778971e+00 6.907673e+00 -1.817225e+01 5.077484e-01 2.268270e+01 -2.303495e+01 -1.137903e+01 -5.722621e-01 1.120851e+00 -1.541976e+00 -5.861130e+00 1.964771e+01 2.116333e+00 3.283525e+00 -1.405423e+00 6.105269e+00 -1.262412e+00 -7.353741e-01 3.938228e-01 2.034572e+00 1.597658e-02 -3.365962e+00 -1.388476e-01 -4.601674e+00 -6.067839e-01 -8.717749e-01 2.041340e-01 -9.660307e-01 2.954091e-01 -3.840517e-01 -2.583705e+00 2.705647e+00 5.988100e-01 5.097020e-02 -1.592898e-01 -6.136683e-01 1.380189e+00 -4.622678e-02 
2.719829e+00 4.791586e-01 -3.033008e+00 -1.263867e+01 -6.389657e+00 3.462605e+00 -7.678153e+00 -8.827080e+00 -4.369909e+00 -2.762822e+00 -8.069564e-01 -1.133226e+01 1.927447e+01 5.231211e-01 3.129941e+00 -1.063803e+00 6.513477e+00 -1.206205e+00 -3.685975e+00 2.147487e+00 2.390015e+00 9.019445e-01 -3.221412e+00 -8.769397e-02 -1.428771e+00 -7.097477e-01 -1.632166e+00 -1.290768e+00 -3.974565e-01 -1.384767e+00 7.040016e-01 -1.352929e+00 1.049081e+00 2.614020e-01 5.378755e-01 1.124175e+00 -4.808029e-01 2.007471e+00 1.450287e-01 
1.717074e+00 4.745307e-01 1.614234e+00 -1.141835e+01 -8.596980e-01 8.085064e+00 -1.158275e+01 -3.949448e+00 1.586746e+00 -4.132187e+00 -6.232632e+00 -9.759087e+00 1.880346e+01 -3.392316e+00 -7.067482e-02 -2.199198e+00 4.155188e+00 1.125881e+00 -7.564149e+00 3.395667e+00 3.761465e+00 4.735628e-01 9.181187e-02 -1.312907e+00 1.135098e+00 -5.627252e-01 -1.197235e+00 -2.178154e+00 -3.508158e-01 -2.720115e+00 6.210171e-01 1.478210e-01 -1.442662e-01 -4.031575e-02 4.282604e-01 1.891934e+00 -5.157975e-01 1.453447e+00 3.677177e-01 
-2.558470e+00 4.076097e+00 4.334658e+00 -2.861650e+00 -1.251231e+00 3.233002e+00 -9.895363e+00 -3.868689e+00 1.060438e+00 -3.521479e+00 -3.239727e+00 -1.487720e+00 1.748707e+01 -3.414607e+00 -2.785161e+00 -1.895103e+00 -5.574666e-01 1.955806e+00 -2.456898e+00 2.646822e-01 2.346418e+00 1.967607e+00 2.101208e+00 -1.301905e+00 2.333667e+00 1.292461e-01 7.666543e-02 -2.163242e+00 -2.951176e-01 -3.238441e+00 2.356426e-01 2.001580e+00 -6.052371e-01 -4.994994e-01 3.854522e-01 1.539530e+00 -8.476860e-01 5.353032e-02 5.143566e-01 
-1.382970e+01 -7.930814e+00 -7.772151e+00 -2.284818e+00 3.567942e+00 -1.502325e+01 -4.948012e+00 4.949101e+00 -9.196214e-01 1.959239e+00 -6.890124e+00 -5.107906e+00 1.772778e+01 -1.900979e+00 -4.649696e+00 -2.743852e+00 -3.959834e+00 2.616681e-01 -6.108072e-01 6.138938e-01 1.854791e+00 1.624447e+00 3.432399e+00 -2.110730e+00 7.843435e-01 8.123077e-01 1.302743e+00 -9.768912e-01 3.206189e-01 -1.943854e+00 -5.925878e-01 3.167221e+00 -4.494069e-01 -1.219723e+00 1.305258e-01 2.035995e-01 -5.448998e-01 -7.407747e-01 3.841627e-01 
-6.579817e+00 -9.243971e+00 -7.815331e+00 -1.999277e+01 1.175553e+00 2.732269e+00 -9.672111e+00 -1.544263e+00 6.721311e+00 4.697503e+00 -6.987736e+00 -1.989511e+00 2.045854e+01 1.607794e-01 -5.396756e+00 -2.267064e+00 -5.621216e+00 4.041139e-01 2.845257e+00 5.121885e-01 8.458549e-01 2.253763e+00 2.805944e+00 -3.927212e+00 -9.857418e-01 1.174519e+00 9.146589e-01 9.688482e-02 3.917874e-01 4.935845e-01 -6.256930e-01 1.475583e+00 6.287983e-01 -1.170270e+00 -5.765793e-01 -7.242664e-01 1.314070e-02 -9.667767e-01 6.868839e-03 
-5.777146e+00 -1.611392e+01 -6.030033e+00 -2.265197e+01 -7.647492e-01 5.281394e+00 -8.624907e+00 4.162296e+00 6.878545e+00 8.920315e+00 -1.491228e+01 -5.586473e+00 2.137926e+01 1.333707e+00 -3.649333e+00 -4.101235e-01 -3.032205e+00 -1.061212e+00 5.620876e+00 1.024880e+00 -1.586868e+00 9.831138e-01 7.574412e-01 -2.724752e+00 -9.090708e-01 8.354521e-01 2.716796e-01 1.113508e+00 1.303201e-01 1.761925e+00 -2.774833e-01 3.602467e-01 7.710655e-01 -1.288746e+00 -7.762837e-01 -1.020953e+00 1.091576e+00 -2.717398e-01 -2.941421e-01 
-5.780851e+00 -1.881613e+01 -7.871718e+00 -2.078415e+01 2.935685e+00 7.306968e+00 -5.495973e+00 7.539882e-01 8.430171e+00 7.027701e+00 -1.886471e+01 -6.177145e+00 2.153392e+01 -4.586551e-01 -2.800918e+00 -1.103030e+00 1.446642e+00 -5.112193e-01 1.805177e+00 3.203181e+00 -1.784101e+00 -5.946226e-01 -1.826459e-01 -9.291903e-01 -1.653510e+00 1.520182e-01 -1.543046e-01 1.792196e+00 -2.309968e-01 1.577338e+00 -1.364810e-01 -7.839442e-01 3.231065e-01 -8.486657e-01 -9.588656e-01 -7.649200e-01 1.470742e+00 2.585150e-02 -3.947085e-01 
-7.560650e+00 -2.139140e+01 -9.794575e+00 -1.705015e+01 -2.618182e+00 1.079378e+01 -1.911682e+00 -4.134366e+00 3.141518e+00 4.581346e+00 -1.457540e+01 -7.559444e+00 2.136735e+01 -2.328633e-01 -3.800770e-01 -2.674268e+00 1.315862e+00 -6.680815e-01 1.710467e+00 3.123725e+00 -3.273959e+00 -8.327788e-01 -1.780699e-01 1.848139e+00 -2.404715e-01 -1.471523e-01 -1.752555e-01 1.931228e+00 -1.686873e-01 6.462382e-01 2.460118e-01 -1.169733e+00 -5.256669e-01 -1.828114e-01 -7.452040e-01 -7.762542e-01 9.472049e-01 1.611191e-01 -3.572149e-01 
-7.981341e+00 -2.060982e+01 -1.144821e+01 -1.556047e+01 -4.538274e-01 9.001959e+00 2.987180e+00 -6.316439e+00 5.616712e+00 5.953758e+00 -1.180213e+01 -9.270576e+00 2.122458e+01 1.725416e-01 1.929598e+00 -2.289975e+00 9.143849e-02 -4.748562e-01 8.807408e-01 1.078298e+00 -2.553928e+00 -1.632619e+00 -5.509006e-01 1.140052e+00 -1.190784e+00 -3.077215e-01 -2.425429e-01 1.905145e+00 5.981386e-01 2.360593e-01 1.509132e-01 -8.089091e-01 -1.292732e+00 3.562453e-01 -8.573197e-01 -1.132174e+00 3.130158e-01 6.106528e-01 -2.716185e-01 
-5.841218e+00 -1.711746e+01 -1.761313e+01 -1.868450e+01 -2.410401e+00 1.298623e+01 2.752142e+00 -8.672284e+00 4.121380e+00 8.566936e+00 -9.202872e+00 -5.242115e+00 2.079817e+01 1.418308e-01 3.641549e+00 -6.600876e-01 8.765874e-01 1.506656e-01 2.344272e-01 -5.410136e-01 -2.116012e+00 -2.223908e+00 -2.939703e+00 9.766508e-01 -3.348383e-01 -7.207527e-01 -1.090661e+00 1.155176e+00 1.341620e+00 1.114619e+00 2.642794e-01 -1.406407e+00 -1.096605e+00 1.103054e+00 -6.894621e-01 -1.038839e+00 1.744982e-01 8.822429e-01 -1.750201e-01 
-5.777859e+00 -1.130511e+01 -1.541232e+01 -1.950979e+01 4.575134e-01 1.061445e+01 -2.436393e+00 -9.746695e+00 -2.228536e-01 2.280402e+00 -1.585072e+01 -1.328973e+01 2.027991e+01 -1.858717e+00 4.713994e+00 8.805720e-01 2.846575e+00 -1.660270e-01 -1.501349e+00 -1.428112e+00 -5.818483e-01 -4.185657e+00 -4.462702e+00 1.071633e+00 1.446938e+00 -9.192743e-01 -1.620371e+00 2.140166e-01 1.083108e+00 1.505425e+00 2.025897e-02 -1.358353e+00 -7.940539e-02 1.395899e+00 4.547238e-01 8.232336e-02 5.083248e-01 1.140309e+00 1.914402e-02 
-7.953237e+00 -7.836004e+00 -1.111296e+01 -1.069255e+01 -2.320524e+00 1.115967e+01 -1.904963e+00 -1.299930e+01 -5.058240e+00 -8.280490e+00 -7.667848e+00 -7.224059e+00 1.823592e+01 -4.670539e+00 4.003607e+00 2.448560e+00 5.511390e+00 4.989011e-01 -4.130521e+00 -1.106096e+00 1.255273e+00 -3.003570e+00 -3.416364e+00 2.754840e+00 2.851882e+00 -7.164764e-01 -1.302006e+00 -7.040489e-01 -1.337201e-02 3.172404e-01 -8.853902e-02 -8.894335e-01 5.782970e-01 1.251385e+00 1.528088e+00 1.697789e+00 2.869633e-01 5.595613e-01 2.853845e-01 
-1.621891e+01 -1.680582e+00 -1.029544e+01 -5.323563e+00 -1.328901e+00 2.408493e+00 -1.824825e+00 -7.062173e+00 -1.072176e+01 -7.936037e+00 -7.211473e+00 -1.044915e+00 1.790933e+01 -5.523129e+00 2.818652e+00 1.571239e+00 5.301162e+00 -5.476791e-01 -3.728550e+00 9.638126e-01 2.739924e+00 1.030832e+00 9.904701e-02 2.792581e+00 2.917402e+00 -2.141396e-01 -9.138711e-02 -1.394501e+00 -8.987495e-01 -1.148638e+00 -1.378930e-01 1.970325e-01 5.920879e-01 4.405305e-01 2.074011e+00 1.972732e+00 -2.371990e-01 -2.079345e-01 3.749723e-01 
-2.397339e+01 -1.911686e+00 -7.928767e+00 1.779336e+00 9.773117e-01 -3.563394e+00 -3.084121e+00 -3.738180e+00 -5.647017e+00 -3.406666e+00 2.517048e-01 2.894887e+00 1.840107e+01 -4.535995e+00 1.068976e+00 -1.072281e+00 1.235497e+00 -1.012035e-01 -3.099140e+00 1.154509e+00 2.480027e+00 2.808289e+00 3.268367e+00 1.550993e+00 1.727736e+00 3.536022e-01 1.142502e+00 -1.380645e+00 -1.334709e+00 -2.059258e+00 -3.520202e-01 1.116410e+00 1.413093e-01 -3.197754e-01 1.147171e+00 8.282405e-01 -6.598173e-01 -4.656481e-01 2.583439e-01 
-2.538343e+01 -1.740144e-01 -9.148217e+00 7.600736e-01 -3.929800e+00 -6.667680e-01 2.972250e+00 -6.776327e-01 5.225692e+00 3.387252e-01 -5.847587e+00 -3.762194e+00 1.912663e+01 -2.382925e+00 -7.911968e-01 -1.852755e+00 -7.586685e-01 -5.554398e-01 -1.031877e+00 4.020250e-01 1.008427e+00 3.278468e+00 2.058590e+00 4.875612e-01 9.693381e-01 4.205477e-01 1.423547e+00 -9.533572e-01 -6.459241e-01 -1.394247e+00 -1.585925e-01 8.468078e-01 -6.321183e-01 -7.104861e-01 -3.238661e-01 -7.420132e-01 -6.240376e-01 -1.442679e-01 4.884325e-02 
-2.605095e+01 -3.244410e+00 -1.704798e+01 -7.556890e+00 -1.526092e+00 -2.798395e+00 1.469045e+00 -3.791432e+00 1.009480e+00 3.923963e+00 -5.948240e-01 2.773261e+00 1.939528e+01 -5.281317e-01 -1.094692e+00 -2.512986e+00 -1.754982e+00 -1.257320e+00 1.031904e-01 -1.186558e-01 5.221447e-01 1.608465e+00 -2.549332e-01 6.082635e-01 1.497673e+00 2.578993e-01 1.070674e+00 -2.741762e-01 5.197207e-01 1.485209e-01 -4.272260e-01 2.637104e-01 -5.768985e-01 -5.373533e-01 -1.125340e+00 -1.641954e+00 -4.612329e-01 -4.148705e-02 -1.113574e-01 
-2.709475e+01 -4.970204e+00 -1.499961e+01 -4.448792e+00 -2.854398e+00 -3.133393e+00 -2.091283e+00 -1.993412e+00 2.342333e+00 -1.308401e+00 -4.350402e+00 3.862588e+00 1.951497e+01 -4.093245e-01 -8.663006e-01 -9.380289e-01 -1.748327e-01 -7.625836e-01 -1.095676e+00 -1.560196e+00 1.664353e-01 1.141319e-02 -1.849369e+00 1.437582e-01 2.311093e+00 7.792816e-02 7.309161e-01 3.351312e-01 1.308897e+00 9.893654e-01 -5.145907e-01 -1.157710e-01 -1.306164e-01 -6.335630e-01 -1.678533e+00 -1.273665e+00 -9.659388e-02 -1.209150e-01 -1.187782e-01 
-2.575838e+01 -4.987051e+00 -1.756800e+01 -4.391141e+00 -5.846988e+00 -1.814130e+00 -1.145634e+00 -4.695671e-01 3.836987e+00 -3.857769e+00 2.544430e+00 6.570862e+00 1.949640e+01 -1.694225e-01 -2.643536e-01 1.068959e+00 1.686183e+00 -2.133762e+00 -1.748688e+00 -7.488726e-01 2.142565e-01 -1.184882e+00 -2.987423e+00 -5.832698e-01 8.494232e-01 -3.187523e-02 1.010477e+00 6.803347e-01 1.992785e+00 1.161156e+00 -4.199588e-01 -1.745468e-01 1.580631e-01 -8.574573e-01 -1.632371e+00 -4.518069e-01 -3.871325e-02 -3.555242e-01 -2.790049e-02 
-2.757634e+01 -3.634197e+00 -1.357835e+01 -1.696965e+00 -5.582270e+00 -6.637279e+00 -3.521393e+00 -1.506389e+00 3.869005e+00 -5.017254e+00 -6.698423e+00 5.894472e+00 1.946572e+01 1.092302e+00 4.692899e-01 2.900757e+00 2.467576e+00 -2.690173e+00 -6.847929e-01 6.405153e-02 -2.005444e+00 -3.717524e+00 -2.943488e+00 6.003585e-01 6.888878e-01 -2.845592e-02 1.585268e+00 7.577900e-01 1.833096e+00 2.147234e-01 -2.881564e-01 3.266552e-01 5.683493e-01 -6.698180e-01 -9.081925e-01 3.635785e-01 1.925406e-01 -7.966094e-01 8.192550e-02 
-2.665727e+01 -5.234181e+00 -1.241381e+01 -5.018870e-01 -1.083096e+01 -9.789894e+00 -1.560264e+00 -2.963662e+00 -5.678265e+00 -9.158724e+00 -2.337162e+00 6.004435e+00 1.926053e+01 3.773440e+00 1.639187e+00 5.531546e+00 2.729594e+00 -2.393319e+00 -9.749850e-01 -1.404641e-01 -2.679203e+00 -4.688922e+00 -1.966908e+00 1.863971e-01 5.311552e-01 1.715889e-01 1.477620e+00 4.243504e-01 1.253821e+00 -8.938864e-01 2.245565e-01 6.360235e-01 1.894331e-01 -5.864303e-02 2.570572e-01 1.102515e+00 -4.942446e-02 -9.512531e-01 1.566801e-01 
-2.118380e+01 -2.500189e+00 -3.072917e+00 5.944458e+00 -1.381327e+01 -2.569475e+00 -1.563710e+00 -1.077358e+01 -1.148766e+01 -1.337536e+01 1.092186e+00 7.590240e+00 1.949062e+01 5.545585e+00 1.970880e+00 5.996156e+00 3.770789e-01 -2.073587e+00 1.507487e-01 9.773459e-01 -1.735925e+00 -2.777529e+00 -5.417336e-01 7.216280e-01 -1.512820e+00 3.858236e-01 4.554383e-01 -3.462083e-01 2.338822e-01 -1.653299e+00 3.393896e-01 4.969713e-01 -1.817991e-01 8.783828e-01 1.274973e+00 1.211627e+00 -4.278981e-01 -9.904764e-01 1.430599e-01 
-1.008745e+01 2.641878e+00 4.837011e+00 5.436117e+00 -1.369808e+01 -8.722957e+00 -2.826795e+00 -9.231982e+00 -1.192929e+01 -9.513254e+00 -4.188893e-01 8.378754e+00 2.034189e+01 4.992034e+00 1.106604e+00 5.790364e+00 -1.738000e+00 -1.319272e+00 1.013658e+00 -2.583541e-01 -2.137180e-01 -3.695934e-01 1.324273e+00 -8.910269e-01 -2.805988e+00 5.443853e-01 -9.579266e-01 -1.179460e+00 -8.480222e-01 -1.645379e+00 1.890049e-01 5.923728e-01 -4.269318e-01 1.154395e+00 1.102607e+00 8.288777e-01 -2.127885e-01 -5.444220e-01 3.971994e-02 
-8.133320e+00 2.282171e+00 7.777020e+00 -2.780572e+00 -1.451665e+01 -6.417004e+00 1.998603e+00 -7.051856e+00 -6.893128e+00 -7.548657e+00 -4.049419e+00 -2.856786e+00 2.085415e+01 2.760196e+00 -9.954603e-01 3.940759e+00 -3.565122e+00 -1.530249e+00 8.057421e-01 -7.859990e-01 1.153728e+00 4.976769e-01 1.469055e+00 -1.000420e+00 -2.594923e+00 5.004452e-01 -1.545174e+00 -1.372823e+00 -1.323811e+00 -6.277273e-01 9.293256e-02 1.374042e-01 -7.074084e-01 9.658210e-01 8.335871e-02 4.637979e-01 1.670666e-01 6.008778e-01 -6.672573e-02 
-8.222345e+00 -2.092343e+00 1.111304e+01 -4.829374e+00 -1.707564e+01 -2.797838e+00 -4.633191e+00 -5.893116e+00 -9.823500e+00 -5.450713e+00 -4.221494e+00 -2.801993e+00 2.130069e+01 3.765011e-01 -2.774942e+00 2.319133e+00 -3.526203e+00 -1.719964e+00 1.659382e+00 -1.393450e+00 1.647945e+00 -8.134878e-01 1.172086e+00 -1.652160e-02 -1.649904e+00 3.128778e-01 -1.205567e+00 -8.796924e-01 -1.551160e+00 2.379437e-01 1.755414e-01 -4.170246e-01 -2.499480e-01 6.214474e-01 -4.673778e-01 1.860329e-01 6.071492e-01 1.033292e+00 -1.257705e-01 
-8.315372e+00 -5.110381e+00 1.349286e+01 -6.748406e+00 -1.977574e+01 -1.503324e+00 -4.590508e+00 -6.674380e+00 -1.005217e+01 -8.061362e+00 -2.008610e+00 2.060010e-01 2.151345e+01 1.274821e-01 -2.952460e+00 1.112716e+00 -1.867456e+00 -1.408578e+00 5.149079e-01 -1.992148e+00 2.162348e+00 -2.138788e+00 1.853349e+00 1.119708e+00 9.135271e-01 1.679487e-01 -4.568689e-01 -2.621232e-02 -1.447069e+00 6.769731e-01 4.879076e-01 -6.785083e-01 -5.694303e-02 6.409536e-02 -8.814245e-02 2.551882e-01 5.991596e-01 6.054906e-01 -1.061250e-01 
-8.113921e+00 -7.536559e+00 1.357475e+01 -1.021098e+01 -1.966836e+01 -2.882885e+00 -6.499493e+00 -1.180993e+00 -1.441721e+01 -3.396470e+00 -1.521902e+00 -1.402158e+00 2.157664e+01 2.805584e-01 -2.313359e+00 -5.514156e-01 -1.397115e+00 -5.024004e-01 -9.260478e-01 -9.050196e-01 2.389209e+00 -1.388250e+00 2.062290e+00 1.084655e+00 6.062475e-01 8.178081e-02 1.730234e-01 5.820898e-01 -1.261944e+00 4.122376e-01 7.622277e-01 -5.774389e-01 -9.281039e-04 -7.196609e-01 9.696876e-01 2.499358e-01 8.897234e-02 1.364316e-01 -4.912670e-02 
-7.550121e+00 -9.758021e+00 1.210974e+01 -9.427049e+00 -2.026318e+01 -3.799941e+00 -7.028987e+00 1.403823e+00 -1.529022e+01 6.909649e-01 1.993262e-01 1.010932e+00 2.155593e+01 5.238231e-01 -1.357314e+00 -1.859311e+00 -1.244801e+00 3.005075e-01 -1.294084e+00 -1.314930e+00 1.103573e+00 3.443457e-01 2.299894e+00 1.444790e+00 -6.955454e-01 8.536892e-02 3.051823e-01 8.014656e-01 -1.041718e+00 -2.635396e-01 1.017616e+00 1.333461e-02 -1.132007e-01 -1.259085e+00 1.615522e+00 1.709632e-01 -5.633671e-01 -2.209302e-01 -1.906965e-02 
-7.202179e+00 -1.133532e+01 9.047523e+00 -1.047563e+01 -1.934392e+01 -6.279768e+00 -7.939048e+00 2.013826e+00 -1.414573e+01 4.845745e-01 9.781469e-02 -1.732207e-01 2.168836e+01 1.043447e+00 -6.620668e-01 -2.504574e+00 -1.776342e+00 1.236631e+00 -3.233161e-01 -1.736700e+00 -1.420972e+00 2.793383e+00 2.198493e+00 2.657995e-01 -1.632093e-01 1.085342e-01 2.646948e-01 7.023516e-01 -5.693368e-01 -5.515025e-01 1.151589e+00 7.038835e-01 -1.563845e-01 -1.044301e+00 1.115082e+00 1.485765e-01 -1.082383e+00 2.769569e-02 -3.758968e-02 
-6.152128e+00 -9.997571e+00 6.459926e+00 -1.284009e+01 -1.843542e+01 -6.275303e+00 -1.044538e+01 -2.753926e+00 -8.466184e+00 1.497584e+00 4.405479e+00 -3.886195e+00 2.188443e+01 1.271949e+00 2.292221e-01 -3.119294e+00 -2.995540e+00 2.809985e+00 2.802151e-01 -2.142311e+00 -2.227987e+00 3.848004e+00 2.640063e+00 -1.287699e+00 1.936046e-01 5.922375e-02 7.331976e-02 4.038386e-01 -1.399600e-01 -3.254312e-01 1.042922e+00 1.165122e+00 2.369314e-01 -9.937036e-02 -1.219946e-01 -2.782555e-01 -1.501949e+00 5.375882e-02 -8.263531e-02 
-3.595680e+00 -1.072712e+01 3.876791e+00 -1.738617e+01 -1.439908e+01 -3.261784e+00 -1.347480e+01 -6.206978e+00 -3.862307e+00 7.192686e+00 -2.295981e+00 2.303585e-01 2.195506e+01 1.229969e+00 4.051310e-01 -2.768108e+00 -3.279257e+00 4.000806e+00 1.806220e+00 -1.273251e+00 -1.166518e+00 2.435332e+00 2.635088e+00 -2.961014e+00 3.001510e-01 -9.309502e-02 -9.867753e-02 8.767679e-02 2.582740e-01 4.735399e-01 2.203745e-01 1.235559e+00 4.353775e-01 6.622800e-01 -1.218528e+00 -9.958641e-01 -8.824792e-01 -3.748862e-01 -1.009240e-01 
-2.993624e+00 -8.916010e+00 -9.013631e-01 -2.094948e+01 -8.685671e+00 -3.907858e+00 -1.497267e+01 -5.625710e+00 -1.191906e+00 1.053723e+01 -5.042274e+00 1.777165e+00 2.171869e+01 7.971609e-01 1.282803e-01 -2.427344e+00 -2.120500e+00 4.133029e+00 3.466756e+00 -3.619973e-01 4.794941e-01 -8.660140e-02 6.903188e-01 -4.451550e+00 -6.584314e-01 -2.269930e-01 -8.087502e-02 -3.048913e-01 6.999027e-01 1.579328e+00 -8.529826e-01 7.070962e-01 7.082547e-01 3.631614e-01 -1.383562e+00 -1.445447e+00 -2.305748e-01 -4.825931e-01 -7.333437e-02 
-2.631584e+00 -9.850441e+00 -1.112370e+00 -2.281722e+01 -4.214766e+00 1.567607e+00 -1.204166e+01 -2.382874e+00 -5.606209e+00 9.140193e+00 -9.983381e+00 -1.504146e+00 2.130575e+01 7.874540e-01 -1.732119e-01 -1.559180e+00 1.538370e-01 1.676982e+00 4.261209e+00 -4.499699e-01 5.366877e-01 -1.331951e+00 -1.805955e+00 -2.564671e+00 -1.611622e+00 -2.529776e-01 -9.667641e-03 -2.571023e-01 9.623087e-01 2.068878e+00 -1.431396e+00 -5.729386e-01 4.267329e-01 -8.269517e-01 -4.492363e-01 -7.935022e-01 4.652446e-01 -2.126716e-01 -9.409408e-03 
-2.648372e+00 -9.794508e+00 -3.182213e+00 -2.072707e+01 -2.862434e+00 8.643780e+00 -1.297193e+01 -2.268508e+00 -8.027240e+00 3.975424e+00 -1.400857e+01 -6.311100e+00 2.107412e+01 1.088832e+00 -1.006063e+00 -2.242447e-01 3.184553e+00 -2.930159e-01 2.588201e+00 9.873216e-01 -1.263783e+00 -1.186165e+00 -2.366651e+00 -2.638745e+00 -1.263474e+00 -2.275068e-01 1.650882e-02 6.672493e-02 9.622754e-01 1.749491e+00 -1.189072e+00 -1.407825e+00 6.671055e-02 -1.619207e+00 3.867033e-01 5.891860e-01 6.710476e-01 1.372683e-01 4.248482e-02 
1.689636e-01 -1.115393e+01 -2.778683e+00 -1.672819e+01 -8.925787e+00 1.176844e+01 -1.672502e+01 -5.202140e+00 -7.104398e+00 1.443810e+00 -1.063619e+01 -3.783620e+00 2.101245e+01 1.035796e+00 -3.132084e-01 9.418861e-01 4.412607e+00 -9.431496e-01 -6.191956e-01 1.857539e-01 -4.429638e+00 7.389314e-01 1.960614e-01 -1.541194e+00 -4.606859e-01 -1.398851e-01 -1.176148e-01 4.214529e-01 6.284050e-01 6.606663e-01 -3.016368e-01 -1.297065e+00 -1.542387e-01 -1.433790e+00 5.230712e-01 1.530527e+00 4.326923e-01 2.104286e-01 5.673983e-02 
1.050262e+00 -1.329458e+01 -1.189430e+00 -8.071224e+00 -7.795240e+00 3.932727e+00 -7.694382e+00 -1.053499e+01 -6.373635e+00 2.552161e+00 -1.790960e+01 -3.400467e+00 2.072781e+01 7.555342e-01 5.319031e-01 1.133500e+00 4.497569e+00 -5.022672e-01 -1.132166e+00 -3.463064e-01 -5.133380e+00 8.114735e-01 2.635240e+00 -1.608051e+00 -5.475583e-01 -7.111511e-02 -1.915759e-01 6.000199e-01 1.783671e-01 -5.942124e-01 1.317839e-01 -3.344595e-01 -5.438815e-01 -4.389030e-01 1.484804e-01 1.280568e+00 8.571388e-01 1.569740e-01 5.611349e-02 
6.980778e-01 -9.666446e+00 2.600669e+00 -7.082104e+00 -6.464111e+00 8.271556e-01 -1.375167e+01 -2.039783e+01 -2.738354e+00 1.083213e+01 -1.573884e+01 -5.262891e+00 2.077948e+01 3.660291e-01 1.165069e+00 9.039728e-01 2.800661e+00 2.734237e-01 -3.639332e-01 -5.543491e-01 -4.697464e+00 2.845853e-01 3.345732e+00 -9.165564e-01 -9.174371e-01 -4.747429e-02 -1.574712e-01 2.586947e-01 -1.546832e-01 -1.061923e+00 1.436685e-01 3.756483e-01 -1.529150e-01 9.212712e-01 -4.320208e-01 -2.378293e-02 9.581985e-01 2.211521e-01 2.369433e-02 
8.647417e-01 -7.878733e+00 -2.043879e-01 -3.062264e+00 -6.604609e+00 8.453596e+00 -1.619014e+01 -2.033757e+01 -6.152894e+00 1.245746e+01 -1.949750e+01 -8.309256e+00 2.083503e+01 4.658360e-01 1.254897e+00 6.865476e-01 1.019464e+00 -2.423828e-01 7.882720e-01 -1.362035e+00 -3.324385e+00 -2.165895e-01 2.461356e+00 1.334630e+00 -2.502283e-01 6.855202e-03 -5.975388e-02 -7.611369e-02 -1.766198e-01 -1.068566e+00 2.956312e-02 2.716014e-02 2.091697e-01 1.582803e+00 -4.102767e-01 -8.925077e-01 8.944133e-01 4.978740e-01 -1.505674e-02 
2.091869e+00 -8.036506e+00 1.248660e+00 -5.229370e+00 -8.153984e+00 7.688344e+00 -1.524888e+01 -2.378817e+01 -5.791842e+00 1.321982e+01 -1.442501e+01 -5.916411e+00 2.072147e+01 3.932890e-01 6.187681e-01 3.919462e-01 8.420466e-01 -3.547493e-01 2.988273e-01 -7.095718e-02 -7.277796e-01 -9.071409e-01 1.640889e-01 1.778458e+00 4.964094e-01 -6.039868e-02 -2.310526e-02 -1.517532e-01 -2.496940e-01 -5.616948e-01 8.683087e-02 -4.085893e-01 3.745007e-01 1.802611e+00 -2.283369e-01 -1.155155e+00 2.205476e-01 4.156056e-01 -4.402233e-02 
2.682546e+00 -7.835065e+00 2.919313e+00 -3.900271e+00 -8.162217e+00 4.443493e+00 -1.375595e+01 -2.546174e+01 -5.929839e+00 1.366510e+01 -1.189336e+01 -4.324849e+00 2.079109e+01 4.431348e-01 4.244854e-01 5.064144e-01 1.340477e-01 -4.036512e-02 -1.327745e+00 4.578463e-01 7.957929e-01 -6.440469e-01 -2.364768e-01 1.516508e+00 1.234888e+00 -1.399366e-01 -5.433668e-02 -4.741299e-03 -3.889901e-01 -6.099983e-02 2.237743e-01 -5.460162e-01 4.175214e-01 1.444572e+00 1.974799e-01 -8.067656e-01 -5.423321e-01 1.214960e-01 -6.884510e-02 
1.755621e+00 -6.594439e+00 2.998550e+00 -2.452868e+00 -7.459053e+00 4.326344e+00 -1.532355e+01 -2.147463e+01 -7.385586e+00 1.104876e+01 -1.064862e+01 -4.773048e+00 2.049946e+01 2.618533e-01 8.215094e-01 -2.544308e-01 4.348947e-01 6.065692e-01 -1.348871e+00 4.082140e-01 2.255501e+00 -6.433704e-01 -1.081129e+00 9.524307e-02 4.180327e-01 -1.941900e-01 -4.232065e-02 1.203914e-01 -3.561174e-01 1.783905e-01 1.909444e-01 -3.903094e-01 2.739199e-01 5.597473e-01 6.457861e-01 -2.528882e-01 -5.454814e-01 -9.802177e-02 -6.643655e-02 
3.248540e+00 -6.477340e+00 1.452739e+00 -3.780277e+00 -7.153900e+00 3.495871e+00 -1.386358e+01 -1.751537e+01 -8.576257e+00 1.236061e+01 -1.380316e+01 -2.706496e+00 2.024636e+01 2.598704e-01 1.129820e+00 -9.352144e-01 9.180409e-01 3.958296e-01 -1.117960e+00 4.859869e-01 2.406833e+00 6.389245e-01 -9.498633e-01 -5.354227e-01 3.964401e-01 -2.704746e-01 -1.270772e-01 5.785264e-02 -2.033579e-01 3.893690e-01 9.107601e-02 -1.560114e-01 3.533645e-01 -2.255083e-01 7.907516e-01 -1.077101e-01 -1.668784e-01 -1.458637e-01 -6.559862e-02 
3.118139e+00 -4.607822e+00 7.097931e-01 -3.114893e+00 -5.625297e+00 1.417799e+00 -1.315400e+01 -1.648385e+01 -7.685485e+00 8.466417e+00 -1.299390e+01 -4.635424e+00 2.002289e+01 2.733179e-01 8.680574e-01 -6.678265e-01 1.342003e+00 3.818752e-01 -1.757613e+00 1.284572e+00 1.265437e+00 1.680304e+00 -7.436589e-01 7.701645e-02 4.255246e-01 -3.273125e-01 -1.751266e-01 -9.562268e-02 2.731627e-02 1.280006e-01 1.567331e-01 1.056384e-01 2.461476e-01 -6.551317e-01 4.393730e-01 -7.778869e-02 3.040374e-01 4.597611e-02 -7.583109e-02 
3.300639e+00 -3.179273e+00 -6.123809e-01 1.020947e+00 -7.099947e+00 3.079670e-01 -1.241079e+01 -1.592297e+01 -2.585267e+00 1.020695e+01 -1.339783e+01 -2.411460e+00 1.967700e+01 -1.979834e-01 6.904745e-01 -3.036775e-01 1.627338e+00 5.273619e-01 -1.903431e+00 1.786490e+00 1.632833e-01 2.147874e+00 -9.437621e-01 6.912290e-01 5.018239e-01 -4.013685e-01 -2.119471e-01 -6.215096e-03 1.793063e-01 -3.122542e-01 1.995012e-01 5.160978e-01 9.895005e-02 -4.626425e-01 -1.880924e-01 -3.637111e-01 3.414359e-01 -2.369755e-01 -7.624774e-02 
3.096161e+00 -3.903186e+00 6.919777e-01 1.856533e+00 -5.576653e+00 -2.867768e+00 -9.627083e+00 -1.594365e+01 -1.979561e+00 8.407293e+00 -1.046620e+01 -2.792943e+00 1.914757e+01 -3.848529e-01 5.630688e-01 -4.336179e-01 7.202490e-01 1.324468e+00 -4.279436e-01 9.887003e-01 1.016171e-01 7.990201e-01 -1.473123e+00 1.002104e+00 5.952214e-01 -5.078985e-01 -2.348881e-01 3.344185e-01 3.231369e-01 -6.482447e-01 -2.144639e-01 8.849629e-01 -2.029914e-01 -6.966086e-02 -6.173407e-01 -4.285868e-01 2.811070e-01 -3.501909e-01 -5.586907e-02 
2.269612e+00 -3.377285e+00 -5.674079e-02 1.870702e+00 -4.541412e+00 -3.878502e+00 -6.694585e+00 -1.696906e+01 -6.898491e-01 7.671360e+00 -1.161086e+01 -1.118617e+00 1.867717e+01 -4.707796e-01 1.251239e+00 -1.557873e-01 -3.323532e-01 9.220392e-01 7.976949e-01 1.128673e+00 6.755306e-01 1.391044e-01 -2.403687e+00 7.092131e-01 -8.732859e-01 -5.614203e-01 -2.421129e-01 4.162954e-01 5.174677e-01 -4.652813e-01 -4.551495e-01 6.107183e-01 -4.959033e-01 1.794895e-01 -5.818630e-01 -1.697632e-01 3.340002e-01 -3.923102e-01 -2.893728e-02 
1.709388e+00 -1.693471e+00 -1.736117e+00 6.147373e-02 -2.822223e-01 1.371315e+00 -1.106860e+01 -1.545273e+01 -4.638093e+00 2.368599e+00 -8.876863e+00 -2.305738e+00 1.798331e+01 -7.647247e-01 2.259768e+00 8.739131e-01 -9.193751e-01 -8.877831e-01 1.316639e+00 5.985232e-01 6.610092e-01 -4.020145e-01 -2.156631e+00 1.473559e+00 -6.378752e-01 -5.266320e-01 -3.312965e-01 1.356934e-01 5.572975e-01 7.474736e-02 -5.853703e-01 -2.009772e-01 -2.826836e-01 3.729789e-01 1.491283e-01 3.280783e-01 2.159084e-01 -2.018967e-01 -3.064703e-02 
1.640127e+00 1.972065e+00 -1.772705e-01 2.567104e-01 -5.136967e+00 2.176900e+00 -6.046667e+00 -1.279078e+01 -5.604786e-01 1.207863e+00 -1.064644e+01 -7.021492e+00 1.745203e+01 -1.218612e+00 1.923602e+00 1.629895e+00 1.207440e-01 -6.422595e-01 2.778690e-01 -4.979381e-01 7.810346e-01 -1.609242e-01 -1.450824e+00 2.125502e+00 -8.431787e-01 -5.366882e-01 -4.094415e-01 -5.499421e-01 1.259786e-01 2.413971e-01 -2.245041e-01 -8.397874e-01 -4.170900e-01 8.899509e-02 2.560149e-01 6.767438e-01 2.380199e-01 2.389392e-01 -7.923715e-02 
-4.127206e-01 4.720976e+00 5.121808e+00 -1.933347e+00 -9.717791e+00 6.877254e-01 -6.958426e+00 -1.472774e+01 -4.054319e+00 8.558893e-01 -3.580617e+00 -3.030881e+00 1.712698e+01 -1.667419e+00 9.053542e-01 1.460028e+00 8.674372e-01 -8.202337e-01 -1.172917e+00 3.885878e-01 1.913759e+00 1.694676e+00 -3.091624e-01 1.373501e+00 -4.293159e-01 -6.734997e-01 -2.864062e-01 -1.043611e+00 -4.575472e-01 1.745245e-01 1.993221e-01 -6.695906e-01 4.555357e-03 1.716597e-02 2.082301e-01 7.970785e-01 -3.082135e-02 8.252998e-02 -1.184304e-01 
-2.762394e+00 3.033503e+00 4.663774e+00 3.471833e+00 -3.034926e+00 -2.147362e+00 -1.123936e+01 -1.342637e+01 -1.786357e+00 1.173592e+00 -3.631474e+00 -4.971940e+00 1.642189e+01 -2.066640e+00 -8.212649e-01 1.810480e-01 -1.877391e-02 -2.342561e-01 -2.156465e+00 -8.518092e-01 4.941310e-01 3.708333e-01 5.629783e-02 1.949342e+00 2.171306e-01 -8.841721e-01 -4.482479e-02 -8.824895e-01 -9.108594e-01 -5.318557e-01 -2.244654e-01 -2.192277e-01 4.168438e-01 6.710897e-02 -1.678298e-02 5.576364e-01 -3.334950e-01 4.234560e-02 -7.102432e-02 
-4.426448e+00 2.302581e+00 3.143501e+00 2.791099e+00 -5.434412e+00 -2.331138e+00 -6.529311e+00 -5.566132e+00 4.448227e+00 8.399220e-01 -5.516838e+00 -5.477094e+00 1.513088e+01 -1.772742e+00 -1.585851e+00 -6.893994e-01 2.300634e-02 -9.517451e-02 -8.141474e-01 7.982355e-01 8.902909e-01 3.732574e-01 1.075201e+00 1.407533e+00 -7.553800e-01 -9.450420e-01 2.157986e-01 -3.818857e-01 -9.303807e-01 -8.242699e-01 -3.975420e-01 1.148185e-01 2.611870e-01 5.342829e-02 -2.541099e-01 1.642421e-01 -5.055311e-01 -6.438659e-02 6.617872e-02 
-6.686208e+00 -9.250618e-01 1.717123e+00 -2.199382e+00 -8.449937e+00 -7.095992e+00 -1.052027e+01 -1.490093e+01 -2.957585e+00 1.497336e+00 6.838119e-02 -4.712732e+00 1.402922e+01 -1.390075e+00 -1.243242e+00 -1.849688e+00 -2.116319e+00 -2.127116e+00 -9.976543e-01 1.381457e+00 1.628314e+00 4.158702e-01 6.451761e-01 4.410115e-01 -4.684187e-01 -7.560387e-01 4.155461e-01 2.200969e-01 -5.917870e-01 -5.248020e-01 -4.007401e-01 2.260871e-01 2.796739e-01 5.624411e-01 2.781191e-01 -1.712473e-01 -9.048020e-01 -7.651181e-02 2.020254e-01 
-7.314521e+00 -1.228999e+00 3.148137e+00 1.017292e+00 -7.486157e+00 -9.086968e-01 -3.326793e+00 -9.539011e+00 -1.602418e+00 6.070022e+00 1.607121e+00 -6.937385e+00 1.359811e+01 -9.267090e-01 -7.930855e-01 -2.176507e+00 -2.205140e+00 -1.861514e+00 -1.178229e+00 5.778893e-01 1.613809e+00 4.016080e-01 2.176088e-01 -3.999892e-01 -4.084742e-01 -4.066729e-01 3.699781e-01 4.063455e-01 -2.874513e-01 -2.515826e-01 -1.746896e-01 9.398478e-03 -1.007728e-01 5.424836e-01 4.079376e-01 -3.909006e-01 -8.268799e-01 9.625348e-02 2.216434e-01 
-8.268731e+00 -1.416919e+00 -4.586983e+00 -6.222860e+00 -1.264463e+01 -7.846853e+00 -5.933333e+00 -3.298365e+00 3.318316e+00 1.784422e+00 -4.988396e+00 -6.583888e+00 1.340808e+01 -4.119256e-01 -1.171633e-01 -2.034333e+00 -1.528711e+00 -1.354787e+00 -8.439881e-01 6.567335e-01 2.944577e+00 1.747254e+00 -3.711426e-01 -1.670907e+00 -3.388813e-01 -1.432296e-01 2.471082e-01 2.928080e-01 -2.271163e-02 1.851646e-01 2.051385e-01 6.415737e-02 -1.370603e-01 3.963294e-01 4.008413e-01 -2.621389e-01 -5.494755e-01 3.286676e-02 1.489061e-01 
