-1.573613e+01 8.728638e+00 -5.153152e+00 3.977358e-01 -8.239119e+00 -6.134999e+00 1.268682e+01 3.559754e-01 -6.549710e+00 1.459781e+00 6.465495e+00 -5.728512e-01 1.789147e+01 -2.829253e+00 -5.280138e-01 -2.023732e+00 -1.233078e+00 9.734350e-01 2.314935e+00 -1.663339e+00 4.671183e-01 1.461287e+00 -1.340575e+00 4.234237e-01 1.526363e+00 2.900553e-01 1.250272e-02 2.762800e-01 2.197832e-01 3.001492e-02 3.880972e-02 -5.157339e-01 -2.231281e-01 9.603453e-02 2.907150e-01 3.727933e-02 -6.949505e-01 -6.658085e-02 1.929108e-02 
-2.280120e+01 5.953784e+00 -1.185204e+01 -4.400784e+00 -6.187776e+00 -5.779954e-01 6.056489e+00 -2.294865e+00 7.538988e-01 1.454607e+00 1.511554e+01 6.753304e+00 1.838174e+01 -3.300275e+00 -1.184676e-01 -1.719311e+00 -1.136051e+00 9.967842e-01 1.686230e+00 -2.655433e+00 7.874923e-01 2.635397e+00 -1.151350e+00 -1.559602e+00 1.619258e+00 3.983103e-01 4.240054e-01 4.175453e-01 5.766177e-01 2.137777e-01 -4.174318e-02 -9.147785e-01 -3.174515e-02 1.104203e-01 -7.565103e-02 5.689853e-02 -9.767810e-01 -2.651973e-01 -2.491817e-02 
-2.634987e+01 7.475996e+00 -1.192237e+01 -3.368393e+00 -4.397615e+00 2.661177e+00 7.685292e+00 4.016987e+00 -2.895080e+00 -5.240510e+00 4.257592e+00 3.395887e+00 1.909661e+01 -2.531229e+00 6.486129e-01 -1.077027e+00 -1.131516e+00 1.155809e+00 5.061869e-02 -2.282932e+00 7.871040e-01 2.327807e+00 -1.248792e+00 -2.059816e+00 1.147012e+00 3.323832e-01 7.847018e-01 1.821605e-01 4.993664e-01 3.499340e-01 1.236447e-02 -8.155154e-01 3.744617e-01 6.707325e-02 -3.494406e-01 1.361380e-01 -3.018201e-01 -2.769529e-01 -9.416014e-02 
-2.693064e+01 8.762621e+00 -1.036510e+01 -3.399457e+00 -5.175950e+00 -2.101938e+00 1.910419e+00 2.462931e+00 4.799960e+00 -9.468238e-01 -2.285619e-01 5.539069e+00 1.928045e+01 -8.582384e-01 9.713993e-01 3.860040e-01 -2.149699e-01 6.735321e-01 -1.126799e+00 -1.512268e+00 8.592268e-01 6.497716e-01 -1.101975e+00 -3.218861e+00 3.900523e-01 1.443005e-01 1.026411e+00 -4.049150e-01 -6.909370e-04 3.066857e-01 -5.330703e-02 -1.578800e-01 1.001672e+00 9.784704e-02 -7.562483e-01 -1.882126e-01 3.549269e-01 -6.191057e-01 -1.555378e-01 
-2.632756e+01 1.056728e+01 -1.128176e+01 -5.760509e+00 -2.965987e+00 -5.119934e+00 3.345195e+00 1.912597e+00 3.066294e+00 -3.583462e+00 3.838463e+00 5.769325e+00 1.910403e+01 -1.267628e-01 -1.621447e-01 -5.795574e-01 5.605152e-02 1.196883e+00 -3.561273e-01 -3.626131e-01 7.666173e-01 7.068962e-01 -6.845730e-01 -2.560469e-01 7.562013e-01 -5.374050e-02 1.060024e+00 -9.920542e-01 -1.638969e-01 2.351740e-01 -2.892998e-01 5.103859e-01 1.040049e+00 9.639076e-02 -8.073543e-01 -2.855398e-01 4.125816e-01 -7.053311e-01 -1.868177e-01 
-2.710355e+01 9.265137e+00 -1.024233e+01 -4.279575e+00 -3.535930e+00 -2.321434e+00 6.651968e-01 3.053463e+00 1.022070e+00 -4.883791e+00 -7.692048e-01 7.516847e+00 1.909953e+01 6.295487e-01 -1.737664e+00 -1.971500e+00 -1.964070e-01 7.097118e-01 1.100203e+00 1.392765e+00 1.286971e+00 -3.353894e-01 -2.374522e+00 -6.868520e-01 -1.280865e+00 -1.863169e-01 1.026338e+00 -1.245604e+00 1.330688e-01 1.213543e-01 -8.234590e-02 5.742248e-01 6.931602e-01 -1.499768e-01 -6.331038e-01 -1.379230e-01 1.230406e-01 -4.966184e-01 -1.657713e-01 
-2.689723e+01 6.414014e+00 -1.488154e+01 -2.648077e+00 7.667925e-01 9.902881e-01 6.494837e+00 7.554808e+00 2.528346e+00 -6.694891e+00 3.247679e+00 6.188004e+00 1.891837e+01 2.024997e+00 -2.957126e+00 -7.177590e-01 3.507199e-02 -3.087799e-01 1.489048e+00 1.464798e+00 1.055186e+00 -1.216384e+00 -2.040217e+00 -1.262913e+00 -1.544185e+00 -4.363966e-01 1.197982e+00 -6.224747e-01 9.516056e-01 3.099316e-02 -1.889502e-01 7.280363e-02 -1.351610e-01 -2.859842e-01 -7.740306e-01 -2.975774e-02 -8.192420e-01 8.910019e-02 -2.742596e-02 
-2.349806e+01 2.150935e+00 -1.842270e+01 -5.937708e+00 -3.493780e+00 3.439658e-01 7.299422e+00 6.076680e+00 3.391987e+00 -1.126372e+01 -3.367430e+00 -1.074598e+00 1.844170e+01 3.197571e+00 -3.859132e+00 1.120449e+00 4.022912e-01 1.014634e+00 8.217378e-01 1.039827e+00 -3.494143e-02 -1.554107e+00 -1.113768e+00 -2.100225e+00 -9.428465e-01 -4.932280e-01 1.090894e+00 2.443621e-01 1.143808e+00 1.657623e-01 -9.332830e-02 -2.692854e-01 -6.484430e-01 -3.597423e-01 -6.957116e-01 2.581367e-01 -4.817580e-01 9.427744e-01 1.726150e-01 
-1.800532e+01 -6.612467e-01 -1.078036e+01 -4.756083e+00 -4.530961e+00 9.926045e-01 7.352071e+00 5.676918e+00 -4.200587e+00 -1.059458e+01 -1.176990e+00 2.344122e+00 1.725097e+01 4.579134e+00 -2.213784e+00 2.632496e+00 -8.833180e-02 9.967114e-02 1.471234e-01 -8.619491e-01 -2.347493e-03 -2.553898e+00 -1.463739e+00 -3.645570e+00 1.032693e+00 -3.741474e-02 5.289489e-01 7.710419e-01 5.336840e-02 1.780188e-01 -1.531748e-01 -1.961986e-01 -5.047464e-01 -4.882050e-01 -2.477910e-01 1.286379e-01 5.349537e-02 7.739217e-01 3.550546e-01 
-1.556165e+01 -6.492891e+00 -6.690673e+00 -1.214116e+00 4.186118e+00 1.786097e+00 5.435717e+00 3.817701e+00 -3.384001e+00 -8.502786e+00 -9.057997e+00 4.724556e+00 1.746709e+01 4.806952e+00 -8.875241e-01 2.072410e+00 6.941066e-01 3.884482e-02 4.247383e-01 -6.860765e-01 1.702614e-02 -3.145191e+00 -1.372078e+00 -1.904313e+00 2.144567e+00 4.772673e-01 -9.356093e-02 7.092354e-01 -9.714012e-01 1.513942e-01 -7.132253e-01 4.973995e-02 -1.731544e-01 -4.719372e-01 4.149642e-02 1.677026e-01 8.778703e-01 7.915439e-02 3.355114e-01 
-7.969766e+00 -3.329948e-01 -7.585077e+00 -5.451532e+00 -2.574801e+00 1.004840e+00 3.116944e+00 8.672560e+00 -6.853148e+00 -1.539405e+01 -1.213489e+01 8.451891e+00 1.921860e+01 3.865051e+00 -5.877206e-01 -9.268978e-01 7.792581e-01 -5.867592e-01 7.065543e-01 -1.959822e-01 -1.411823e+00 -1.659798e+00 -1.267872e+00 -1.093392e+00 7.817165e-01 8.536289e-01 -1.019952e+00 -3.185991e-01 -1.086084e+00 1.841573e-01 -4.471087e-01 9.177037e-02 3.374372e-01 -6.311953e-01 5.457899e-01 8.904322e-01 1.118268e+00 -1.036711e+00 1.096414e-01 
-4.481079e+00 -2.450811e+00 -9.658295e+00 -2.119451e+00 -4.277636e+00 2.461540e+00 5.986603e+00 4.663990e+00 -1.100769e+01 -1.572437e+01 -7.410048e+00 6.594353e+00 1.984422e+01 3.086808e+00 -1.125986e+00 -1.956860e+00 7.254670e-01 -2.208277e+00 7.907221e-01 -1.589278e-01 -1.689890e+00 -1.793675e+00 -3.731882e-01 1.013037e+00 -4.215863e-01 7.388075e-01 -1.311599e+00 -1.023276e+00 -2.335905e-01 -6.144762e-04 -4.834108e-01 -3.179319e-01 1.018710e-01 -3.852510e-01 9.471689e-01 1.270085e+00 6.618992e-01 -1.277188e+00 -1.015804e-01 
-4.220347e+00 -5.620890e+00 -1.393104e+01 -4.071246e-01 -3.232879e+00 4.187654e+00 6.096717e+00 -1.805341e+00 -8.687734e+00 -1.332315e+01 -7.467924e+00 5.317805e+00 2.033055e+01 3.394446e-01 -3.687549e+00 -7.832873e-01 8.167744e-01 -1.012312e+00 4.229833e-01 5.616624e-01 -2.304866e+00 -5.007057e-01 2.488977e+00 4.870966e-01 -2.867784e+00 3.800220e-01 -9.022692e-01 -5.628068e-01 7.095662e-01 -1.369441e-01 -1.837441e-01 -7.395327e-01 -2.812975e-01 1.245076e-01 9.670168e-01 9.414608e-01 2.833962e-01 -7.634434e-01 -2.380489e-01 
-2.002319e+00 -9.478875e+00 -1.330199e+01 -1.089841e-01 -6.526229e+00 4.148300e+00 3.151191e+00 6.072015e-01 -1.143509e+01 -1.140418e+01 -6.326293e+00 4.183667e+00 2.060516e+01 1.175933e-02 -4.453990e+00 8.326527e-01 6.722761e-01 -2.165433e+00 -1.023136e+00 -5.555437e-01 -1.462707e+00 1.011108e+00 3.099924e+00 6.149381e-01 -2.416624e+00 2.061686e-01 -2.775218e-01 7.619435e-01 7.926871e-01 -3.232835e-01 -3.450322e-03 -8.998388e-01 -5.407674e-01 3.191663e-01 1.055593e+00 1.690004e-01 -1.019650e-01 8.850513e-02 -2.579492e-01 
-7.511923e+00 -1.525671e+01 -9.679665e+00 -2.372894e+00 -6.512062e+00 2.276376e+00 7.342962e+00 -8.233761e-01 -9.142978e+00 -5.109263e+00 -1.024128e+01 -4.681687e+00 2.073824e+01 8.912295e-01 -1.737753e+00 1.226177e+00 1.211329e-01 -1.526902e+00 -2.084180e+00 -1.404162e+00 -9.028760e-01 1.772895e+00 1.702875e+00 5.226387e-01 -2.037981e+00 -7.029591e-02 4.732674e-01 2.206071e+00 2.854761e-01 -4.108059e-01 1.969702e-01 -5.293870e-01 -5.890604e-01 4.678015e-01 6.062555e-01 -9.733265e-01 -5.248009e-02 1.143879e+00 -2.126844e-01 
-2.776495e+00 -1.990285e+01 -7.620718e+00 2.224814e+00 -1.346521e+01 -1.698500e+00 2.585763e+00 -3.140529e+00 -5.724525e+00 -4.331697e+00 -2.948678e+00 -4.890204e-01 2.067122e+01 1.423307e+00 1.708833e+00 1.001843e+00 -5.431296e-01 -1.968234e+00 -2.454890e+00 -1.879853e+00 -7.950536e-01 2.347490e+00 8.648649e-01 4.854412e-01 -3.939620e-01 -3.257795e-01 3.034310e-01 2.341326e+00 -2.267811e-01 -5.200222e-01 6.909896e-01 2.415994e-01 1.941376e-01 3.872932e-01 3.338003e-02 -1.013132e+00 -2.821219e-01 9.248081e-01 -1.491349e-01 
6.228887e-01 -9.097662e+00 -1.064079e+01 -9.683593e-01 -7.397898e+00 -3.309848e+00 -6.413773e-01 -4.445855e+00 -2.678540e+00 -8.345013e+00 -6.543537e+00 -2.535757e+00 1.994604e+01 2.000008e+00 4.261394e+00 5.594983e-01 -6.295521e-01 -1.260602e-01 -1.508074e+00 -1.721485e+00 -2.996855e-01 1.862381e+00 -1.260126e+00 2.894446e-01 1.840278e+00 -4.174259e-01 -1.168382e-01 9.105382e-01 -1.882900e-01 -2.221065e-01 4.236068e-01 9.178403e-01 6.511903e-01 1.887324e-01 -4.032698e-01 -4.031048e-01 -1.454726e-01 5.573536e-01 -2.259756e-02 
1.046809e+00 -4.014233e+00 -7.812213e+00 -3.526899e+00 -1.592448e+01 -5.333039e+00 -2.255903e+00 -1.556827e+00 -2.929854e+00 -5.461979e+00 -5.747960e+00 1.140892e+00 1.937236e+01 9.745253e-01 4.253067e+00 3.208661e-02 -1.552492e+00 5.890937e-01 -1.031915e-01 5.738060e-01 1.721632e-01 1.133265e+00 -4.842355e-01 -6.790742e-01 2.682867e-01 -3.659409e-01 -4.172695e-01 -4.376653e-01 -5.489872e-02 1.192494e-01 2.363006e-01 1.076790e+00 4.237076e-01 2.130707e-01 -4.150932e-01 2.890162e-01 -2.141791e-01 -3.541015e-01 8.179188e-02 
5.764633e-01 -1.894048e+00 -6.786426e+00 -2.644797e+00 -5.912728e+00 -3.446726e+00 1.156368e+00 -3.113655e+00 -1.228408e+00 -1.084475e+01 -7.394419e+00 3.704749e+00 1.930054e+01 5.314291e-01 1.542822e+00 7.696052e-01 -4.847180e-01 -6.875318e-01 1.329172e+00 6.249605e-01 -4.428226e-01 3.636581e-01 3.619015e-01 3.775333e-01 4.176623e-01 -1.632030e-01 -6.040803e-01 -9.000190e-01 1.245633e-01 8.952637e-02 -5.976446e-01 9.042857e-01 -3.593822e-01 2.835959e-01 -6.752042e-02 9.179440e-01 -3.667538e-01 -7.722606e-01 1.137057e-01 
2.119345e+00 -2.239327e+00 -9.387469e+00 -4.699429e+00 -1.126233e+01 -2.146018e+00 4.555920e+00 -2.945814e+00 -7.832671e-01 -5.503006e+00 -5.918609e+00 -2.267840e+00 1.916426e+01 7.124846e-02 8.797928e-01 6.222962e-01 -1.929956e-02 -5.059949e-01 1.510436e+00 -9.345377e-01 3.418685e-01 1.021385e+00 1.498932e+00 -6.294987e-01 -1.453161e+00 -4.393158e-02 -5.467645e-01 -4.912837e-01 2.640959e-01 -9.026682e-03 -5.983238e-01 4.063951e-01 -8.850069e-01 4.513407e-01 1.160763e-01 4.753595e-01 -3.006744e-01 -1.408124e-01 9.602097e-02 
2.743766e+00 -2.271007e+00 -6.005140e+00 -2.805685e+00 -1.316663e+01 1.742501e+00 -9.224862e-01 -5.965475e+00 -1.933543e+00 -6.514992e+00 -4.570546e+00 1.256920e+00 1.923407e+01 -5.687553e-01 1.447936e+00 8.872098e-01 -9.485167e-01 -2.566739e+00 2.206541e+00 -2.764224e+00 1.033441e+00 1.580719e+00 2.338010e+00 -1.569112e+00 -1.160301e+00 -9.902191e-03 -4.157254e-01 1.084566e-01 -1.147829e-01 -3.481038e-01 -3.848655e-02 -1.968253e-01 -3.455843e-01 4.927533e-01 4.348359e-02 -1.410916e-01 -1.761607e-01 2.698098e-01 4.491434e-02 
3.193995e-01 5.732103e-01 -5.091375e+00 -3.542953e+00 -1.482750e+01 -3.754717e-01 -5.889164e+00 1.578425e+00 2.529639e+00 -1.321955e-01 -1.030739e+01 -4.901000e+00 1.918593e+01 -1.209205e+00 1.844091e+00 1.293764e+00 -1.365726e+00 -1.462922e+00 1.490100e+00 -2.156636e+00 1.690735e+00 1.105116e+00 9.045078e-01 -1.209123e+00 3.532063e-01 3.751354e-02 -1.117803e-01 2.947719e-02 -1.968094e-01 -3.227923e-01 2.908464e-01 -5.386844e-01 5.664037e-01 -1.303463e-01 -2.311079e-01 -8.419541e-01 4.478158e-01 6.752056e-01 1.673788e-02 
-1.367341e+00 3.939366e+00 -4.498424e+00 -7.965619e+00 -1.696383e+01 6.700704e+00 -7.442212e+00 -2.085683e-01 5.018733e+00 -1.840105e+00 -1.304559e+01 -7.801738e-01 1.924019e+01 -9.069713e-01 1.602956e+00 -1.400433e-01 -1.552024e+00 -4.015011e-01 3.552134e-01 -4.919120e-01 1.346511e+00 5.392106e-01 -4.634426e-02 -2.134577e-01 8.635273e-01 2.064610e-02 1.846811e-01 -2.824233e-01 -1.147376e-01 1.760538e-01 4.964461e-01 -1.007050e+00 9.691448e-01 -3.751103e-01 -2.417339e-01 -8.335687e-01 3.229230e-01 2.575718e-01 5.311165e-03 
-1.871126e+00 3.875940e+00 -3.672008e+00 -8.948094e+00 -1.667834e+01 2.825379e+00 -2.967396e+00 2.629407e+00 1.266176e+00 -3.317910e+00 -7.726703e+00 5.167387e-01 1.934877e+01 -3.185452e-01 9.496692e-01 1.518759e-01 -1.331507e+00 -1.343815e-01 -2.573223e-01 7.613245e-01 -4.663978e-01 3.865999e-01 -1.518661e+00 9.317530e-01 9.109529e-01 2.448368e-02 3.240355e-01 -3.931040e-01 1.343107e-01 5.564906e-01 -9.748988e-02 -8.384184e-01 6.299685e-01 -5.864028e-01 1.412686e-01 -1.769089e-01 -3.052798e-01 -1.696803e-01 -3.911915e-03 
-6.958276e-01 4.092406e+00 -7.415040e+00 -7.863233e+00 -1.424872e+01 1.918143e+00 -4.842930e+00 2.415867e-01 1.394241e+00 -5.153856e+00 -6.928178e+00 2.865688e+00 1.925588e+01 -9.067939e-02 4.830306e-01 8.844656e-01 -8.535719e-02 -7.487780e-01 -1.954996e+00 6.225197e-01 2.364560e-01 7.313073e-01 -6.182491e-01 -1.024935e+00 -1.513147e-01 2.316856e-02 2.529978e-01 -3.339973e-01 4.767692e-01 8.317684e-01 -3.616275e-01 -6.828986e-01 3.942450e-01 -2.831190e-01 4.734959e-02 5.510409e-01 -4.757658e-01 -2.872097e-01 -2.379278e-02 
-1.609083e+00 5.245036e+00 -2.873688e+00 -1.025168e+01 -1.685696e+01 7.291974e-01 -3.382182e+00 -9.786412e-01 6.274884e+00 -6.068625e+00 -8.707330e+00 -2.169167e+00 1.930051e+01 2.826786e-03 4.385331e-01 1.453063e+00 6.833933e-01 -1.776733e+00 -1.546888e+00 4.359910e-01 -6.862519e-01 1.715411e+00 3.059154e-01 -2.329783e+00 1.222584e-02 1.669273e-02 8.922030e-02 -4.111989e-01 3.248411e-01 7.786221e-01 3.013740e-01 -2.263408e-01 -1.685039e-01 2.178329e-01 -4.174743e-01 7.070059e-01 2.689958e-01 -2.114068e-01 -7.693209e-02 
-1.951759e+00 5.669971e+00 -4.752558e-01 -7.740610e+00 -2.061841e+01 -2.026185e+00 -4.122220e+00 2.777736e+00 6.170915e+00 -3.555993e+00 -1.767995e+01 -1.937947e-01 1.938017e+01 1.973318e-01 1.885368e-01 1.593209e+00 1.599368e+00 -1.388463e+00 -2.414497e+00 1.641980e+00 4.084267e-02 1.115530e-01 1.796572e+00 -9.615182e-01 -1.231579e-01 -9.442234e-02 -8.479335e-02 -4.858077e-01 1.024168e-01 2.043144e-01 1.048635e+00 5.784091e-01 -6.467745e-01 3.922744e-01 -7.165522e-01 -4.858159e-02 1.606421e+00 -1.767899e-01 -1.004324e-01 
-1.229026e+00 5.279823e+00 1.234150e-01 -5.592439e+00 -2.237716e+01 -2.936896e+00 -1.147796e+00 -2.069927e+00 7.454893e+00 -2.587264e+00 -1.399973e+01 2.107609e+00 1.937009e+01 -1.644924e-02 -9.590786e-01 1.421710e+00 1.719241e+00 1.692331e+00 -1.159276e+00 -5.909251e-01 7.205734e-01 -1.390895e+00 8.089581e-01 2.245023e+00 -1.601593e-01 -3.013813e-01 -4.204177e-02 -4.460328e-01 -3.314602e-01 -1.883599e-01 1.007344e+00 5.982336e-01 -7.798259e-01 5.687364e-01 -8.505268e-01 -5.220133e-01 1.739848e+00 -2.769788e-01 -3.399889e-02 
1.008027e-01 5.017696e+00 -9.475448e-01 -2.196015e+00 -1.843094e+01 -8.321297e+00 2.249776e+00 9.914430e-01 1.362002e+00 2.088324e+00 -9.089567e+00 1.115097e-01 1.874898e+01 -5.050082e-01 -1.247202e+00 1.412226e+00 4.182912e-01 2.759865e+00 7.432436e-01 -2.097895e+00 1.494416e+00 -1.298301e+00 -1.112678e+00 4.719766e+00 -9.490715e-01 -3.199562e-01 1.103147e-01 -3.315595e-01 -7.987189e-01 -4.519640e-01 -5.577643e-02 3.427517e-01 -1.509683e-01 5.660829e-02 -4.263043e-01 -4.345898e-01 5.205773e-01 -2.592074e-02 1.309720e-01 
-2.717610e+00 7.757803e-01 4.471006e+00 -4.427779e+00 -9.489042e+00 -1.919626e+00 -9.522805e+00 3.517372e+00 1.724868e+00 -4.845993e+00 -1.777406e+00 -3.122616e+00 1.810919e+01 1.437879e-01 -1.073761e+00 -1.137466e-01 3.321323e-01 1.185821e+00 -1.345898e-01 -1.593201e+00 1.430644e+00 -1.832296e+00 -8.495259e-01 3.528815e+00 -9.597113e-01 -4.053478e-02 3.169392e-01 -1.292506e-01 -1.322599e+00 -2.745247e-01 -1.455336e+00 -3.012243e-01 1.409638e+00 -4.324175e-01 -2.466979e-01 3.696881e-01 -1.188764e+00 3.010477e-01 2.661936e-01 
-3.732508e+00 1.685981e+00 4.412080e+00 -6.231484e+00 -1.326314e+01 1.181398e+00 -1.042419e+01 7.456164e+00 2.544422e+00 -7.990020e+00 -1.922868e-01 -2.324040e+00 1.841083e+01 6.687868e-01 -1.411919e+00 -1.632657e+00 3.310208e-02 -1.414090e+00 -1.213082e+00 1.388276e+00 -3.115110e-02 -1.799268e+00 4.528651e-01 9.994727e-01 1.470143e-01 4.300146e-01 2.143755e-01 -2.944878e-01 -1.341772e+00 1.054388e-01 -1.551511e+00 -7.394375e-02 2.014949e+00 -6.900396e-01 -3.209776e-01 5.339841e-01 -2.139007e+00 5.678086e-01 2.401449e-01 
1.406569e+00 1.576875e+00 -3.125131e+00 -1.914043e+00 -1.903195e+01 -8.361192e+00 -2.776819e+00 1.850932e+00 -2.297800e+00 -1.795722e+00 -8.042991e-01 -1.473173e+00 1.933649e+01 9.813493e-01 -1.522973e+00 -3.668844e+00 5.392114e-01 -3.497371e+00 -1.687235e+00 4.714178e+00 -6.787306e-01 -2.373901e+00 1.874627e+00 -1.838652e+00 7.970361e-01 6.546013e-01 -3.404906e-01 -4.478800e-01 -6.915253e-01 1.886168e-01 -2.701348e-01 1.190189e+00 1.136197e+00 -2.582085e-01 -2.901287e-01 -3.893797e-01 -1.998981e+00 6.374989e-01 8.141260e-02 
1.382647e+00 -2.442448e+00 -5.312763e+00 -3.287372e+00 -2.072993e+01 -1.116592e+01 5.818165e+00 1.668908e+00 -5.623003e+00 2.827514e+00 -4.578757e+00 2.186003e-02 2.028540e+01 1.480884e-01 -2.495035e+00 -3.519085e+00 8.419458e-01 -2.656094e+00 1.149847e+00 4.823161e+00 -9.010954e-01 -2.632387e+00 1.951658e-01 -3.291536e+00 1.011598e+00 5.332004e-01 -6.048001e-01 -3.609434e-01 -7.103483e-02 4.872018e-01 1.265454e+00 1.657460e+00 -2.953171e-01 1.317583e-01 -2.385235e-01 -1.247794e+00 -1.176007e+00 5.795193e-01 -8.079235e-02 
-3.684408e-01 -4.774872e+00 -9.010793e+00 -3.203778e+00 -2.324250e+01 -4.182140e+00 5.926907e+00 3.017347e+00 -6.060925e+00 -8.816255e-01 -8.777433e+00 -3.103852e-01 2.044492e+01 -1.298316e+00 -2.771603e+00 -2.628160e+00 8.707945e-01 4.561489e-01 4.634891e+00 2.370341e+00 5.745735e-01 -2.866380e+00 -2.667575e+00 -4.320585e+00 1.795491e+00 3.149353e-01 -4.050291e-01 -2.567330e-01 5.129301e-01 4.259965e-01 2.381935e+00 8.314287e-01 -1.253478e+00 4.912121e-02 -4.092884e-03 -1.055118e+00 -1.809227e-01 4.098043e-01 -1.281388e-01 
-2.104561e+00 -7.613320e+00 -1.024051e+01 -1.376888e+00 -2.443834e+01 4.841108e+00 9.339750e+00 2.367479e+00 -8.735949e+00 -7.471239e+00 -1.266340e+01 2.152556e+00 2.052262e+01 -1.215381e+00 -2.592321e+00 -2.508173e+00 2.303319e+00 2.936419e+00 3.913156e+00 1.083609e+00 9.882807e-04 -2.745646e+00 -3.515006e+00 -3.639596e+00 2.545383e+00 1.958859e-01 7.109548e-02 1.260215e-01 5.401483e-01 6.307571e-02 2.244149e+00 -6.555747e-01 -1.479317e+00 -8.494996e-02 3.542663e-01 1.181507e-01 6.121609e-01 -2.386594e-03 -9.220163e-02 
-3.341406e+00 -9.695704e+00 -1.380205e+01 1.484687e+00 -1.489701e+01 6.809749e+00 7.314095e+00 4.374513e+00 -1.507323e+01 -9.984221e+00 -1.836491e+01 6.438936e+00 2.079256e+01 -3.620617e-01 -2.757995e+00 -1.609649e+00 1.938507e+00 5.616048e+00 1.088255e+00 3.165620e-01 -8.841664e-01 -2.337736e+00 -1.545877e+00 -2.569235e+00 2.079165e+00 1.825647e-01 4.466549e-01 4.860155e-01 4.878828e-01 -3.995765e-01 8.292722e-01 -1.198177e+00 -1.272542e+00 -2.301599e-01 7.965010e-01 1.110208e+00 1.132935e+00 -6.575457e-01 -5.000963e-02 
-3.207775e+00 -1.294364e+01 -1.545800e+01 5.884993e+00 -1.022058e+01 2.903914e+00 1.054261e+01 9.952661e-01 -1.484508e+01 -1.019622e+01 -1.798300e+01 9.374115e+00 2.109101e+01 3.543873e-02 -1.871732e+00 -1.327599e+00 6.234681e-01 5.984704e+00 -3.547082e-01 -1.546535e+00 -5.964752e-01 -1.125377e+00 2.250705e-01 -1.106406e+00 8.578280e-01 1.383776e-01 3.891669e-01 7.491279e-01 5.378712e-01 -8.739193e-01 -6.909384e-01 -4.354805e-01 -1.226561e+00 2.003191e-01 1.073011e+00 9.637452e-01 1.033239e+00 -1.042266e+00 -4.876428e-02 
-1.627142e+00 -1.589969e+01 -1.445029e+01 2.857817e+00 -2.271137e+00 2.227730e+00 6.908284e+00 -7.173785e-01 -1.469504e+01 -7.248518e+00 -1.896381e+01 6.474662e+00 2.107355e+01 3.095488e-01 -7.018204e-01 -7.790330e-01 -2.871622e-01 3.078367e+00 7.779409e-01 -2.677298e+00 -2.774943e-01 3.059906e-01 1.013424e+00 7.749595e-02 -6.484595e-01 9.364128e-02 1.594441e-01 9.026847e-01 4.221786e-01 -6.358370e-01 -1.907409e+00 2.285969e-01 -6.423620e-01 5.012258e-01 1.183450e+00 1.216642e-01 5.372077e-01 -6.321620e-01 -6.124046e-02 
-2.784499e+00 -1.386999e+01 -1.655439e+01 1.053888e+00 -8.277501e-01 5.358577e+00 1.809982e+00 1.931049e+00 -1.455193e+01 -7.713737e+00 -1.789598e+01 6.423833e+00 2.107402e+01 3.946480e-01 1.252307e-01 -2.341253e-01 -9.534426e-01 7.505679e-01 1.890911e+00 -3.552266e+00 6.992476e-01 1.297548e+00 2.406926e-02 2.032351e-01 -1.302136e+00 -3.473854e-03 6.074194e-02 7.114750e-01 3.936226e-01 -1.849231e-01 -2.125765e+00 -7.132693e-02 2.857261e-01 5.002286e-01 1.023551e+00 -3.411439e-01 -7.458831e-02 -1.404677e-01 -6.241623e-02 
-2.005300e+00 -1.274163e+01 -1.714902e+01 2.464429e+00 -4.201587e+00 9.472122e+00 -1.706079e+00 2.519150e+00 -1.368985e+01 -6.158340e+00 -1.802094e+01 4.671780e+00 2.126926e+01 2.555544e-01 7.569474e-01 -4.549275e-02 -4.522226e-01 -1.303928e+00 1.108430e+00 -1.892382e+00 9.741014e-01 2.368054e+00 -8.370552e-01 -5.380175e-01 -1.662707e-03 -5.271187e-02 -4.140870e-02 7.225907e-01 2.742350e-01 3.638511e-02 -1.481133e+00 -9.790636e-01 8.140491e-01 4.603541e-01 9.125727e-01 -3.539405e-01 -2.426898e-01 2.096955e-01 -7.938889e-02 
-1.045456e+00 -1.389651e+01 -1.527926e+01 1.314474e+00 -5.502520e+00 8.736271e+00 -2.911532e+00 2.873240e+00 -8.859937e+00 -1.062096e+01 -1.743826e+01 3.764874e+00 2.097578e+01 3.661456e-01 9.562596e-01 2.737439e-01 -2.186171e-01 -2.452973e+00 -8.765873e-01 -5.103618e-01 1.278870e+00 2.961348e+00 -5.554094e-01 -1.171591e+00 -1.679087e-01 -1.005270e-01 -8.232701e-02 1.055488e+00 3.223884e-01 1.435806e-01 -7.639293e-01 -1.457014e+00 7.992564e-01 2.493226e-01 6.379184e-01 2.254139e-01 2.372680e-01 6.960748e-02 -1.227027e-01 
-1.218892e+00 -1.210169e+01 -1.531532e+01 4.664105e-01 -6.453390e+00 6.081031e+00 -1.928705e-01 3.682034e+00 -5.700765e+00 -9.980182e+00 -2.188275e+01 7.795828e+00 2.085910e+01 1.167565e-01 2.495619e+00 3.382074e-01 -4.726494e-01 -2.725528e+00 -2.733628e+00 -1.280044e-01 1.734465e+00 4.036954e+00 -4.665392e-01 -4.485403e-01 -1.670960e-01 -2.547766e-01 -2.271518e-01 9.325185e-01 5.955260e-01 7.646544e-02 3.308807e-01 -8.889340e-01 3.482317e-01 -1.504717e-01 6.037385e-02 3.930010e-01 1.129346e+00 -2.209096e-01 -2.623132e-01 
-1.346975e+00 -9.408660e+00 -1.610252e+01 9.598116e-01 -1.196671e+01 2.671186e+00 -1.498431e+00 7.743957e+00 -3.739728e+00 -8.579864e+00 -2.182302e+01 4.022266e+00 2.077646e+01 5.241191e-02 4.533337e+00 1.185967e+00 -2.253262e-01 -2.358279e+00 -3.473133e+00 -4.381726e-01 1.565678e+00 3.652689e+00 9.658809e-01 1.344837e+00 -8.713824e-01 -5.159552e-01 -5.177009e-01 2.435847e-01 6.061434e-01 -1.194462e-01 1.059502e+00 -2.953514e-01 -4.565311e-03 -8.228906e-01 -7.487555e-01 3.345599e-01 1.493731e+00 -6.321731e-02 -3.947856e-01 
-1.270758e+00 -2.507465e+00 -1.504636e+01 2.785133e-01 -1.459713e+01 -1.163476e+00 -3.052652e+00 8.756119e+00 3.934817e+00 -9.511586e+00 -1.807126e+01 3.707604e+00 2.009504e+01 -7.233376e-01 3.631001e+00 2.476026e+00 -6.654089e-02 3.031286e-01 -2.037968e+00 -1.873183e-01 7.833882e-02 2.324253e+00 3.673047e-01 3.850499e+00 -7.544739e-01 -1.156564e+00 -7.059621e-01 -8.963539e-01 3.978021e-01 -1.887846e-01 1.422699e+00 2.242549e-01 -6.832977e-02 -1.261730e+00 -1.503612e+00 1.245003e-01 1.115630e+00 1.450706e-01 -3.876018e-01 
-7.574636e-01 3.973060e+00 -9.483909e+00 2.817922e-01 -1.322204e+01 -5.007142e+00 -3.672504e+00 8.164589e+00 4.585720e+00 -6.025856e+00 -1.261983e+01 1.452075e+00 1.877804e+01 -1.802312e+00 1.606492e+00 2.235552e+00 -1.018902e+00 1.330211e+00 -2.701174e+00 -5.035314e-01 -2.007520e+00 7.392154e-02 7.004684e-01 4.147543e+00 -1.903063e-01 -1.623562e+00 -7.050978e-01 -1.567292e+00 -2.334384e-01 -3.311121e-01 1.055767e+00 7.399339e-01 2.648562e-01 -8.264634e-01 -1.203727e+00 -8.955316e-02 1.900234e-01 3.253453e-01 -1.935923e-01 
-5.130336e+00 -6.375406e-01 -6.244497e+00 4.727158e-01 -4.310081e+00 -2.696441e-01 -4.242557e-02 3.863412e+00 1.757776e+00 -9.420662e+00 -7.231857e+00 5.308554e+00 1.607549e+01 -2.485693e+00 -5.227282e-01 1.802425e+00 -1.019784e+00 2.543721e+00 -1.998333e+00 -4.369739e-01 -2.787584e+00 -1.691723e+00 2.886683e-01 3.728255e+00 2.177190e-01 -1.638982e+00 -2.112872e-01 -1.158065e+00 -7.803892e-01 -1.594509e-01 1.964000e-01 9.287011e-01 3.491957e-01 1.035250e-01 -3.618032e-01 1.543063e-01 -7.810705e-01 2.020064e-01 2.297972e-01 
-8.428744e+00 -2.311164e+00 -9.325692e+00 -4.231801e+00 -1.045918e+01 -1.128160e+01 -5.521201e+00 1.527101e-01 -2.281600e+00 -5.122984e+00 -6.505009e+00 2.270259e+00 1.466843e+01 -2.591900e+00 -1.226258e+00 3.555752e-01 -1.404265e+00 1.800258e+00 2.067190e-01 1.010936e+00 -1.133678e+00 -3.579555e-01 5.574332e-01 2.356076e+00 2.692476e-01 -1.242707e+00 4.435839e-01 -6.624988e-01 -8.466833e-01 5.808502e-01 -2.207946e-01 1.538981e+00 5.902405e-01 8.804962e-01 3.356544e-01 -1.764297e-01 -1.207375e+00 -7.535902e-02 6.471407e-01 
-9.863581e+00 -1.978994e+00 -6.113339e+00 -2.563612e+00 -3.259955e+00 -8.017909e+00 -4.313173e+00 -1.175859e+00 -1.090138e+00 -8.519681e+00 -2.487394e+00 4.387106e+00 1.395493e+01 -1.384980e+00 -7.429483e-01 -4.859317e-01 -6.711136e-01 1.050105e+00 1.151591e+00 8.014263e-01 1.590427e-01 7.311753e-01 1.210354e+00 8.408803e-01 2.578134e-02 -1.980049e-01 8.401800e-01 -3.573919e-01 -7.969572e-01 9.765862e-01 -7.420996e-01 1.154857e+00 3.758383e-01 8.933362e-01 3.151582e-01 -3.963109e-01 -1.320485e+00 -3.800500e-01 8.085704e-01 
-1.135034e+01 -1.487503e+00 -7.771612e+00 -5.221371e+00 -4.745817e+00 -9.941418e-02 3.517550e+00 5.015837e+00 4.219900e+00 -3.689181e+00 -3.211679e+00 3.259037e+00 1.362478e+01 -1.347487e-01 -1.595892e+00 -8.536865e-01 1.711013e+00 9.730456e-01 3.418770e+00 1.828471e+00 9.216477e-01 5.407444e-01 -6.425229e-01 -4.456423e-01 -4.711326e-01 8.916532e-01 8.472198e-01 -2.720423e-01 -3.959183e-01 1.089261e+00 -6.881704e-01 1.778034e-01 -2.040793e-01 2.143693e-01 -3.423725e-01 -7.456822e-01 -9.390761e-01 -4.386879e-01 6.429046e-01 
-1.059444e+01 -4.764112e+00 -9.451196e+00 -2.388067e+00 -1.916238e+00 -1.027822e-01 -5.546691e-01 2.227062e+00 2.162902e+00 -4.085794e+00 -4.674121e+00 4.943072e+00 1.560729e+01 4.866323e-01 -2.124871e+00 -1.577730e+00 2.305508e+00 -7.531707e-01 2.169929e+00 1.033450e+00 6.514346e-01 -5.652817e-01 -1.092908e+00 -1.473310e+00 -1.312341e+00 1.336689e+00 5.029889e-01 -2.604735e-01 -1.408801e-01 7.292401e-01 -5.290125e-01 -3.962252e-01 -3.807741e-01 -2.163814e-01 -6.267864e-01 -7.836226e-01 -4.782746e-01 -3.345821e-01 3.117763e-01 
-8.737060e+00 -8.898067e+00 -1.192520e+01 4.235494e+00 -6.265811e+00 1.854686e+00 1.741902e+00 3.059488e+00 -1.204398e+00 -1.055254e+01 -7.639857e+00 -3.633864e-01 1.830051e+01 7.083938e-01 -1.895508e+00 -1.078117e+00 2.553729e+00 -7.389563e-01 5.865668e-01 -1.254725e-01 -3.080271e-01 -1.421590e+00 -2.019347e+00 -1.182209e+00 -1.255131e+00 1.204469e+00 1.908046e-01 -3.698691e-02 5.075157e-03 1.933653e-01 -3.409790e-01 -7.247769e-01 -5.066809e-01 -3.418811e-01 -4.780976e-01 -3.680087e-01 -1.182033e-01 -1.510786e-01 4.934106e-02 
