-1.225272e-01 -1.486801e+00 -3.364472e+00 -8.535298e-01 -1.059125e+01 -1.033737e+01 -3.092442e+00 -2.326812e+00 -7.048323e+00 -1.452096e+01 -1.000581e+01 -4.746890e+00 2.042977e+01 -4.447703e-01 -2.967997e-01 -6.261976e-01 -5.105090e-01 6.456745e-01 -1.011041e+00 4.334054e-02 -5.146324e-01 -8.729590e-01 9.837106e-01 -5.308355e-01 5.287838e-01 7.667351e-02 -5.523586e-03 -2.439810e-01 -8.324732e-01 -4.447643e-01 -2.695730e-01 -1.238645e-01 -2.870592e-01 4.575872e-01 1.578021e+00 1.053981e+00 -6.505363e-01 3.917334e-01 7.268856e-02 
-2.752944e+00 -2.841402e+00 -3.040044e+00 -1.349658e+00 -1.200282e+01 -9.962271e+00 -2.404741e+00 -4.276099e+00 -1.501023e+01 -1.574433e+01 -9.117988e+00 -2.527987e+00 2.058722e+01 -3.739221e-01 -8.943937e-01 -2.244586e+00 -1.422416e+00 -3.787032e-01 -1.826160e+00 -5.313174e-01 3.071865e-01 2.400693e+00 3.200368e+00 -2.397074e+00 1.898561e+00 2.463783e-01 1.054172e-02 -1.143270e-01 -1.196517e+00 -7.367700e-01 1.222873e-01 8.782482e-02 -1.637602e-01 5.840472e-01 1.926817e+00 1.398871e+00 -6.181244e-01 1.323532e-01 7.526317e-02 
-1.031170e+00 -2.293499e+00 -6.657674e+00 -3.158010e+00 -6.657090e+00 -1.558013e+01 -3.219590e+00 -3.925330e+00 -7.432165e+00 -8.990715e+00 -1.310390e+01 -3.212422e+00 2.073441e+01 -5.078124e-01 -1.217908e+00 -3.979370e+00 -2.278377e+00 -1.900017e-01 -1.222804e+00 -1.104626e+00 1.362394e+00 5.380322e+00 5.145286e+00 -2.850398e+00 1.802562e+00 3.552639e-01 -7.189642e-02 1.879528e-01 -9.898028e-01 -9.689478e-01 5.653051e-01 5.336237e-01 4.032730e-01 1.630740e-01 6.910974e-01 9.664152e-01 9.741984e-02 -3.773872e-01 2.509130e-02 
-1.537816e+00 -5.555420e+00 -1.294080e+01 -6.813369e+00 -1.445185e+01 -1.684680e+01 -5.685455e+00 8.379557e-03 5.147063e+00 -1.284237e+00 -2.044213e+01 3.978681e+00 2.150934e+01 -3.605407e-01 -4.078807e-01 -4.932194e+00 -3.310425e+00 1.674949e+00 -4.660352e-01 -2.014771e-01 1.467090e+00 5.634484e+00 5.897276e+00 -2.461676e+00 5.536606e-01 3.136942e-01 2.878001e-02 7.514120e-01 -6.247587e-02 -8.332752e-01 1.230418e+00 8.474802e-01 9.640287e-01 -6.149474e-01 -1.506284e+00 -2.049373e-01 1.395990e+00 -9.325908e-01 -7.497507e-02 
-3.269153e+00 -6.219329e+00 -1.831094e+01 -9.513560e+00 -1.031675e+01 -1.300913e+01 -6.975216e+00 2.342920e+00 9.774638e+00 3.975428e+00 -1.859573e+01 1.012588e+00 2.174503e+01 -8.109431e-01 3.997079e-01 -4.231408e+00 -4.411243e+00 2.445374e+00 9.770151e-01 1.894786e+00 -2.792143e-01 9.656321e-01 4.467332e+00 -1.143513e-02 -6.857022e-01 1.684721e-01 3.174482e-01 1.007920e+00 1.139778e+00 -3.706136e-01 6.693150e-01 5.351337e-01 1.074860e+00 -9.648412e-01 -2.777025e+00 -1.051564e+00 1.851529e+00 -5.517305e-01 -1.423962e-01 
-3.436656e+00 -2.917890e+00 -2.187438e+01 -1.472401e+01 -1.798248e+00 -1.357795e+01 -1.534314e+00 -7.477432e-02 4.558790e+00 7.258976e+00 -1.868045e+01 -1.872189e+00 2.165038e+01 -7.845666e-02 2.053858e+00 -2.430946e+00 -4.522359e+00 4.455698e+00 1.311331e+00 2.789120e+00 -1.946746e+00 -2.923381e+00 2.514658e+00 3.163397e+00 -1.520261e+00 -3.510113e-02 5.225877e-01 6.910079e-01 2.007046e+00 9.865665e-01 -7.978118e-01 2.549935e-01 1.698317e-01 -3.180076e-01 -2.061784e+00 -1.699353e+00 1.374177e+00 -1.257105e-01 -1.803447e-01 
-4.136466e+00 -1.613724e+00 -2.334792e+01 -2.125891e+01 -7.570202e-01 -1.232948e+01 4.178768e+00 -5.279825e+00 -2.309868e+00 9.074341e+00 -1.404192e+01 -3.715498e+00 2.150625e+01 9.383864e-01 2.590822e+00 4.688963e-01 -3.525478e+00 1.766199e+00 5.641818e-01 2.774374e+00 -1.754894e+00 -4.225869e+00 1.578777e+00 3.594710e+00 8.087023e-02 -1.823196e-01 5.683381e-01 8.997995e-02 2.082418e+00 2.481652e+00 -1.651699e+00 4.254087e-02 -8.797038e-01 5.942256e-01 -6.805706e-02 -1.690777e+00 2.626418e-01 2.194432e-01 -2.440594e-01 
-1.496443e+00 2.411068e+00 -2.257704e+01 -2.355249e+01 3.046782e+00 -1.062997e+01 2.683152e+00 -5.913980e+00 -3.427591e+00 8.739596e+00 -6.902055e+00 -1.258579e+00 2.145322e+01 1.377733e+00 1.951602e+00 2.752884e+00 1.179525e+00 -1.974522e+00 1.015349e+00 2.078874e-01 6.148914e-01 -2.078686e+00 -1.155211e+00 2.606136e+00 -4.581780e-01 -4.126337e-01 9.959050e-02 -8.601424e-01 1.605339e+00 2.837266e+00 -1.692406e+00 1.293788e-02 -8.482435e-01 1.150411e+00 1.331977e+00 -1.092777e+00 -7.749543e-01 4.162652e-01 -2.895863e-01 
4.526721e-01 4.070301e+00 -1.561513e+01 -2.272671e+01 -3.908266e+00 -1.166221e+01 4.787919e+00 -3.511945e+00 -7.361518e+00 1.112900e+01 -6.511375e+00 1.110134e+00 2.093201e+01 1.302653e+00 9.007359e-01 3.588768e+00 5.146072e+00 -2.598013e+00 1.337711e+00 -1.213117e+00 1.411095e+00 2.029994e-01 -2.151616e+00 1.580405e+00 -1.195277e-01 -8.630587e-01 -6.635363e-01 -1.164800e+00 4.508559e-01 2.076524e+00 -2.399302e-01 3.711284e-01 -6.116552e-01 7.249306e-01 1.713607e+00 -4.195450e-01 -3.790195e-01 4.867590e-01 -2.612649e-01 
1.157440e+00 3.998108e+00 -1.197635e+01 -8.092484e+00 -1.009524e+01 -8.834834e+00 -7.994522e-01 2.115742e+00 -3.308817e+00 4.555880e-01 -9.415045e+00 -6.575895e+00 1.987433e+01 2.373627e-01 -1.401811e+00 4.035812e+00 5.328195e+00 -1.824224e+00 9.892563e-01 5.416474e-01 2.222317e+00 1.522069e+00 -1.084031e+00 2.957784e-01 6.612647e-01 -1.142663e+00 -1.318605e+00 -9.275171e-01 -6.330666e-01 6.374602e-02 9.230925e-01 -9.522569e-03 -5.761352e-01 -2.989981e-01 9.356419e-01 5.246736e-01 4.762281e-01 8.824373e-01 -8.667453e-02 
1.049855e+00 2.096436e+00 -1.070443e+01 -3.258549e+00 -7.176075e+00 -6.538490e+00 -1.455169e-01 -2.239212e+00 -1.354258e+00 2.458265e+00 -4.883397e+00 -1.654478e+00 1.798040e+01 -1.809110e+00 -1.556472e+00 2.081712e+00 4.782808e+00 4.913994e-01 2.432870e+00 -4.507825e-01 1.066046e+00 2.541786e+00 -5.545381e-01 2.854791e+00 1.954944e+00 -1.123629e+00 -1.270941e+00 -3.248025e-01 -1.211799e+00 -1.172297e+00 8.295135e-01 -2.760415e-01 -7.258309e-01 -5.348555e-01 1.516054e-01 4.965122e-01 5.298606e-01 5.363505e-01 2.143167e-01 
-6.082209e-01 -3.611055e+00 -4.853334e+00 -6.645599e+00 -4.440437e+00 -8.245544e+00 7.858107e+00 4.561238e+00 1.179125e+00 7.654809e+00 -6.237152e+00 3.430051e+00 1.721571e+01 -3.659410e+00 -1.457380e+00 3.410788e-01 1.679887e+00 1.096235e+00 4.201563e-01 -3.053956e+00 -7.075750e-01 1.430130e+00 6.696181e-01 4.350083e+00 2.916773e+00 -7.157211e-01 -2.195413e-01 5.381075e-01 -1.498871e+00 -1.494865e+00 1.856008e-02 -4.449185e-01 -8.279212e-01 -6.651891e-01 -6.112722e-01 -4.486918e-01 -4.327315e-01 -4.803306e-01 4.796380e-01 
-7.710046e+00 9.252257e-02 -8.768082e+00 4.638866e-01 -4.278669e+00 2.074965e-01 -1.794773e+00 5.955394e-01 3.103442e+00 4.756700e+00 6.173635e+00 5.881882e+00 1.664317e+01 -3.103667e+00 -6.954920e-01 -6.228622e-01 1.108739e+00 8.932576e-02 2.420531e-01 -3.044471e+00 2.017637e-01 1.006997e+00 -5.458794e-01 2.202555e+00 1.434471e+00 -4.946327e-03 1.296735e+00 7.578176e-01 -9.862782e-01 -2.031053e+00 -8.091643e-01 -8.823012e-01 4.137770e-01 -3.947195e-02 -1.204262e+00 -7.417518e-01 -2.151257e+00 -1.310645e+00 5.989149e-01 
-1.275966e+01 -2.286834e+00 -1.123913e+01 -1.554267e+00 -6.062767e+00 -1.010705e+01 -1.524460e+01 -2.839508e+00 1.612981e+00 2.654461e+00 6.806857e+00 4.239789e+00 1.696434e+01 -2.130650e-01 8.582365e-01 -2.106257e+00 -3.090941e-01 -1.530387e+00 -1.399273e-01 -2.301115e+00 -6.714873e-01 -7.668969e-01 -3.331820e+00 -1.541761e+00 -1.480152e+00 6.961859e-01 2.104985e+00 8.215593e-01 -4.326544e-01 -2.197484e+00 -6.080167e-01 -3.133344e-01 1.666183e+00 3.323538e-01 -1.275629e+00 -3.761250e-01 -2.467170e+00 -1.237654e+00 4.860817e-01 
-8.392760e+00 -2.043134e+00 -1.062584e+01 -2.605192e-01 -5.918281e+00 -4.397474e+00 -3.816515e+00 2.469979e+00 3.463797e+00 2.229042e+00 -3.926272e-01 5.113007e+00 1.808135e+01 2.951393e+00 1.074808e+00 -1.626012e+00 -4.377965e+00 -2.241111e+00 -1.698594e+00 1.241682e+00 8.506429e-01 -2.381010e+00 -2.262578e+00 -4.955573e+00 -2.399817e+00 1.164992e+00 1.494665e+00 3.645141e-01 1.232027e-02 -2.185559e+00 1.924783e-01 -2.418231e-01 1.188585e+00 -2.506906e-01 -1.109392e+00 6.704646e-01 -1.110831e+00 -4.982574e-01 1.811548e-01 
-1.332189e+00 1.747956e+00 -1.445574e+01 -7.828866e+00 -1.127257e+01 -6.642696e+00 -2.636595e+00 2.665814e-01 -2.835537e+00 -7.740460e+00 -1.066282e+01 -3.586271e+00 1.997755e+01 3.837983e+00 1.765267e+00 -1.320619e+00 -6.564178e+00 -7.786304e-01 -1.761923e-01 3.133883e+00 6.297546e-01 -3.254010e+00 -3.526576e-01 -4.406704e+00 -1.354352e+00 1.129718e+00 1.740098e-01 -2.917366e-01 5.646182e-01 -8.419486e-01 1.110787e+00 1.669109e-01 2.531770e-01 -5.503181e-01 -6.803443e-02 1.677158e+00 7.435251e-01 4.141658e-01 -1.602853e-01 
1.333184e+00 3.449166e+00 -1.528984e+01 -1.828864e+01 -1.287933e+01 -1.001765e+01 -1.890367e+00 3.295709e+00 -6.577349e+00 -1.358733e+00 -9.869387e+00 -2.204174e+00 2.096153e+01 2.344134e+00 6.735629e-01 -9.540800e-01 -6.691513e+00 6.758388e-01 -9.489300e-01 1.809553e-01 -1.702310e+00 -3.296408e+00 1.316863e+00 -1.919131e+00 -1.119716e+00 6.840618e-01 -6.797782e-01 -6.298577e-01 7.391389e-01 1.543839e+00 1.143621e+00 6.010096e-01 -8.594249e-01 -8.702242e-01 7.267169e-01 1.019773e+00 1.889705e+00 4.386527e-01 -3.612611e-01 
1.567283e+00 3.793353e+00 -1.551023e+01 -2.536109e+01 -6.475396e+00 -8.177921e+00 -5.382639e-01 -1.035998e-01 -9.636497e+00 2.685061e+00 -1.048828e+01 1.126618e+00 2.117284e+01 9.606131e-01 -3.998241e-01 3.808684e-01 -3.362063e+00 2.565072e+00 3.197950e-01 -5.048662e-01 -2.146601e+00 -6.493703e-01 3.264249e+00 6.576443e-01 -4.937334e-02 1.352241e-01 -6.243854e-01 -7.620977e-01 7.581291e-01 3.077713e+00 2.135793e-01 4.970954e-01 -1.220798e+00 -3.067397e-01 9.527272e-01 2.252610e-02 1.739744e+00 1.639071e-02 -3.484556e-01 
1.878176e+00 3.019822e-01 -1.486899e+01 -2.495197e+01 -4.937673e+00 -8.374511e+00 -3.960904e+00 -5.856482e+00 -9.617762e+00 3.600595e+00 -1.007555e+01 -2.842017e+00 2.090402e+01 9.911869e-01 -9.919348e-01 1.218939e+00 1.740174e+00 1.805143e+00 1.058461e+00 -1.236068e+00 -2.112300e+00 -4.974566e-02 1.027831e+00 1.960780e+00 -8.590431e-01 -1.440666e-01 -1.678522e-01 -4.415034e-01 5.236651e-01 2.988548e+00 -5.535591e-01 4.380505e-01 -5.141025e-01 5.360181e-01 6.193427e-01 -6.574590e-01 8.640319e-01 -8.871982e-02 -1.893346e-01 
3.198381e+00 1.322428e+00 -1.276182e+01 -2.130752e+01 -2.418034e+00 -5.865289e+00 -4.125658e+00 -5.890328e+00 -4.562181e+00 6.101119e+00 -7.271520e+00 -3.514216e+00 2.068243e+01 1.392530e+00 -1.212472e+00 1.383517e+00 4.608541e+00 -2.753862e-01 1.305589e+00 -2.261593e+00 -6.989489e-01 -1.137048e-01 -9.551134e-02 2.352062e+00 -1.402735e+00 -1.984959e-01 -8.557051e-03 -1.971830e-01 4.280416e-02 1.435419e+00 -9.660991e-01 -2.534412e-01 -1.309574e-01 7.179235e-01 -2.037391e-01 -8.258336e-01 -1.315928e-01 -3.858373e-01 -2.137310e-02 
5.473569e+00 -2.750454e-01 -1.056934e+01 -1.161456e+01 -5.882290e+00 -5.881660e+00 -6.277010e+00 -4.372427e+00 -9.363235e+00 2.072394e+00 -1.673870e+00 -4.178973e+00 2.048640e+01 1.288915e+00 -1.127630e+00 1.162921e+00 4.265923e+00 -6.717277e-01 7.484253e-01 -1.511194e+00 2.539541e-01 -4.675269e-01 -2.905521e-01 1.553820e+00 -8.866342e-01 -9.575119e-02 -2.614765e-01 4.187981e-02 -2.578546e-01 -4.865109e-01 -5.944679e-01 -6.630653e-01 3.620473e-01 4.488799e-01 -7.252529e-02 -2.294481e-01 -5.074896e-01 -3.887974e-01 6.453447e-02 
6.732236e+00 -1.980494e+00 -1.074247e+01 -8.987091e+00 -7.380018e+00 -2.896399e+00 -1.068818e+01 -4.340372e+00 -1.033228e+01 2.971604e+00 -2.928817e+00 -5.218580e+00 2.038917e+01 7.689639e-01 -1.317891e+00 6.228985e-01 2.552156e+00 -1.026988e+00 -7.923936e-01 -1.022090e+00 2.598888e-01 -1.459175e+00 -2.057277e-01 2.031602e-01 -1.964764e+00 4.200935e-03 -7.517318e-01 3.619331e-01 -2.003816e-01 -1.123410e+00 -1.055313e-01 -7.823575e-01 7.656218e-01 9.509970e-02 4.415139e-01 -1.114627e-01 -5.369972e-01 -3.988899e-02 8.455763e-02 
6.555822e+00 -3.684708e+00 -1.006407e+01 -9.782571e+00 -5.815319e+00 -6.116829e+00 -8.235612e+00 -5.361690e+00 -9.070345e+00 3.712591e+00 -4.477807e+00 -6.423006e+00 2.057189e+01 -4.412460e-03 -7.298261e-01 3.099758e-01 3.358120e-01 -7.913952e-01 -1.207875e+00 -4.558325e-02 -3.473195e-01 2.603630e-01 -6.430087e-02 4.977821e-01 -2.522016e+00 7.725735e-02 -9.268794e-01 5.325061e-01 -2.731445e-02 -5.966763e-01 1.402487e-01 -3.627256e-01 7.280617e-01 2.421984e-01 1.136025e+00 -8.561225e-02 -4.080059e-01 4.279296e-01 6.341001e-02 
6.502075e+00 -3.562198e+00 -9.899964e+00 -9.462734e+00 -7.586459e+00 -9.709672e+00 -8.256809e+00 -4.096253e+00 -1.200450e+01 4.252382e+00 -4.853750e+00 -1.221602e+01 2.066069e+01 -1.719466e+00 3.982913e-01 8.080816e-01 9.565485e-01 -7.432091e-01 -1.628048e+00 8.337107e-01 7.718635e-02 1.729920e+00 -7.659503e-01 1.950945e-01 -7.844893e-01 1.377880e-01 -7.895819e-01 4.238930e-01 8.731444e-02 -5.271212e-02 7.215645e-01 -4.701992e-02 6.325682e-01 1.133221e+00 1.656960e+00 -1.041913e-01 -6.301277e-01 1.074565e+00 3.074951e-02 
5.566588e+00 -3.133324e+00 -9.440716e+00 -9.697679e+00 -9.736046e+00 -8.514398e+00 -7.720610e+00 -6.231084e+00 -7.225311e+00 1.110501e+00 1.777507e+00 -1.329033e+01 2.073693e+01 -2.101268e+00 6.768091e-01 9.337570e-01 2.080345e+00 -1.123733e-01 -6.473755e-01 1.201215e+00 1.556297e+00 3.618053e+00 -4.385021e-01 -4.821765e-01 6.628761e-01 1.545053e-01 -4.295695e-01 7.795016e-02 6.346933e-02 -3.316268e-02 1.145401e+00 -3.137098e-02 3.321249e-01 1.703015e+00 9.759076e-01 -4.257561e-02 -1.226361e+00 1.038020e+00 -9.277994e-03 
-1.370475e+00 -2.647295e-01 -7.013732e+00 -4.246795e+00 -9.135700e+00 -9.837855e+00 -6.777124e+00 -3.519743e+00 -2.605202e+00 4.428982e-01 -5.081001e+00 -5.707365e+00 2.099559e+01 -2.130518e+00 9.825590e-02 7.475801e-01 1.416329e+00 2.241324e+00 -1.307743e+00 1.517352e+00 4.974187e+00 5.146778e+00 -5.395834e-01 -2.457499e+00 1.815614e+00 1.193245e-01 1.563385e-01 -2.142863e-01 -1.958207e-02 -8.158665e-01 1.110655e+00 1.559802e-01 1.143700e-01 1.261539e+00 -1.988605e-01 1.791504e-01 -1.051730e+00 2.387677e-01 -4.756141e-02 
-1.424138e-02 -1.949396e+00 -6.838398e+00 -1.988818e+00 -5.602565e+00 -9.289615e+00 -2.969381e+00 2.131542e+00 4.320268e+00 3.424823e+00 -6.775064e+00 -6.362954e+00 2.117696e+01 -1.946734e+00 -1.900576e-01 6.575732e-01 -5.989156e-02 3.443342e+00 -1.524882e+00 1.273221e+00 5.719257e+00 3.431472e+00 -3.903624e-01 -4.307725e+00 1.368031e+00 4.009914e-02 3.326383e-01 -1.169492e-01 1.096394e-01 -1.311270e+00 3.993230e-01 2.374101e-01 2.600051e-02 -1.517375e-01 -1.455532e+00 2.701943e-01 -4.001771e-01 -2.208707e-01 -6.228277e-02 
-1.360100e+00 -3.662883e+00 -7.463223e+00 -6.235521e+00 1.553421e+00 -1.586078e+01 -3.045666e+00 1.659337e+01 7.956598e+00 3.973040e-01 -1.286496e+01 -6.601637e+00 2.103729e+01 -1.015040e+00 -2.397069e-01 8.482631e-01 -2.052666e+00 3.032208e+00 -4.093936e-01 1.369557e+00 4.303400e+00 8.289076e-01 1.057320e-01 -3.150783e+00 5.677166e-02 -4.281597e-02 4.008258e-01 2.544751e-01 1.688965e-01 -9.002393e-01 -7.392990e-01 6.264809e-01 -7.445057e-02 -1.736429e+00 -1.784301e+00 3.078353e-01 6.865134e-01 -3.115819e-01 -4.496311e-02 
-4.172268e+00 -2.384535e+00 -5.928104e+00 -9.002773e+00 2.136104e+00 -1.312735e+01 -3.220236e+00 1.230865e+01 4.651150e+00 -8.185135e-01 -1.586914e+01 -6.003038e+00 2.091657e+01 -9.958150e-01 2.610445e-01 1.431612e+00 -2.741508e+00 1.488800e+00 9.050064e-02 1.405114e+00 1.133003e+00 -1.500673e+00 5.898116e-01 -2.136420e+00 4.379438e-01 -7.583828e-02 4.577622e-01 4.837310e-01 -1.296033e-02 -1.020127e-01 -1.379752e+00 3.899300e-01 -2.920125e-01 -1.860066e+00 -9.434482e-01 6.748910e-02 1.246028e+00 8.097132e-02 -1.348169e-02 
-4.366661e+00 -1.245695e+00 -3.227563e+00 -1.100315e+01 2.156006e+00 -9.965957e+00 1.960903e-01 1.290870e+01 1.373895e+00 3.093226e+00 -1.628788e+01 -5.603464e+00 2.091171e+01 -6.018483e-01 1.145080e+00 1.205043e+00 -1.744059e+00 -4.778998e-01 1.016970e+00 1.079152e+00 -1.414830e+00 -1.308653e+00 5.095059e-01 -1.105841e-01 7.227487e-01 -4.752235e-02 5.474737e-01 5.694395e-01 -3.177089e-01 8.596054e-01 -1.564068e+00 -3.097765e-01 -7.451854e-01 -1.210074e+00 -1.310217e-01 -4.819009e-01 1.181324e+00 9.618075e-02 1.349928e-02 
-3.490036e+00 -1.852768e+00 -1.798165e+00 -1.331255e+01 1.540141e+00 -1.178452e+01 2.435312e+00 9.638891e+00 1.082559e-01 5.025919e+00 -1.574570e+01 -4.672322e+00 2.086057e+01 1.354813e-01 1.536204e+00 4.143817e-01 -7.242585e-01 -1.700364e+00 -2.884144e-01 -4.163894e-02 -7.219571e-01 -2.169891e-01 -2.548038e-01 4.023172e-01 1.439899e+00 -2.495613e-02 7.672864e-01 3.811711e-01 -5.618242e-01 1.277560e+00 -1.256623e+00 -6.319849e-01 -9.527830e-01 -2.088292e-01 2.809854e-01 -7.284946e-01 8.551871e-01 -4.351126e-01 2.714134e-02 
-4.710457e+00 1.796635e+00 -3.502978e+00 -1.280093e+01 -5.380974e-01 -1.144734e+01 -4.776786e-01 1.085410e+01 3.684780e+00 2.261720e-02 -1.347960e+01 -3.653252e+00 2.082769e+01 1.156680e+00 1.969911e+00 -2.316661e-01 1.236736e+00 -3.193549e+00 -1.768819e+00 -1.632993e+00 -8.194878e-01 -4.680427e-01 -1.881465e+00 1.486469e+00 3.669777e-02 -7.606506e-04 8.411790e-01 -1.897210e-01 -4.498332e-01 9.359263e-01 -4.995641e-01 -6.637585e-01 -6.554676e-01 2.175594e-01 -4.436644e-02 -5.128558e-01 2.827473e-01 -7.416343e-01 1.698155e-02 
-3.322963e+00 3.775318e+00 -3.718488e+00 -1.172517e+01 -5.018662e+00 -1.382873e+01 -3.091546e+00 9.726166e+00 2.410762e+00 -5.572280e-01 -1.526169e+01 2.213511e-01 2.083380e+01 1.961353e+00 1.754484e+00 -6.591539e-01 2.155896e+00 -3.436490e+00 -1.676529e+00 -2.002728e+00 -2.088137e-01 -5.160509e-01 -1.857176e+00 1.340988e+00 -1.394594e+00 3.648758e-02 5.608960e-01 -6.668757e-01 -1.342602e-01 2.957601e-01 3.450165e-01 -5.238256e-02 -2.049925e-02 1.631809e-01 -2.773541e-01 1.621505e-02 2.211396e-02 -6.640880e-01 -2.073864e-02 
1.333205e+00 5.789818e+00 -3.425732e+00 -5.613152e+00 -1.053234e+01 -1.778795e+01 -5.205447e+00 8.767629e+00 -2.117572e+00 -3.522525e+00 -9.097536e+00 -7.866812e+00 2.092128e+01 2.691111e+00 8.733518e-02 -5.073552e-01 1.495496e+00 -2.107657e+00 -1.607764e+00 -1.217641e+00 -5.836045e-01 -1.380954e+00 -1.253587e+00 8.338167e-01 -1.568177e+00 6.663513e-03 -4.140036e-01 -8.591515e-01 1.631179e-01 -3.924192e-01 9.733529e-01 9.820762e-01 5.491785e-01 -3.472194e-02 4.950160e-03 4.650773e-01 2.547073e-02 -1.150675e-01 -8.855440e-02 
3.294896e+00 4.923062e+00 -5.132558e+00 -6.126957e+00 -1.064519e+01 -1.699686e+01 -5.214446e+00 9.638058e+00 4.291773e-01 -2.487389e+00 -1.123179e+01 -9.538510e+00 2.099621e+01 2.172746e+00 -8.568866e-01 -1.190748e-01 6.251621e-01 -5.182271e-01 -6.308542e-01 -3.518110e-01 -2.399426e-02 -1.147304e+00 -4.876677e-01 8.392134e-01 -1.078104e+00 -1.323614e-01 -1.454855e+00 -6.094435e-01 3.933584e-01 -4.097646e-01 8.887742e-01 1.540203e+00 8.306440e-01 -4.964301e-01 9.451728e-02 3.431692e-01 3.574246e-01 2.345100e-01 -1.697960e-01 
5.436168e+00 1.659439e+00 -5.332719e+00 -8.122559e+00 -8.263117e+00 -1.790209e+01 -5.504436e+00 7.980130e+00 -2.229199e+00 -5.280236e+00 -1.132546e+01 -6.614204e+00 2.077980e+01 -1.019034e+00 -1.020161e+00 3.138836e-01 4.000711e-02 2.140842e-01 2.618725e+00 2.874409e-01 -1.085507e+00 -1.276654e-01 -2.408330e-01 1.864711e+00 -6.968845e-01 -3.591082e-01 -1.930303e+00 -4.432444e-02 3.699655e-01 2.960680e-01 4.579269e-01 1.540897e+00 6.053411e-01 -7.959180e-01 1.525966e-01 2.018225e-01 6.366435e-01 4.537139e-01 -2.116416e-01 
5.489285e+00 1.556075e+00 -3.360369e+00 -7.344661e+00 -8.744407e+00 -1.692593e+01 -4.701107e+00 9.999944e+00 -3.269944e+00 -2.116711e+00 -9.951664e+00 -5.795472e+00 2.024274e+01 -3.457851e+00 -7.389857e-01 8.970189e-01 8.348171e-01 -1.534895e-01 3.911242e+00 1.397951e+00 -2.440013e+00 -6.701090e-01 -6.477070e-01 2.612665e+00 -6.576897e-01 -6.296066e-01 -1.456538e+00 8.333062e-02 4.089180e-02 5.616049e-01 3.087908e-01 6.535575e-01 2.198760e-01 -9.060464e-01 1.999360e-01 3.049885e-02 2.918347e-01 8.815085e-01 -2.007712e-01 
-4.859159e+00 2.372509e+00 -2.742409e+00 -4.804265e+00 -1.041231e+01 -4.729793e+00 -4.024912e+00 3.159149e+00 -9.063377e-01 -4.912029e+00 -4.140482e-01 -1.322275e+01 1.950248e+01 -4.145103e+00 -1.932374e-01 8.344253e-01 2.871008e+00 -3.910065e-04 3.825671e+00 9.341833e-01 -3.355185e+00 -8.565688e-01 -1.644545e-01 3.130309e+00 4.901859e-01 -8.029221e-01 1.554896e-01 -1.212713e-01 -5.562184e-01 -7.720073e-02 2.887886e-01 -1.062383e+00 -2.633583e-01 -4.686310e-02 3.361250e-01 4.564358e-02 -7.649976e-01 1.172716e+00 3.636739e-02 
-8.846693e+00 8.715992e-01 -1.942619e+00 -3.612019e+00 -1.033804e+01 -4.026806e+00 1.035546e+00 -1.515155e-01 -3.582798e+00 -5.910028e+00 -3.624177e+00 -9.522684e+00 1.848684e+01 -3.546911e+00 -8.536950e-01 -1.748867e-01 2.017686e+00 1.132964e+00 2.033460e+00 4.241977e-01 -3.419387e+00 2.168279e-01 -3.733627e-01 1.665588e+00 2.735903e+00 -9.143103e-01 1.447857e+00 -3.930762e-01 -1.171823e+00 -1.323335e+00 4.475797e-01 -2.267168e+00 -5.772500e-01 8.670617e-01 8.433237e-01 4.116038e-01 -1.871264e+00 8.966180e-01 3.617873e-01 
-8.121361e+00 1.035490e+00 -1.869468e+00 4.366159e+00 -7.468254e+00 -5.223301e+00 -3.701846e+00 -3.720066e+00 -6.355616e+00 -4.205850e+00 1.162336e+00 -2.299668e+00 1.764314e+01 -1.970559e-01 -1.569162e+00 -1.931256e+00 -9.374310e-01 1.014800e+00 -1.754302e+00 -5.424739e-01 -8.301355e-01 1.109491e+00 -1.497872e-01 -1.486739e+00 3.469898e+00 -3.491936e-02 1.682631e+00 -3.559317e-01 -1.408756e+00 -2.501714e+00 3.781500e-01 -2.299680e+00 -4.682980e-01 1.399187e+00 8.347155e-01 4.439666e-01 -2.334944e+00 -3.053934e-01 5.759484e-01 
-1.061417e+01 -2.043890e+00 -4.671273e+00 -1.841443e+00 -4.551610e+00 -6.511870e+00 -2.741651e+00 -3.657383e+00 5.388345e-01 -4.336614e+00 -2.411918e+00 2.422502e+00 1.660085e+01 1.807412e+00 -2.016404e+00 -3.579255e+00 -3.877641e+00 1.576813e+00 -4.634611e+00 -7.499707e-01 6.327709e-01 2.563480e+00 1.402978e+00 -4.435133e+00 2.335544e+00 7.953283e-01 1.120298e+00 1.742471e-01 -8.003054e-01 -2.065272e+00 2.080660e-01 -9.328357e-01 -3.911307e-01 1.145922e+00 2.892871e-01 4.757096e-01 -1.665909e+00 -1.465243e+00 5.248554e-01 
-4.960701e+00 -4.015557e+00 -1.103436e+01 -1.037671e+01 -8.231520e+00 -1.225877e+01 -4.848682e+00 7.614062e-01 2.580301e+00 -6.447672e+00 -8.453873e+00 -1.845855e+00 2.027087e+01 1.590891e+00 -1.391541e+00 -4.507169e+00 -6.689899e+00 1.668435e+00 -4.338692e+00 -8.202227e-01 1.614672e+00 2.143682e+00 1.167208e+00 -5.494049e+00 -8.366016e-01 1.222000e+00 -6.121635e-02 5.723760e-01 3.412099e-01 -7.348186e-01 2.989210e-01 9.985970e-01 -1.720005e-01 2.385287e-01 -1.610349e-01 2.658676e-01 -2.876581e-01 -1.456462e+00 8.663164e-02 
-1.389963e+00 -6.684900e+00 -1.525645e+01 -1.562879e+01 -2.072343e+00 -2.368213e+01 -2.140889e+00 7.716032e-01 4.766641e+00 2.225774e+00 -2.099174e+01 1.928129e+00 2.114961e+01 1.160606e+00 -7.126980e-02 -2.888457e+00 -5.432437e+00 1.846478e+00 -1.338523e+00 -1.392581e+00 1.087818e+00 1.146168e+00 1.346688e+00 -4.660303e+00 -2.437062e+00 1.081507e+00 -6.335683e-01 6.466600e-01 1.263314e+00 5.812611e-01 -2.066659e-02 2.170016e+00 -6.558028e-02 -2.716257e-01 -4.527628e-01 -2.902907e-01 9.974397e-01 -7.321749e-01 -2.461582e-01 
-4.779007e+00 -3.601712e+00 -1.911273e+01 -2.218966e+01 -3.657132e-01 -1.833163e+01 -8.103340e+00 2.138799e+00 2.248893e+00 -1.651004e+00 -1.701800e+01 -6.235490e+00 2.147877e+01 -1.797349e-01 3.201506e-01 -5.706048e-01 -3.834126e+00 2.374573e+00 1.590639e+00 -1.081171e+00 1.349842e-01 1.012972e+00 1.207696e+00 -2.812445e+00 -1.426108e+00 2.551497e-01 -4.387525e-01 2.505315e-01 1.494474e+00 1.442042e+00 -2.727483e-01 1.599541e+00 2.570591e-01 -4.611423e-01 -2.668668e-01 -2.666449e-01 1.257537e+00 4.550482e-01 -3.498415e-01 
-4.901983e+00 -2.607162e+00 -1.507437e+01 -2.309715e+01 7.478733e-01 -1.016805e+01 -8.077229e+00 1.093011e+00 6.435377e+00 -1.508850e-03 -2.143137e+01 -7.567990e+00 2.140444e+01 -4.751164e-01 3.610493e-01 7.690359e-01 -2.399222e+00 1.120411e+00 3.250805e+00 -9.473981e-01 1.448638e-02 8.650208e-01 -6.871925e-02 -7.887367e-01 -1.030577e+00 4.796295e-02 -1.496508e-01 -1.242741e-01 9.756888e-01 1.171010e+00 -4.064349e-01 5.179453e-01 4.593777e-01 -2.773743e-01 -4.555418e-02 -2.276011e-01 8.706607e-01 8.506422e-01 -2.449468e-01 
-4.103366e+00 -4.453673e+00 -1.397842e+01 -2.581316e+01 2.231237e+00 -1.106261e+01 -7.286366e+00 1.275623e+00 6.810794e+00 7.044502e-01 -2.229628e+01 -4.228334e+00 2.141921e+01 2.149900e-01 -3.550432e-01 1.136457e+00 -9.962988e-01 6.677265e-01 1.364349e+00 2.424810e-01 -1.543740e-01 9.499220e-01 5.416868e-01 -1.142148e+00 7.353967e-01 -1.043510e-02 1.479556e-01 -2.066480e-01 3.781544e-01 7.078578e-01 -3.866378e-01 -2.339037e-01 3.837183e-01 -7.475768e-02 -4.119933e-03 -7.216126e-02 2.987183e-01 6.088983e-01 -5.895676e-02 
