6.337072e+00 -5.786651e+00 -1.562316e+01 1.302399e+00 -1.139902e+01 -2.546003e-01 -3.512979e+00 -9.383162e+00 1.601812e+00 9.952919e+00 -1.114005e+01 -1.187282e+01 2.038235e+01 -2.434071e+00 4.385928e-01 5.765279e-01 -9.585631e-02 -9.797853e-01 5.988647e-01 -5.670675e-01 2.190002e+00 4.752474e-01 -3.429069e+00 1.135471e+00 2.273116e+00 -1.210531e-01 6.173608e-01 -8.351549e-02 7.024571e-02 -1.473895e-01 2.515372e-01 -3.476256e-02 -2.576236e-01 -7.941056e-01 -1.701880e-01 9.171740e-01 -5.407087e-01 -5.315920e-01 4.101303e-02 
-1.626781e+00 -2.772894e+00 -1.201000e+01 5.545949e+00 -8.785944e+00 6.891943e+00 -1.149906e+00 -3.134759e-01 7.733590e+00 1.019965e-02 -5.665751e+00 -3.384057e+00 1.961425e+01 -1.173404e+00 1.610484e-01 -5.366297e-02 -4.839242e-01 -8.380516e-01 6.574895e-01 -1.209128e+00 9.179360e-01 -1.573240e-01 -1.143039e+00 -1.811001e-01 1.538607e+00 -2.475910e-02 7.154603e-01 -5.061859e-01 3.267724e-01 1.567242e-01 -1.199968e-02 2.928994e-01 7.919819e-02 -1.100650e+00 -6.232089e-03 1.395001e+00 -5.134739e-01 -8.067423e-01 5.114695e-02 
-1.851357e+00 -5.100565e+00 -1.454710e+01 -1.298658e+00 -1.760449e+01 -8.335487e-01 -7.529853e+00 -2.967994e+00 9.121608e-01 -2.221067e+00 -8.199842e+00 -4.751614e+00 2.016114e+01 2.239928e-02 1.597876e-01 1.242852e+00 -6.387699e-01 2.070337e-01 3.957394e-01 -1.534155e+00 -1.144493e+00 -5.940702e-02 1.378527e-02 -9.097878e-01 -1.758909e-02 3.586502e-02 4.900941e-01 -5.227367e-01 4.789390e-01 2.962625e-01 -4.090885e-01 4.536755e-01 5.554604e-01 -9.255776e-01 3.064899e-01 1.045760e+00 -2.905426e-01 -5.683072e-01 2.906233e-02 
4.564267e+00 -5.324452e+00 -1.642951e+01 1.833060e-01 -1.248655e+01 3.322322e+00 -7.550183e+00 -8.001065e+00 1.160018e+00 1.032472e+01 -1.351565e+01 -7.740383e+00 2.036917e+01 -8.500473e-02 -1.952934e+00 1.877228e+00 9.592215e-01 -1.633193e+00 2.164924e+00 3.124672e-01 -1.646000e+00 7.114142e-01 1.824511e+00 -4.092696e-01 -6.152426e-01 5.622254e-02 9.546991e-02 -1.744828e-01 1.211131e-01 9.557270e-02 -4.918535e-01 -1.636756e-01 7.797090e-01 8.713901e-03 2.102727e-01 -1.296992e-01 1.902874e-01 6.056480e-02 2.554707e-02 
3.353544e+00 -3.711934e+00 -7.199152e+00 7.898711e-01 -8.513554e+00 3.508908e+00 -7.983616e+00 -1.126183e+01 4.591563e+00 4.864585e+00 -1.176404e+01 -9.782598e+00 2.018422e+01 -5.277999e-01 -1.118099e+00 2.005777e+00 6.638834e-01 -2.627657e+00 2.113525e+00 1.449437e+00 -1.155918e+00 1.573328e+00 3.159549e-01 -2.031578e-01 5.085046e-01 -1.623230e-02 1.787717e-01 3.654951e-01 -6.947619e-01 -5.139039e-01 -2.289162e-02 -1.028716e+00 4.920753e-01 8.464135e-01 -4.302324e-01 -4.736150e-01 8.385952e-02 6.637583e-01 4.462406e-02 
-4.654255e+00 -1.323188e+01 -6.297841e+00 9.297792e+00 -2.149738e+01 1.554534e+01 6.393117e-01 -4.396554e+00 9.450960e+00 5.589927e+00 -5.930002e+00 -3.944778e+00 1.988382e+01 -4.209547e-01 -7.242239e-02 1.704399e-01 -6.573874e-01 -1.879974e+00 -1.019781e+00 1.197621e+00 9.672182e-01 7.767196e-02 -1.942619e+00 4.170219e-01 1.578384e+00 1.290249e-01 2.971072e-01 1.293939e+00 -3.616578e-01 -1.186324e+00 1.139838e+00 -1.477045e+00 -3.163411e-01 7.771679e-01 -5.981954e-01 -6.281437e-01 -1.811583e-01 5.020315e-01 1.501255e-02 
1.189050e-01 -6.737347e+00 -9.584050e+00 -2.536484e+00 -2.623736e+01 3.622568e+00 -4.377416e+00 -1.054984e+01 4.633329e+00 1.726104e+00 -1.300846e+01 -4.106893e+00 2.032265e+01 1.084233e+00 1.047007e+00 -1.377563e+00 -2.399985e+00 2.159658e-01 -3.155490e+00 4.836444e-01 1.780965e+00 -1.893698e+00 -4.707246e-01 -9.036360e-01 2.204389e+00 2.225842e-01 -1.181761e-01 9.932688e-01 4.145281e-01 -6.589455e-01 1.259778e+00 -4.327950e-01 -6.482411e-01 4.332852e-01 1.461007e-01 -3.429596e-01 -4.793209e-02 1.747881e-01 -5.600125e-02 
4.076813e+00 -4.173858e+00 -1.438486e+01 -1.440453e+00 -1.302451e+01 -1.833416e+00 -3.365178e+00 -3.520970e+00 1.527495e+00 2.180863e+00 -1.080833e+01 -2.686316e+00 2.094507e+01 5.945153e-01 3.434206e+00 1.760609e+00 -3.440463e+00 2.644184e+00 -2.585795e+00 -7.863418e-01 7.713981e-01 -5.460498e-01 -9.228681e-01 -9.648221e-01 1.046973e+00 1.187706e-02 -4.989349e-01 2.747102e-01 9.420934e-01 2.163868e-01 1.297864e-01 8.252746e-01 -5.786690e-01 -7.719530e-02 8.449724e-01 -2.819829e-01 2.316338e-01 -1.621714e-01 -1.216904e-01 
4.409173e+00 -3.005911e+00 -1.004346e+01 -5.840931e+00 -1.167016e+01 -3.579168e+00 -3.563149e+00 -2.794797e+00 -9.151930e-01 4.215494e+00 -1.384305e+01 6.101170e-01 2.076652e+01 -1.626415e+00 2.094930e+00 3.283333e+00 -1.239306e+00 1.409152e+00 7.325569e-01 -7.997870e-01 1.108418e+00 2.615692e+00 -1.908718e+00 2.481038e-01 1.648150e+00 -2.376646e-01 -5.585182e-01 -4.555334e-01 4.384444e-01 8.356320e-01 -8.300379e-01 1.185943e+00 -3.290158e-01 -1.906690e-01 9.022130e-01 -6.820375e-01 7.192225e-01 -3.558441e-01 -8.026589e-02 
-3.826813e+00 2.073432e+00 2.734909e+00 -6.252301e+00 -1.556006e+01 6.217231e+00 -3.699531e+00 -4.417086e+00 9.494972e+00 -2.691083e-01 -1.033681e+01 -1.068419e+00 1.972128e+01 -1.560305e+00 7.771674e-01 2.550458e+00 -1.557929e-01 -1.827635e+00 1.162568e+00 -1.054008e+00 9.175156e-01 2.047839e+00 -2.633537e+00 9.993208e-01 1.045646e+00 -2.493027e-01 -1.026511e-03 -9.190787e-01 -7.675809e-01 7.834204e-01 -9.439366e-01 5.380098e-01 -1.782205e-01 -1.004143e-02 1.072336e-01 -2.419439e-01 5.047852e-01 -3.363525e-01 4.335549e-02 
-4.061359e+00 6.136582e-01 -1.727269e+00 -6.327092e+00 -1.792383e+01 3.260029e+00 -8.209175e+00 -4.559695e+00 1.372805e+01 -6.592503e+00 -1.200369e+01 3.324911e+00 1.974623e+01 -6.309482e-01 9.785949e-02 4.197340e-01 1.358395e-01 -1.698314e+00 9.000437e-01 -1.027601e+00 7.545615e-01 1.320423e+00 -3.025578e+00 1.710405e+00 4.258320e-01 -4.815540e-02 1.707986e-01 -3.781372e-01 -7.341800e-01 2.990846e-01 4.881904e-02 -7.712569e-02 -8.459791e-02 -2.140090e-01 -4.081922e-01 3.807477e-01 1.328383e-01 -6.332375e-01 7.327376e-02 
5.105528e-01 -2.097805e+00 -5.790665e+00 -1.976337e+00 -1.903585e+01 5.598273e-01 -6.312205e+00 1.949057e+00 4.445068e+00 -5.582822e+00 -6.731405e+00 1.184517e+00 2.020870e+01 9.164906e-02 -1.626520e-01 -6.454958e-01 -2.109338e-01 -5.217659e-01 2.051084e-02 -1.563537e+00 8.981191e-01 6.377527e-01 -1.574158e+00 8.279533e-01 -2.363063e-02 1.338999e-01 -4.505222e-01 1.753111e-01 -1.795650e-02 7.438440e-02 8.669759e-01 1.084453e-01 1.111128e-01 -4.413709e-01 1.606730e-02 5.422327e-01 -3.870025e-01 -4.085535e-01 -2.175887e-03 
-9.142508e-01 -4.309945e-01 -3.682003e+00 -7.299716e+00 -1.842383e+01 3.749752e+00 -7.394819e+00 -2.205061e+00 8.211874e+00 -8.255536e+00 -7.093731e+00 1.612809e+00 2.028202e+01 -1.598400e+00 6.741537e-01 1.210410e+00 2.836874e-01 1.000313e+00 9.179572e-01 -9.680122e-01 4.807110e-02 1.279774e+00 -5.346695e-01 9.979792e-01 -9.833987e-01 -6.289711e-02 -9.603291e-01 3.687312e-01 6.424869e-01 3.950571e-01 7.251629e-01 1.849094e-01 1.934302e-01 -4.307150e-01 2.889509e-01 6.672175e-01 -4.528000e-01 -2.781518e-01 -8.542862e-02 
-4.942122e+00 1.782499e+00 4.847973e-01 -6.820658e+00 -1.791889e+01 6.074924e+00 -1.192439e+01 -1.103807e+00 1.544182e+01 -7.308382e+00 -8.652029e+00 -3.305215e-01 2.012288e+01 -3.329190e+00 1.365576e+00 2.065338e+00 1.422051e-01 1.157931e+00 1.695838e+00 -5.282388e-01 -9.360937e-01 2.148500e+00 -1.167827e+00 -5.794786e-01 -2.925063e-01 -2.528113e-01 -9.569291e-01 2.441058e-01 5.700213e-01 8.754103e-01 5.179615e-01 2.211539e-01 2.005868e-01 -3.943298e-01 -1.638334e-02 3.829579e-01 -2.344773e-01 2.274245e-02 -9.319410e-02 
-9.327022e+00 2.044275e+00 1.187050e+00 -2.486494e+00 -1.348074e+01 5.092267e+00 -1.024314e+01 -2.792907e+00 1.462854e+01 -8.403070e+00 -6.053487e+00 -8.345633e-01 1.947466e+01 -3.722174e+00 1.177401e+00 2.276752e+00 1.934556e+00 1.087652e+00 9.869270e-01 -5.780995e-01 -4.819069e-01 2.009804e+00 1.073445e-01 1.501209e-01 -8.304889e-01 -2.819429e-01 -3.442368e-01 -1.124227e-01 -1.379097e-01 7.712015e-01 2.131780e-01 7.861962e-02 1.575269e-01 4.653832e-02 -3.240505e-01 3.492554e-01 -3.804419e-01 3.352900e-01 -1.475143e-02 
-1.192901e+01 3.492440e+00 2.101496e+00 -3.671922e+00 -1.571774e+01 8.367761e+00 -7.529238e+00 -2.437489e+00 1.197923e+01 -1.134819e+01 -1.014892e+01 9.456718e-01 1.934833e+01 -3.631110e+00 8.062531e-01 1.671440e+00 3.340683e+00 2.024372e+00 1.091795e+00 -7.555591e-01 -8.085412e-01 1.908211e-01 1.962466e-02 7.949610e-02 1.362669e-02 -2.225477e-01 2.287669e-01 -4.972985e-01 -5.925145e-01 5.210763e-01 3.595097e-01 1.840636e-02 1.602020e-01 1.896487e-01 -4.710015e-01 6.318077e-01 -1.834723e-01 2.565385e-01 7.656612e-03 
-1.603167e+01 4.601041e+00 6.893406e+00 7.986943e-01 -1.408614e+01 7.537969e+00 -1.248289e+01 -3.947755e+00 1.999219e+01 -5.698908e+00 -5.594681e+00 -3.177732e+00 1.925958e+01 -3.168624e+00 3.917015e-01 7.178103e-01 2.540456e+00 1.632983e+00 1.613077e+00 -6.671772e-02 2.169864e-01 6.383607e-01 6.178815e-01 -1.233718e+00 5.399850e-01 -1.517860e-01 8.695534e-01 -6.811050e-01 -1.090138e+00 -4.380659e-01 1.922955e-01 2.818183e-02 4.609304e-01 1.049785e-01 -9.917063e-01 4.174379e-01 -3.288659e-01 1.493598e-01 -4.951102e-02 
-1.974534e+01 4.535381e+00 5.988819e+00 8.240164e+00 -7.494327e+00 1.031105e+01 -1.458231e+01 -4.569089e+00 1.371411e+01 -8.562340e+00 -8.483952e+00 9.091964e-01 1.911768e+01 -2.462131e+00 -7.280666e-01 -1.177639e-01 2.444636e+00 2.682814e+00 1.474795e+00 1.708045e-02 -3.372970e-01 4.792139e-01 1.735943e+00 -8.049208e-01 3.049491e-01 -2.796066e-01 1.445975e+00 -5.684499e-01 -9.208992e-01 -1.332486e+00 -2.399918e-01 -6.958869e-01 7.664945e-01 1.893753e-01 -1.257140e+00 1.785363e-01 1.335610e-01 -3.779135e-01 -1.688496e-01 
-2.126198e+01 3.481312e+00 2.832440e+00 4.259741e+00 -9.427538e+00 1.218601e+01 -7.050193e+00 -6.421748e-01 1.695291e+01 -6.706589e+00 -1.305456e+01 1.883599e+00 1.883105e+01 4.110336e-02 -1.460964e+00 -2.279336e+00 1.922497e-01 1.719909e+00 9.363362e-01 1.340233e+00 -1.926365e-01 -3.092924e+00 1.336375e+00 -1.052000e+00 -2.293510e-01 -5.009686e-01 1.568454e+00 -2.050086e-01 -4.272755e-01 -1.316786e+00 -1.879842e-01 -1.168953e+00 5.277518e-01 8.409866e-02 -1.517347e+00 -1.220436e-01 1.134186e+00 -3.880680e-01 -2.516032e-01 
-2.162451e+01 4.119716e-01 3.543160e+00 6.820735e+00 -4.632975e+00 1.341772e+01 -1.016019e+01 -5.776764e+00 1.589494e+01 -2.164638e+00 -1.044358e+01 -6.024841e-02 1.816456e+01 1.993899e+00 -1.109663e+00 -1.434483e+00 -2.147644e+00 7.809501e-01 -2.049269e+00 2.373438e+00 3.431467e-01 -4.229237e+00 5.530592e-01 6.564423e-01 -1.491273e+00 -8.922043e-01 1.167999e+00 3.848158e-01 6.878041e-02 -9.338073e-01 -2.755547e-01 -1.190882e+00 3.910598e-01 4.172920e-01 -6.875305e-01 -2.313491e-01 1.209786e+00 3.060579e-04 -1.931783e-01 
-1.488657e+01 -6.420753e-01 -3.280447e+00 2.469657e+00 -6.917277e+00 1.066632e+01 -7.992794e+00 -4.307100e+00 3.437149e+00 -2.215885e+00 -9.874865e+00 -3.839765e+00 1.723130e+01 2.445632e+00 -4.425429e-01 -7.602078e-01 -1.747336e+00 1.643994e+00 -2.469655e+00 1.393862e+00 2.972578e-01 -4.594146e+00 5.991052e-01 3.706528e+00 -5.022438e-01 -1.103503e+00 2.196855e-01 5.488585e-01 5.090267e-01 1.378205e-02 8.498067e-03 -5.707206e-01 3.315483e-02 2.657494e-01 9.066539e-01 1.035240e-01 8.269300e-01 6.400205e-01 -9.752273e-04 
-1.296355e+01 1.048757e+00 1.872849e+00 -1.603015e+00 -4.844707e+00 8.245509e-01 -2.243823e+00 -1.020893e+00 -6.741976e-01 -8.042396e+00 -6.791588e+00 -3.685485e+00 1.545653e+01 2.175602e+00 6.868016e-01 -5.334262e-01 -1.254607e+00 1.342998e+00 -2.776622e+00 1.945565e+00 1.504216e+00 -2.207828e+00 9.478323e-01 2.864746e+00 4.429258e-01 -9.442309e-01 -2.642046e-01 3.945631e-02 -4.477949e-02 5.933630e-01 -1.809901e-01 4.576596e-01 -2.733646e-01 7.316448e-02 1.563989e+00 4.880086e-01 -2.025183e-01 8.120025e-01 2.652000e-01 
-1.336430e+01 9.502044e-01 -1.334431e-01 -2.650647e-01 -1.101703e+00 6.134315e+00 -4.039062e+00 -1.533821e+00 2.266748e+00 -7.721845e-01 3.652083e+00 1.184998e+00 1.466755e+01 1.048679e+00 3.850958e-01 -1.847312e-01 -1.853588e-01 1.481375e+00 -1.553590e+00 1.719943e+00 5.555760e-01 4.296407e-01 1.656608e+00 1.978498e+00 2.003652e+00 -4.798314e-01 -1.981521e-01 -5.462390e-01 -4.650415e-01 3.333344e-01 -8.088773e-01 7.612380e-01 -5.178655e-02 6.509831e-02 1.340734e+00 3.330426e-01 -1.128463e+00 2.255939e-01 4.052841e-01 
-1.150764e+01 3.049839e+00 -6.974729e-01 1.915062e+00 -8.257704e-01 1.800609e+00 -2.409227e+00 3.576749e-01 5.441006e+00 1.852673e+00 -2.883326e+00 -3.580008e-01 1.472528e+01 1.371352e+00 -1.326201e+00 -1.946119e+00 3.818210e-02 -4.269106e-02 -2.190032e-01 8.435745e-01 5.798100e-01 1.078816e+00 2.464351e+00 5.078656e-01 1.315792e+00 1.219595e-01 1.506867e-01 -6.925302e-01 -5.947706e-01 -6.307174e-02 -1.192911e+00 8.951687e-01 -2.438760e-01 -2.023930e-01 1.022897e-01 -2.185854e-01 -1.285495e+00 -2.941101e-01 4.689185e-01 
-1.037113e+01 2.828628e-01 -2.918942e+00 -2.161757e-01 -1.519870e+00 2.410336e+00 6.896260e-01 -2.218504e+00 2.527750e+00 1.119621e+00 -1.936505e+00 4.514754e+00 1.519777e+01 1.856996e+00 -2.167237e+00 -2.379069e+00 -7.270590e-01 -1.707548e+00 5.772525e-02 1.685925e+00 1.084952e+00 4.662004e-01 1.506059e+00 -7.573484e-01 1.892923e-01 3.898219e-01 6.381100e-01 6.142242e-02 -4.429564e-01 -4.981100e-01 -1.286068e+00 5.705668e-01 -5.235518e-01 -1.284577e-01 -7.860512e-01 -7.674161e-01 -1.362810e+00 -7.169182e-01 4.378292e-01 
-7.603374e+00 -5.248578e+00 -6.464994e+00 -1.436549e+00 -4.849078e+00 1.591524e+00 -3.902945e-01 2.220499e+00 4.589382e+00 3.333456e+00 -1.457966e+00 1.228600e+00 1.580122e+01 2.524877e+00 -1.499683e+00 -2.410110e+00 -1.299115e+00 -3.027096e+00 8.935639e-01 7.431942e-01 2.275628e-01 -1.714659e+00 -6.982005e-02 -2.194805e+00 -1.204450e-01 9.655350e-01 6.251524e-01 1.045266e+00 -1.138000e-02 -4.827487e-01 -7.888355e-01 4.111052e-01 -6.950552e-01 -4.387494e-01 -1.164027e+00 -7.712425e-01 -9.862173e-01 -3.185839e-01 3.419546e-01 
-6.031453e+00 -5.736771e+00 -9.145029e+00 -2.224554e+00 -7.627789e+00 6.527483e+00 3.381096e+00 2.959528e+00 5.023561e+00 6.017720e+00 -8.473393e-01 1.338160e+00 1.607869e+01 3.662467e+00 7.789488e-01 -2.167517e+00 -2.007260e+00 -3.456762e+00 7.429603e-01 -8.476256e-01 8.941127e-02 -2.103878e+00 -9.133870e-01 -3.484214e+00 -8.628203e-01 1.287527e+00 2.977176e-01 1.268323e+00 1.629392e-01 -1.085438e-01 -2.870668e-01 3.169500e-01 -8.281122e-01 -6.171101e-01 -9.121105e-01 -1.839232e-01 -1.830883e-01 6.117824e-02 1.819709e-01 
-1.053093e+00 -1.438758e+00 -9.634979e+00 -3.576325e+00 -1.290729e+01 4.209855e+00 -3.899153e-02 -1.093527e+00 -4.380194e+00 -9.454764e-01 -1.440194e+01 6.280712e-01 1.911249e+01 3.594379e+00 2.427034e+00 -2.108795e+00 -1.735461e+00 -3.112262e+00 1.493906e+00 -1.364926e+00 -1.116166e+00 -3.456282e+00 -1.821384e-01 -3.059788e+00 2.489291e-01 1.382880e+00 -3.849654e-01 5.228373e-01 3.318308e-01 5.253083e-01 3.000533e-01 1.534605e-03 -2.458976e-01 -4.010475e-01 1.782039e-01 6.251494e-01 8.078664e-01 1.828391e-01 -1.368100e-01 
4.666066e+00 2.272697e+00 -1.217153e+01 -9.182588e+00 -1.477457e+01 4.815972e+00 -3.724153e+00 -1.144349e-01 -3.506850e+00 -1.307848e+00 -1.288559e+01 5.009170e-01 1.997976e+01 2.810833e+00 2.211018e+00 -1.715031e+00 -1.051605e+00 -3.100299e+00 1.342304e+00 -1.400576e+00 -1.328734e+00 -3.223541e+00 6.426020e-01 -1.240298e+00 3.104965e-01 1.091004e+00 -1.083118e+00 -4.775916e-01 6.614404e-01 1.102786e+00 7.866713e-01 -3.769226e-01 2.494932e-01 -2.856156e-01 1.228969e+00 6.753165e-01 1.093712e+00 1.231104e-01 -3.413347e-01 
5.019763e+00 2.881857e+00 -1.549572e+01 -6.634839e+00 -1.683699e+01 9.916808e+00 -3.662301e+00 -1.823352e+00 -8.426823e+00 6.085548e+00 -1.073778e+01 2.891866e+00 2.076509e+01 1.025867e+00 3.984694e-01 -9.771993e-01 8.495984e-01 -1.705061e+00 6.015649e-01 -2.098186e-01 -1.068602e+00 -2.638076e-01 2.277933e+00 7.225688e-01 2.070922e-01 3.797466e-01 -1.206306e+00 -8.214644e-01 1.115393e+00 8.908728e-01 1.201227e+00 -1.028191e+00 4.226694e-01 2.643086e-01 2.091163e+00 -2.001140e-01 9.411532e-01 -2.901387e-01 -4.177908e-01 
4.986287e+00 3.158009e+00 -1.478982e+01 -5.953322e+00 -2.116443e+01 1.038553e+01 -1.810131e+00 -3.319228e+00 -9.070828e+00 5.715218e+00 -8.880908e+00 1.758744e+00 2.070741e+01 -4.688671e-01 -5.947272e-01 5.738871e-01 2.214143e+00 -2.270054e-01 -6.954823e-01 -1.777133e-01 -1.362449e+00 2.444730e+00 1.233160e+00 9.316607e-02 -2.263501e-01 8.241997e-02 -8.919266e-01 -4.428209e-01 1.217036e+00 4.642951e-01 1.502267e+00 -1.353162e+00 3.364417e-01 7.315630e-01 1.878405e+00 -1.170623e+00 6.242020e-01 -2.668628e-01 -3.332824e-01 
3.916132e+00 1.109325e-01 -1.321183e+01 -9.429664e-01 -1.823767e+01 4.432901e+00 -2.045096e+00 -4.834143e+00 -2.917242e+00 6.932654e+00 -1.279143e+01 1.034618e+00 2.064740e+01 -7.973006e-01 -2.774156e-01 2.323712e+00 1.086028e+00 1.457226e+00 -2.628154e+00 1.369894e-01 2.222340e-01 4.165397e+00 -1.477987e+00 9.792455e-01 -9.333409e-01 -2.017820e-01 -3.667438e-01 2.259290e-01 8.979497e-01 -1.407262e-01 1.266690e+00 -9.813809e-01 2.182172e-01 9.982672e-01 2.725386e-01 -1.865135e+00 4.413623e-01 1.017194e-01 -1.695218e-01 
2.873546e+00 6.845238e-01 -1.044404e+01 -9.578093e-01 -1.520926e+01 4.080514e+00 -5.421322e+00 -5.421283e+00 5.962011e+00 4.434398e+00 -1.139293e+01 2.977906e-01 2.045071e+01 -7.372155e-01 3.348557e-01 2.719696e+00 1.151655e+00 2.829889e+00 -3.808646e+00 1.082280e-01 1.683663e+00 3.953884e+00 -3.332553e+00 1.752373e+00 -4.536008e-01 -2.846439e-01 -8.218640e-02 4.453510e-01 3.964655e-01 -1.359829e-01 7.600363e-01 -2.859238e-01 4.731832e-01 9.679829e-01 -1.395906e+00 -1.072727e+00 4.744762e-01 2.715414e-01 -8.442231e-02 
2.089630e+00 2.731522e+00 -6.050045e+00 -3.702452e+00 -1.252845e+01 -7.145379e-02 -1.171758e+00 3.388459e-01 4.883741e+00 -6.639793e-01 -4.585539e+00 -1.044361e+00 1.988453e+01 -6.736776e-01 1.063323e+00 2.439645e+00 6.772113e-01 3.099942e+00 -2.748758e+00 7.382966e-01 2.399678e+00 3.443086e-01 -4.764884e+00 2.099777e+00 8.293144e-01 -2.843305e-01 -1.482613e-01 1.132683e-02 -2.118314e-01 3.065913e-01 1.597292e-01 3.780925e-01 6.233941e-01 3.837794e-01 -1.987841e+00 5.525011e-01 1.282780e-01 5.123056e-01 -4.160446e-02 
2.213460e+00 3.521993e+00 -4.772233e+00 1.184697e+00 -9.869596e+00 -6.405525e+00 -1.705660e+00 2.512594e+00 6.798099e+00 -7.149230e+00 -4.221989e+00 5.302303e-01 1.966563e+01 -9.416106e-01 9.616587e-01 2.498248e+00 1.738637e+00 2.751818e+00 -2.064799e+00 1.887549e+00 2.388744e+00 -2.624255e+00 -2.487029e+00 1.905281e+00 2.500291e-01 -2.984173e-01 -3.859073e-01 -6.827110e-01 -7.384316e-01 1.296642e-01 -5.666281e-01 1.192892e+00 6.976348e-01 -5.867367e-01 -1.011173e+00 1.636250e+00 -1.486855e-01 2.355035e-01 -5.948303e-02 
8.777869e-01 4.008811e+00 -3.849513e+00 1.371837e+00 -5.407789e+00 -4.067867e+00 -2.114440e-01 3.197307e+00 -1.613743e+00 -1.109995e+01 -5.878023e+00 5.064970e+00 1.961829e+01 -1.436410e+00 -5.341829e-01 1.375279e+00 2.325494e+00 2.294908e+00 -1.609615e+00 2.364299e+00 1.788591e+00 -2.484737e+00 8.617565e-01 1.544181e+00 1.276372e+00 -4.029177e-01 -7.736317e-01 -9.764282e-01 -1.279158e+00 -2.570175e-01 -1.384163e+00 1.481578e+00 1.080417e-01 -1.382848e+00 1.115692e+00 1.729395e+00 -2.441380e-01 -1.541155e-01 -3.982962e-02 
-1.228585e+00 4.854173e+00 9.469342e-01 5.198230e+00 -5.010500e+00 -4.245275e+00 3.536265e+00 5.093205e+00 -3.910524e+00 -2.782760e+00 -1.220287e+00 -1.506730e+00 1.909174e+01 -2.285386e+00 -2.279946e+00 -4.402795e-01 9.758347e-01 3.992657e-01 1.586240e+00 2.783401e+00 -9.444767e-01 3.125419e-01 2.035378e+00 1.286743e+00 5.003878e-01 -5.227655e-01 -1.271312e+00 -3.775343e-01 -1.207805e+00 -8.720316e-01 -1.508288e+00 1.511584e+00 -1.091435e+00 -1.619031e+00 2.423468e+00 3.578721e-01 -5.479456e-01 2.361599e-02 5.609303e-02 
-3.371396e+00 -6.054822e-01 -2.033236e+00 5.918252e+00 -3.483459e+00 -9.199655e+00 8.028777e+00 7.991494e+00 -2.185635e+00 1.461568e+00 1.634516e+00 6.355978e+00 1.815689e+01 -3.869948e+00 -2.198016e+00 -2.486880e+00 -2.264750e-01 -2.644599e+00 2.833611e+00 8.305793e-01 -2.847952e+00 4.454370e+00 1.620886e+00 1.188356e+00 -6.644237e-02 -3.713045e-01 -1.379370e+00 4.368219e-01 -2.117256e-01 -1.064320e+00 -1.093028e+00 1.250357e+00 -1.716701e+00 -9.129299e-01 1.922914e+00 -1.075787e+00 -9.046602e-01 -2.752480e-01 1.616392e-01 
-7.088879e+00 -5.570592e+00 -7.881769e+00 3.790663e+00 -8.835433e+00 4.091570e+00 8.091233e+00 -4.606884e+00 8.646754e+00 -3.253103e+00 -1.544543e+00 2.386666e+00 1.778250e+01 -6.081404e+00 -9.409654e-02 -1.609699e+00 -1.345536e+00 -2.319869e+00 3.271507e+00 -2.802765e+00 -3.388141e+00 6.023530e+00 -1.077234e+00 -6.565341e-01 1.039516e+00 -3.375874e-02 -4.270005e-01 6.476242e-01 7.365785e-01 -7.308065e-01 1.858656e-01 2.452611e-01 -1.217344e+00 6.264518e-01 -1.536982e-02 -1.417468e+00 -9.246376e-01 -4.072652e-02 1.518982e-01 
-1.554181e+01 -1.768885e+00 -1.186956e+01 9.432452e-01 -1.671832e+01 5.931763e+00 1.663968e+00 -6.192410e+00 1.437947e+01 -2.760352e+00 2.258846e-01 2.786061e+00 1.841639e+01 -6.435249e+00 5.570017e-01 9.013602e-01 -1.835421e+00 -1.810665e+00 3.799538e+00 -3.426121e+00 -1.554227e+00 4.274338e+00 -2.960871e+00 -2.007481e+00 -3.694322e-01 1.607750e-01 1.280380e+00 -2.660916e-01 6.180028e-01 -2.813881e-01 1.398859e+00 -7.084438e-01 4.716083e-01 9.878521e-01 -1.972588e+00 -8.802574e-01 -8.384789e-01 -1.362448e-01 2.471613e-02 
-2.555040e+01 4.965391e+00 -2.183396e+00 9.580520e-01 -9.992414e+00 4.546553e+00 -7.295157e+00 -4.755549e+00 1.792457e+01 -6.057968e+00 -3.798642e+00 5.475809e+00 1.879320e+01 -3.137738e+00 -4.193339e-01 1.548493e+00 -1.873725e+00 9.116263e-01 2.329582e+00 -1.174969e+00 1.540919e+00 3.257092e-01 -2.761085e+00 -1.738527e+00 4.482501e-01 -2.931442e-02 2.689436e+00 -1.275055e+00 -5.336002e-01 2.253095e-01 1.447950e+00 -1.162023e+00 2.072352e+00 3.740298e-01 -2.646101e+00 1.664759e-01 -1.644473e-01 -1.794651e-01 -7.371958e-02 
-2.631688e+01 -3.088465e+00 -3.756220e-01 -1.842546e+00 -1.195829e+01 9.570545e+00 -1.408633e+00 2.946933e-01 1.454714e+01 -1.194035e+01 -7.275841e+00 2.964245e+00 1.845541e+01 1.060116e+00 -3.365855e+00 -9.759619e-01 -1.369322e+00 2.733947e+00 -2.376456e-01 2.374723e+00 -3.732222e-01 -2.559657e+00 -1.938475e+00 -2.463042e+00 -4.520336e-01 -2.499460e-01 2.651717e+00 -8.997763e-01 -1.183203e+00 7.771224e-01 1.425635e+00 -1.187327e+00 1.772227e+00 -5.344712e-01 -1.982834e+00 8.968447e-01 1.755113e-01 6.427184e-02 -2.842760e-02 
-1.739003e+01 -7.007471e+00 -5.886275e+00 -4.185064e+00 -6.657316e+00 1.392009e+01 3.752687e+00 -1.458388e-01 1.019146e+01 -1.246853e+01 -6.486313e+00 4.538824e+00 1.761642e+01 3.618092e+00 -4.507945e+00 -3.339038e+00 -4.520387e-01 2.647575e+00 -5.200140e-01 4.658573e+00 -2.108495e+00 -3.789978e+00 -7.560521e-01 -1.250990e+00 1.834911e-01 -1.969961e-01 1.348563e+00 4.516224e-01 -3.820162e-01 9.841273e-01 5.222527e-01 -8.631388e-01 2.435258e-01 -5.084093e-01 -7.913841e-01 1.121476e+00 1.239059e-01 2.720332e-03 1.415156e-01 
-1.432141e+01 -1.261173e+01 -1.489793e+01 -3.331805e+00 -4.716135e+00 5.676726e-02 8.013661e+00 -1.036338e+01 5.447743e+00 -9.247448e+00 -1.074549e+01 9.943853e-01 1.775504e+01 3.445419e+00 -1.897574e+00 -2.570892e+00 1.339348e+00 4.449538e+00 -7.122964e-01 2.518241e+00 -2.401876e+00 -3.581986e+00 5.208364e-01 -1.373693e+00 8.430658e-02 1.024778e-01 2.990561e-01 1.913933e+00 9.050611e-01 4.153076e-01 -5.327181e-01 7.443108e-02 -1.005328e+00 6.538609e-01 -9.169984e-02 1.110672e+00 3.686948e-01 -8.655820e-02 2.464855e-01 
-1.345767e+01 -1.281270e+01 -1.161743e+01 -5.575122e-01 -3.756153e-01 6.703372e+00 1.128656e+01 -9.968987e+00 3.524386e+00 -1.118468e+01 -8.318767e+00 7.378194e+00 1.815840e+01 2.412428e+00 1.104638e+00 4.358770e-01 1.692577e+00 2.665094e+00 -1.748787e+00 -2.909908e-02 1.319992e-02 -3.120047e+00 1.616642e+00 -1.663672e+00 1.936816e-01 5.020517e-01 -3.403854e-03 2.112035e+00 1.217823e+00 -5.213163e-01 -1.657040e+00 1.506835e-01 -1.382614e+00 1.263778e+00 2.540855e-01 8.508410e-01 2.943249e-01 -7.959469e-01 2.152166e-01 
-1.105597e+01 -9.673723e+00 -1.036450e+01 3.040419e+00 7.148550e+00 9.617421e+00 7.415636e+00 -6.803111e+00 -2.924654e-02 -9.978094e+00 -1.322808e+01 1.966093e+00 1.869681e+01 3.158229e+00 3.397517e+00 1.661886e+00 -3.650918e-01 6.159705e-02 7.488962e-01 -3.080835e-01 1.835235e+00 -3.353121e+00 2.428536e+00 -4.132274e-01 -8.899199e-01 6.329576e-01 1.656178e-01 1.025694e+00 3.788993e-01 -1.175896e+00 -2.470460e+00 7.992683e-02 -7.867774e-01 1.017843e+00 6.616732e-01 3.330993e-01 5.140272e-01 -9.664998e-01 9.072644e-02 
-6.960614e+00 -2.953283e+00 -5.973605e+00 1.091710e+00 7.358128e-01 3.958267e-01 3.906204e+00 -1.859972e+00 -2.670276e+00 -4.019995e+00 -1.356338e+01 5.021378e+00 1.965579e+01 3.744668e+00 3.404685e+00 6.336854e-01 -2.206400e+00 -3.443655e+00 -4.971928e-01 -8.413355e-01 2.091842e+00 -2.633982e+00 2.544303e+00 -2.595983e-01 -3.309130e+00 6.138468e-01 1.622285e-01 -2.682886e-01 -6.944448e-01 -8.162482e-01 -1.662493e+00 3.186027e-02 -4.653458e-01 4.430168e-02 1.080535e+00 -1.304651e-01 5.483289e-01 -7.962653e-01 -6.105623e-02 
-1.778797e+00 -5.538527e-01 -9.410418e+00 -5.981874e+00 -4.963864e+00 6.955021e+00 1.016342e+01 -5.241708e+00 -8.220533e+00 -6.871108e-01 -1.018932e+01 -2.276806e+00 2.017114e+01 3.607388e+00 2.080871e+00 -7.752994e-01 -2.590642e+00 -4.848386e+00 -9.384594e-01 -1.009528e+00 1.648019e+00 -5.166522e-01 1.722502e+00 4.944070e-01 -2.996787e+00 5.002125e-01 -3.150230e-01 -9.168122e-01 -7.629362e-01 2.847603e-01 -2.792234e-01 -8.364730e-01 -7.639197e-01 -4.622929e-01 1.525124e+00 -3.106546e-01 2.321369e-01 1.166223e-01 -1.385488e-01 
6.270804e-01 -3.492078e-01 -8.926048e+00 -7.078368e+00 -1.153769e+01 5.548608e+00 5.705989e+00 -2.904804e-01 -5.549881e+00 -3.108657e+00 -1.113614e+01 -7.046008e+00 2.049047e+01 2.998991e+00 4.215184e-01 -1.817754e+00 -1.275889e+00 -3.192378e+00 -7.458078e-01 -2.005105e+00 3.283166e-01 8.643942e-01 1.317333e+00 6.241552e-01 -2.734211e+00 2.631432e-01 -6.846379e-01 -7.691274e-01 -2.221658e-01 1.026341e+00 9.214666e-01 -8.781974e-01 -6.599973e-01 -5.939467e-01 1.116842e+00 -1.654756e-01 2.263165e-01 1.014812e+00 -1.454358e-01 
3.187127e+00 -5.714078e-01 -1.276478e+01 -5.827755e+00 -1.095663e+01 2.348733e+00 1.468102e+00 6.522366e-01 -1.172705e+00 -1.821253e+00 -1.196966e+01 -6.984147e+00 2.078053e+01 1.955952e+00 3.050391e-01 -9.270751e-01 5.934541e-01 -1.460159e+00 -3.309161e+00 -3.545797e+00 4.055335e-01 2.523309e+00 1.488748e+00 3.055801e-01 -5.942680e-01 1.155655e-01 -8.524922e-01 -3.412361e-01 4.081103e-01 1.135101e+00 9.379150e-01 -7.147278e-01 -2.780312e-01 -2.524125e-01 1.256392e-01 -8.842383e-02 1.160353e-02 1.111047e+00 -1.073045e-01 
5.551378e+00 -8.369137e-01 -1.338520e+01 -5.364793e+00 -1.222969e+01 -1.030068e+00 -1.771664e+00 -3.165361e+00 -1.872219e+00 3.133741e+00 -9.552432e+00 -6.296008e+00 2.066681e+01 1.147196e+00 4.469641e-01 -4.012557e-01 1.333259e+00 -5.304359e-01 -3.702829e+00 -2.873188e+00 -2.566493e-01 1.430246e+00 1.833802e+00 9.663978e-01 5.636679e-01 7.899132e-02 -8.650805e-01 -1.105159e-01 7.811089e-01 8.553346e-01 9.204404e-02 -1.792366e-01 3.670721e-01 2.540586e-01 -5.899116e-01 -3.659464e-01 -1.526891e-01 9.059737e-01 -4.891533e-02 
5.538817e+00 1.215196e+00 -1.181622e+01 -3.871392e+00 -1.191865e+01 -6.301448e+00 -3.826737e+00 -1.776600e+00 2.557183e+00 3.635431e+00 -9.453273e+00 -5.623146e+00 2.066080e+01 2.708247e-01 3.619674e-01 5.570027e-01 1.780290e+00 -1.489782e+00 -3.033587e+00 -1.965643e+00 6.784388e-01 -1.713817e-01 1.022148e+00 3.813034e-01 9.095106e-01 5.576592e-02 -7.237755e-01 -2.872030e-01 1.037316e+00 2.250844e-01 -4.435989e-01 8.813618e-01 9.394083e-01 4.675797e-02 -7.864977e-01 -8.069395e-01 -2.057546e-01 3.289554e-01 -2.913492e-02 
5.187217e+00 9.923106e-01 -1.140661e+01 -1.390257e+00 -1.370885e+01 -8.640446e+00 -6.012528e+00 -3.593083e-01 -2.635975e-01 3.332012e+00 -7.562343e+00 -4.908169e+00 2.094530e+01 -4.838471e-01 -1.595253e-01 1.345751e+00 2.407367e+00 -2.717346e+00 -1.779778e+00 -9.598220e-01 1.462157e+00 -7.378182e-01 -2.790990e-01 -1.771520e-01 1.043768e+00 4.846630e-02 -4.760526e-01 -2.862826e-01 1.206063e+00 -2.342438e-01 -2.971403e-01 1.153325e+00 9.858962e-01 -3.712258e-01 -1.936016e-01 -8.882850e-01 -1.712446e-01 -1.165895e-01 -4.581194e-02 
4.723331e+00 3.238170e-01 -1.096906e+01 1.086426e+00 -1.766596e+01 -9.014015e+00 -6.239680e+00 2.641404e+00 -2.833924e+00 3.190354e+00 -1.105819e+01 -3.130514e+00 2.092012e+01 -8.474033e-01 -8.277313e-01 3.386002e+00 1.181822e+00 -2.584698e+00 1.361219e-01 1.945617e-01 -2.200797e-01 -3.251469e-01 -1.489498e+00 -1.514180e-01 8.104591e-01 -1.484661e-02 -1.929924e-01 -1.924101e-01 1.038215e+00 -4.121056e-01 1.938875e-01 6.129197e-01 8.829423e-01 -1.034259e+00 4.104803e-01 -4.753245e-01 3.042948e-01 -5.159159e-01 -4.510492e-02 
3.539885e+00 -1.188851e+00 -7.080022e+00 4.193131e+00 -2.294277e+01 -8.572672e+00 -5.364302e+00 1.936421e+00 -2.865757e+00 1.960785e+00 -9.635733e+00 -2.323484e+00 2.077948e+01 -6.739526e-01 -3.895998e-01 4.214559e+00 4.612738e-01 -1.468679e+00 4.789424e-01 9.761913e-01 -1.663519e+00 5.391201e-01 -1.351799e+00 3.765354e-01 3.024600e-02 -1.147621e-01 1.310605e-01 2.757950e-01 1.432913e-01 -5.751408e-01 8.306319e-01 2.081633e-04 4.220176e-01 -8.353471e-01 2.869194e-01 3.461625e-02 5.428091e-01 -5.746934e-01 -1.978405e-02 
2.125466e+00 -1.832880e+00 2.950502e+00 -7.539744e-01 -2.022519e+01 -5.654725e+00 -3.178041e+00 -4.024863e+00 2.232528e+00 -3.126448e+00 -9.173668e+00 -2.863192e+00 2.066947e+01 -5.990847e-01 -4.850459e-01 4.313673e+00 6.928083e-01 -1.144678e+00 -1.098349e+00 1.481062e+00 -2.930018e+00 1.242551e+00 -8.181235e-01 1.625934e+00 -1.163308e+00 -8.814450e-02 2.607255e-01 6.664141e-01 -1.109510e+00 -4.124483e-01 8.713479e-01 -1.723829e-01 -4.068787e-01 1.545036e-01 -2.656178e-01 4.694474e-01 3.797441e-01 -2.641830e-01 3.240810e-02 
3.116387e+00 1.226603e-01 2.706408e+00 1.836313e+00 -1.977264e+01 -7.925379e+00 -2.662391e+00 -5.343770e+00 -1.012229e-01 -2.685849e-01 -6.621927e+00 -4.890600e+00 2.049681e+01 4.729607e-02 1.048107e+00 1.598372e+00 -2.238303e-01 7.158030e-01 -1.161501e+00 5.070158e-01 -1.359609e+00 -8.706991e-02 -4.417053e-01 1.648218e+00 -8.428156e-01 -1.380501e-02 1.061200e-01 5.155497e-01 -1.466921e+00 -7.071248e-01 4.355710e-01 5.904632e-01 -9.672695e-01 7.952336e-01 -4.811192e-01 5.587649e-01 -9.890267e-02 2.802726e-01 7.002354e-02 
1.939657e+00 -2.757168e+00 5.706092e+00 5.728877e+00 -2.497442e+01 -1.482940e+01 -1.853268e-01 -8.368591e+00 1.996562e+00 2.144212e-01 -4.435424e+00 -7.663496e+00 2.062073e+01 9.559991e-02 1.785486e+00 -8.534551e-01 -5.378675e-01 6.798004e-01 9.442930e-02 -1.605244e+00 4.004836e-01 -1.340141e+00 4.026913e-01 1.111462e+00 -7.392492e-02 9.671535e-02 -1.461244e-02 2.226428e-01 -1.255530e+00 -8.462402e-01 1.178316e-02 1.399372e+00 -1.089282e+00 1.015596e+00 -4.950691e-01 4.844803e-01 -5.822808e-01 6.687356e-01 5.739082e-02 
3.869270e+00 4.513828e+00 -4.659581e-01 -1.674462e-01 -1.698914e+01 -9.792839e+00 -4.325580e+00 -2.689761e+00 -3.183123e+00 -1.918176e+00 -3.763764e+00 -4.137410e+00 2.073482e+01 -4.906946e-01 1.052882e+00 -5.364819e-01 -2.459013e+00 -2.030636e-01 2.834869e+00 -2.317003e+00 6.473982e-01 -5.751297e-01 8.316178e-01 1.392582e-01 8.869174e-01 1.429256e-01 -2.066245e-01 -4.514892e-01 -3.548452e-01 -2.815569e-01 -7.284089e-01 9.845812e-01 -3.439786e-01 3.815685e-01 7.766195e-02 3.292808e-01 -7.480419e-01 5.076161e-01 2.907368e-02 
2.227024e+00 4.898967e+00 2.694102e-01 -2.441432e+00 -1.821793e+01 -4.248848e+00 -1.037267e+01 -3.349449e+00 -2.927226e+00 -2.881954e-01 -5.045442e+00 -3.609411e+00 2.103404e+01 -4.031515e-01 6.257805e-01 -8.965513e-01 -2.420802e+00 -6.263288e-01 3.900326e+00 -2.553340e+00 1.144459e+00 -9.887651e-01 9.676167e-01 -5.309903e-01 1.315503e+00 1.204443e-01 -1.012977e-01 -6.158252e-01 8.480258e-02 4.061048e-01 -6.902703e-01 -9.297501e-02 6.838069e-01 -2.588148e-01 4.469569e-01 -3.800575e-02 -5.672093e-01 1.928728e-01 -1.407454e-02 
5.192302e-01 1.559004e+00 2.742340e+00 -6.373595e+00 -2.416620e+01 9.586899e-01 -9.153738e+00 -4.616350e+00 -5.149776e-01 4.140812e+00 -5.620627e+00 -2.483055e+00 2.100478e+01 -7.364508e-01 -6.294859e-01 -1.543061e-01 -6.901476e-01 -2.273177e+00 1.858456e+00 -7.388287e-01 1.762456e-01 1.255518e-01 9.222358e-01 -1.270766e+00 1.000551e+00 1.196989e-01 1.065605e-01 -3.597912e-01 -7.357456e-02 1.088537e+00 -2.302068e-01 -1.194582e+00 1.086330e+00 -4.629038e-01 1.150835e-01 -1.842289e-01 -2.388774e-01 -2.057000e-01 -3.639954e-02 
1.598920e+00 1.849147e+00 -3.808128e-01 -3.272056e+00 -2.451753e+01 -7.035393e-01 -1.053795e+01 -1.683000e+00 -4.281336e+00 2.023010e+00 -6.161944e+00 -1.913157e+00 2.108797e+01 -2.880104e-01 -4.524557e-01 -6.205301e-01 6.082242e-01 -1.736494e+00 1.177609e-01 1.024703e+00 -6.580140e-01 5.443028e-01 1.673536e-01 -1.019573e+00 8.336226e-01 3.795605e-02 1.329719e-01 -1.805625e-01 -2.154757e-02 9.687170e-01 1.188632e-01 -1.229306e+00 1.080872e+00 -4.681507e-01 -6.721465e-02 -5.806509e-02 2.152632e-01 -4.700845e-01 -4.390764e-02 
5.010683e-01 2.891309e+00 -9.123769e-01 -3.202873e+00 -2.520523e+01 -2.273213e+00 -7.937082e+00 -2.641758e+00 -1.878309e+00 1.537400e+00 -9.559341e+00 1.721545e-02 2.130635e+01 -1.546278e-02 -2.069556e-01 -1.042365e+00 1.469161e+00 -7.990150e-01 -1.246756e+00 1.325625e+00 -7.658840e-01 -7.662463e-01 3.106050e-01 -8.108374e-01 9.935774e-02 2.172089e-03 1.666194e-01 -5.708578e-03 -1.731671e-01 5.537839e-01 4.947223e-01 -8.017501e-01 6.107076e-01 7.295959e-02 -4.991551e-01 4.536436e-02 5.796571e-01 -4.926437e-01 -4.150973e-02 
7.960529e-01 1.970536e+00 -1.005882e+00 -9.856728e-01 -2.638089e+01 -2.044092e+00 -5.857480e+00 -7.626815e+00 4.759538e-01 1.850279e+00 -8.173949e+00 -6.914335e-01 2.107304e+01 -9.878621e-02 -4.882971e-01 -5.602595e-01 1.343129e+00 -7.690937e-01 -6.935976e-01 1.818794e+00 -7.252291e-01 -8.789393e-01 9.831066e-01 3.153617e-01 -5.843228e-01 -4.033051e-02 1.100530e-01 -1.094137e-01 -2.145877e-01 2.132127e-01 5.184966e-01 -5.144454e-01 1.417029e-01 6.644748e-01 -4.936207e-01 6.064546e-02 5.024807e-01 -2.693643e-01 -9.572945e-03 
8.433496e-01 4.635316e-01 -2.156952e+00 -1.709825e-01 -2.722960e+01 -4.604814e+00 -4.865847e+00 -5.473862e+00 -6.724854e+00 5.780203e+00 -8.668812e+00 -2.597128e+00 2.102311e+01 2.034026e-03 -6.401081e-01 -1.050277e+00 1.711319e+00 -2.832659e-01 -1.744615e+00 1.917664e+00 5.746511e-01 -1.658602e+00 7.411811e-01 9.600525e-01 -7.536952e-01 -4.870643e-02 9.930869e-02 -2.232238e-01 -2.046079e-01 -1.564979e-01 4.939142e-01 -2.408332e-01 -3.635540e-02 9.717861e-01 4.497329e-02 -2.084192e-01 1.575578e-01 2.352392e-01 1.532885e-02 
9.338478e-01 6.215499e-01 -2.559823e+00 1.927646e+00 -2.735082e+01 -3.005727e+00 -2.979596e+00 -3.893093e+00 -6.252759e+00 4.817142e+00 -5.030401e+00 -3.527598e+00 2.102794e+01 2.535062e-01 -7.829479e-01 -1.689513e+00 1.553209e+00 5.981144e-01 -2.205537e+00 1.437198e+00 1.994093e+00 -1.477623e+00 2.552928e-01 6.073858e-01 -8.667221e-02 1.553059e-02 8.056585e-02 -2.463672e-01 -2.932340e-01 -4.797840e-01 5.083104e-01 2.355738e-02 -1.271877e-01 8.761712e-01 5.268445e-01 -5.569829e-01 -5.919767e-01 7.217091e-01 3.225655e-02 
4.423410e-01 3.652613e-01 -5.386791e+00 3.897064e+00 -2.613659e+01 -1.051547e+01 2.122944e-01 -1.635364e+00 -6.806964e+00 3.759873e+00 -6.330853e+00 -2.333178e+00 2.108537e+01 3.049345e-01 -1.175749e+00 -1.500778e+00 5.816315e-01 9.869522e-01 -1.694953e+00 1.334646e+00 2.733386e+00 -2.420381e-01 -3.675841e-01 -1.690602e-01 1.026729e+00 5.088577e-02 -6.044253e-02 -2.690819e-01 -1.200806e-01 -7.378069e-01 4.300018e-01 8.554880e-01 -2.715950e-02 2.198347e-01 9.828022e-01 -8.791605e-01 -1.044822e+00 7.544484e-01 2.594570e-02 
2.264088e+00 -1.895069e+00 -7.838525e+00 4.746347e+00 -2.393682e+01 -1.011645e+01 -1.210559e+00 4.243982e-01 -6.871105e+00 4.136908e+00 -6.306000e+00 -1.256769e+00 2.111956e+01 1.525928e-01 -1.452313e+00 -1.801179e+00 -4.909467e-01 1.137349e+00 -6.006421e-01 1.474365e+00 2.576260e+00 1.047001e+00 -1.247426e+00 -2.079965e+00 2.134011e+00 7.115612e-02 -2.121594e-01 -1.945641e-01 -5.505013e-02 -6.033988e-01 3.572994e-01 1.218257e+00 1.752457e-01 -5.243015e-01 9.992629e-01 -1.202861e+00 -9.967260e-01 1.864962e-01 8.914489e-03 
1.702902e+00 -4.156904e+00 -7.021491e+00 1.327824e+00 -2.400183e+01 -9.524217e+00 9.228650e-01 6.034319e+00 -7.625872e+00 4.282400e+00 -8.876313e+00 1.401100e+00 2.123173e+01 -2.497219e-01 -1.650835e+00 -1.594847e+00 -9.556373e-01 1.597125e+00 1.730378e+00 1.763283e+00 1.382741e+00 1.993096e+00 -2.903262e+00 -2.920382e+00 1.908205e+00 5.320930e-02 -1.878441e-01 -4.096903e-02 -2.204453e-01 -3.324246e-02 4.501023e-01 1.126312e+00 7.872476e-02 -1.052375e+00 6.104508e-01 -1.201783e+00 -4.086471e-01 -6.389767e-01 2.539119e-03 
1.066531e+00 -4.378932e+00 -1.074837e+01 7.575324e-01 -2.273145e+01 -6.504565e+00 4.036942e+00 5.153364e+00 -6.083003e-01 -1.681249e+00 -1.415750e+01 5.275319e+00 2.131054e+01 -5.299625e-01 -1.518225e+00 -1.917729e+00 -6.951510e-01 2.079525e+00 2.173085e+00 2.099108e+00 4.790727e-02 2.401125e+00 -4.491172e+00 -3.000583e+00 4.050705e-01 5.894127e-02 -5.140924e-02 8.014636e-02 -7.301873e-02 3.134058e-01 5.322078e-01 6.177796e-01 -2.689108e-01 -1.012896e+00 -4.619141e-02 -4.580080e-01 3.219491e-01 -1.034416e+00 5.945130e-03 
-2.074901e-01 -6.646984e+00 -1.190611e+01 1.113285e+00 -1.875365e+01 -3.669525e+00 6.404960e+00 2.913857e+00 2.711536e-02 -7.847359e+00 -1.700702e+01 3.941803e+00 2.125593e+01 -2.930083e-01 -1.347638e+00 -2.544730e+00 5.175213e-01 2.766376e+00 2.549745e+00 1.415898e+00 -1.264314e+00 2.133154e+00 -4.754624e+00 -1.751987e+00 -1.303684e+00 6.968880e-02 1.247499e-01 2.259869e-01 1.329743e-01 2.509561e-01 3.633314e-01 -1.283769e-01 -6.520962e-01 -5.915419e-01 -4.708641e-01 7.072750e-01 6.068840e-01 -7.700580e-01 7.016774e-03 
5.694716e-01 -8.241155e+00 -1.498486e+01 1.377862e+00 -1.616329e+01 -2.178370e+00 6.543936e+00 2.224165e+00 1.308025e+00 -1.225407e+01 -1.724356e+01 -5.017679e-01 2.140217e+01 -8.281021e-02 -1.203180e+00 -1.691331e+00 3.395033e-01 3.213763e+00 2.078572e+00 3.035033e-01 -1.164691e+00 7.460152e-01 -2.611784e+00 -1.054418e+00 -1.432124e+00 9.264202e-02 2.069529e-01 3.556547e-01 5.761673e-01 -2.186156e-01 8.175142e-02 -3.994846e-01 -9.832924e-01 -1.364486e-01 -6.031623e-01 1.764184e+00 4.967956e-01 -2.314170e-01 -1.820065e-02 
4.863906e-01 -8.963982e+00 -1.762689e+01 3.605266e+00 -1.345403e+01 1.061412e+00 6.748859e+00 1.177349e+00 2.081736e+00 -1.420431e+01 -1.609321e+01 -2.228779e+00 2.153436e+01 1.504514e-01 -6.784237e-01 -1.043175e+00 -2.181842e-01 2.846663e+00 1.135750e+00 -5.993954e-01 -9.686699e-01 4.663307e-01 -3.065807e-01 -8.590448e-01 -1.023488e+00 7.144280e-02 2.936682e-01 6.564338e-01 7.529314e-01 -6.747797e-01 -3.795156e-01 -6.243586e-01 -8.483203e-01 -2.380189e-02 -3.372535e-01 2.361520e+00 2.938982e-01 -1.154077e-01 -6.593987e-02 
3.055401e-01 -9.236332e+00 -1.634463e+01 1.209058e+00 -9.312443e+00 1.522825e+00 5.382509e+00 1.981635e-01 2.094465e+00 -1.156170e+01 -1.988649e+01 1.199991e+00 2.163453e+01 2.830722e-01 -7.455902e-02 2.123301e-01 -1.420376e+00 2.448138e+00 8.826593e-01 -1.809707e+00 -7.821576e-01 2.187248e-01 2.105728e+00 -9.630760e-01 -8.921129e-01 -3.293896e-02 3.543770e-01 8.516768e-01 4.199650e-01 -5.153241e-01 -7.816752e-01 -5.542316e-01 -4.033322e-01 -1.938507e-01 7.923284e-02 2.007521e+00 4.018641e-01 -4.248103e-01 -9.646894e-02 
6.767326e-01 -9.541513e+00 -1.644209e+01 1.067658e-01 -7.945756e+00 1.586266e-01 3.988696e+00 -9.164912e-01 1.965549e+00 -9.726451e+00 -1.998078e+01 -2.026516e+00 2.149696e+01 9.923915e-01 1.370221e+00 2.680963e-01 -1.976438e+00 1.251611e+00 2.590836e-02 -1.769098e+00 -1.574590e+00 7.105317e-01 4.694220e+00 -3.281664e-01 -2.150728e+00 -1.972200e-01 2.829277e-01 7.402859e-01 7.862845e-02 -9.600034e-02 -8.633204e-01 -3.527015e-01 1.203746e-01 -2.382952e-01 1.861578e-01 1.139718e+00 4.814148e-01 -4.140584e-01 -7.728733e-02 
1.889661e+00 -8.325184e+00 -1.451561e+01 -3.974769e+00 -6.676734e+00 2.686320e+00 -1.124518e+00 -6.397026e-01 2.459743e+00 -3.964361e+00 -2.011516e+01 -5.063464e+00 2.125618e+01 1.268105e+00 2.030882e+00 -2.471413e-01 -1.357991e+00 1.029134e-01 -1.376659e-01 -1.128307e+00 -1.830984e+00 1.020079e+00 4.925422e+00 6.894633e-01 -2.992555e+00 -2.553713e-01 1.659184e-01 4.689754e-01 -1.953646e-01 2.629054e-01 -7.039865e-01 -2.144013e-01 4.373844e-01 -1.768292e-01 1.841347e-01 3.040815e-01 4.419597e-01 -2.195722e-01 -3.482351e-02 
4.656287e+00 -2.568452e+00 -1.720092e+01 -3.685008e+00 -8.513836e+00 6.092062e-01 1.156883e+00 -6.276669e+00 5.451756e+00 5.468124e+00 -1.761971e+01 -9.850694e+00 2.073744e+01 1.072573e+00 1.970285e+00 -4.202966e-01 -7.293786e-01 -2.973262e-01 -1.175954e-01 -3.382227e-01 -1.635732e+00 9.964427e-01 3.982164e+00 7.217596e-01 -2.043559e+00 -2.037777e-01 -3.516757e-03 1.139533e-01 -1.549941e-01 3.122730e-01 -3.498113e-01 -2.669372e-02 3.651835e-01 7.296765e-03 5.481857e-02 -2.367371e-01 2.132148e-01 1.163336e-01 3.847826e-03 
