-1.618988e+00 -7.768866e+00 -9.091503e+00 -1.564069e+00 -6.548433e+00 3.308916e+00 7.980021e+00 -4.238060e+00 -5.843405e+00 3.608671e+00 -1.156394e+01 -1.104956e+01 1.855026e+01 -7.814566e-01 4.183961e-01 -1.503133e+00 1.093183e-01 2.716617e-01 -2.554052e+00 1.056098e-01 -1.559976e+00 3.672954e+00 -4.471897e-01 4.359155e-01 9.135758e-01 1.220900e-01 2.663685e-01 -2.153809e-01 4.474223e-03 1.073715e-01 1.357011e-01 -1.058268e-01 -3.345217e-01 4.089600e-01 -8.086559e-01 5.219096e-01 -3.749586e-02 1.742223e-01 2.821026e-03 
-5.140932e+00 -5.514316e+00 -1.039526e+01 6.182271e-01 -7.180309e+00 -3.167159e+00 5.722556e+00 -7.424099e+00 4.973310e+00 4.347169e-02 -7.333724e+00 -1.015148e+01 1.848136e+01 -4.218178e-01 1.819675e-01 -2.438118e+00 -6.724229e-02 1.132271e+00 -3.851725e+00 9.477262e-02 -5.528659e-01 3.003367e+00 1.858549e-01 3.148236e-01 1.303441e+00 1.811783e-01 5.557030e-01 -3.021173e-01 4.640184e-01 2.046215e-01 2.163308e-02 4.330491e-01 -9.914214e-01 6.531808e-01 -1.352649e+00 8.067436e-01 -1.621852e-01 1.832306e-01 -1.665888e-02 
-3.765299e+00 -6.804160e+00 -1.595529e+01 -2.108625e+00 -4.874187e+00 -6.223308e+00 9.636804e+00 -1.044492e+01 7.113008e+00 3.155323e+00 -1.149946e+01 -6.930724e+00 1.919516e+01 3.705664e-01 -5.402941e-01 -1.013270e+00 7.344564e-01 5.198624e-01 -2.434350e+00 -1.561580e+00 -1.873026e-02 -3.553219e-02 1.845836e+00 3.089821e-01 1.589755e+00 1.066509e-01 5.141617e-01 -2.250360e-01 8.850058e-01 2.260893e-01 -3.259082e-01 8.539251e-01 -1.179996e+00 7.092863e-01 -1.067006e+00 3.048171e-01 -8.962965e-03 1.055535e-01 -4.278444e-02 
-2.654922e+00 -7.341381e+00 -1.785020e+01 -1.628002e+00 -1.724200e+00 -1.118360e+01 7.625494e+00 -3.898961e+00 2.695223e+00 4.764620e+00 -1.002205e+01 -6.591780e+00 1.913370e+01 1.421047e+00 -6.128450e-01 5.720275e-01 8.198569e-01 2.557268e-01 -4.486578e-01 -4.017902e+00 9.353058e-01 -1.236048e+00 2.440015e+00 -3.115440e-01 1.491639e+00 4.651508e-02 1.548744e-01 -1.913951e-02 8.653511e-01 1.759208e-01 -6.939122e-01 1.009565e+00 -3.811491e-01 3.464279e-02 9.004641e-02 -6.568457e-01 1.195709e-01 7.596228e-02 -3.298714e-02 
-1.009161e+00 -9.556804e+00 -1.043038e+01 3.231328e+00 -6.677176e+00 -4.854612e+00 -7.793468e-01 -6.094281e+00 -4.882022e+00 1.047728e+01 -8.674861e+00 -4.880641e+00 1.875734e+01 8.679193e-01 -3.093774e-01 1.416824e+00 7.962151e-01 -9.196073e-01 1.403975e-02 -3.738033e+00 1.242370e+00 4.576300e-01 -5.018442e-02 7.042845e-01 1.347244e+00 -2.450066e-02 -3.083018e-01 3.055959e-01 6.215430e-02 -1.610283e-01 -5.259970e-01 3.722287e-01 9.528081e-01 -6.004015e-01 1.163340e+00 -1.200931e+00 2.430182e-01 -2.121802e-01 1.091822e-02 
5.862348e-01 -7.202219e+00 -1.029758e+01 2.047536e+00 -5.000181e+00 -6.094796e+00 -9.158882e+00 -4.922889e+00 4.790585e+00 8.582572e+00 -1.030375e+01 -3.718329e+00 1.893284e+01 1.038778e-01 -2.918844e-02 6.735915e-01 7.814823e-01 -1.617555e+00 -2.809710e-02 -7.227465e-01 -1.010202e+00 3.207018e+00 -2.150363e+00 7.150270e-01 1.804508e+00 8.181839e-02 -5.418069e-01 4.150394e-01 -5.147625e-01 -2.497382e-01 -3.164407e-02 -2.320009e-02 1.568669e+00 -9.517508e-01 6.596755e-01 -8.283313e-01 5.534099e-01 -5.329520e-01 1.829859e-02 
-1.046281e+00 -8.420628e+00 -1.264748e+01 3.468169e-02 -7.834233e+00 -8.697511e+00 -6.611710e-01 -3.721104e+00 8.353477e+00 9.954249e-01 -7.837196e+00 -1.631231e+00 1.917309e+01 -5.123578e-01 6.958572e-01 -7.532800e-01 -5.149763e-02 -1.173482e+00 -7.834862e-01 1.554883e+00 -2.047984e+00 3.559637e+00 -1.863631e+00 1.010787e+00 3.724198e-01 1.435904e-01 -1.951183e-01 5.487254e-01 -6.330968e-01 -1.340010e-01 5.798414e-01 1.715527e-01 7.258813e-01 -5.750188e-01 -6.854830e-01 2.186045e-01 5.187382e-01 -9.360992e-01 -1.371744e-02 
-2.116973e+00 -8.055411e+00 -1.337369e+01 3.877733e+00 -9.233446e+00 -9.402636e+00 3.952673e+00 -1.013656e+01 1.211256e+01 -1.246271e+00 -6.865751e+00 8.060534e-01 1.933492e+01 -5.978489e-01 9.597350e-01 -9.167331e-01 -4.977822e-03 2.244435e-01 -1.658953e-01 1.178984e+00 -2.178271e+00 5.113261e-01 -7.949177e-01 2.302254e+00 -6.857087e-01 5.396252e-02 1.755386e-01 4.419069e-01 -2.904958e-01 6.943507e-02 8.384379e-01 4.844597e-01 -4.578733e-01 5.214139e-01 -1.817958e+00 6.904405e-01 1.811964e-01 -1.085632e+00 -7.505423e-02 
-2.219346e+00 -5.650921e+00 -1.265873e+01 2.058741e+00 -1.042795e+01 -7.118123e+00 4.392883e-01 -1.372736e+01 9.255172e+00 6.073542e+00 -5.339921e+00 -5.280733e+00 1.927426e+01 2.431911e-01 1.939788e+00 -9.534979e-01 5.194399e-01 1.058601e+00 9.407026e-01 -1.059491e+00 -1.048689e+00 -1.621939e+00 3.651153e-01 2.504362e+00 -2.088144e+00 -7.915993e-02 3.188054e-01 1.070509e-01 5.469464e-01 3.972431e-01 5.171073e-01 7.463271e-01 -1.040016e+00 9.820485e-01 -1.701779e+00 4.352631e-01 -6.721671e-01 -5.196620e-01 -7.625087e-02 
-1.816477e+00 -3.788397e+00 -1.487562e+01 1.010617e+00 -2.581104e+00 -7.713966e+00 -3.814190e+00 -1.081111e+01 6.896369e+00 2.068925e+00 -4.111564e-02 -5.322121e+00 1.915207e+01 6.037964e-01 1.558381e+00 -6.787788e-01 8.431889e-01 1.458594e+00 1.532107e+00 -1.704926e+00 1.097220e+00 -3.291983e+00 1.874657e-01 8.742215e-01 -2.393370e+00 -1.820776e-01 1.363559e-01 -1.051937e-01 1.195481e+00 2.745469e-01 -3.793335e-01 6.260120e-01 -5.021735e-01 6.949674e-01 -8.443154e-01 1.231409e-01 -1.405899e+00 7.290550e-02 -6.050929e-03 
1.942709e-02 -8.551954e-01 -1.666401e+01 4.065439e+00 -5.867401e+00 -4.838333e+00 -2.075195e+00 -8.627274e+00 2.851880e+00 1.163403e+00 1.272296e+00 -9.007863e+00 1.886871e+01 4.808465e-01 9.317890e-01 1.862475e+00 1.510635e+00 7.949799e-01 2.099148e+00 -2.203243e+00 1.224513e+00 -3.047605e+00 -1.785079e-01 -1.636032e+00 -1.372059e+00 -1.196440e-01 -1.922596e-01 -3.454169e-01 1.383016e+00 -9.854855e-02 -9.435282e-01 3.316815e-01 3.125457e-01 2.148215e-02 -2.279069e-01 -2.003380e-02 -1.220869e+00 8.463138e-01 8.536313e-02 
-2.173776e-01 -2.661370e+00 -1.476495e+01 7.090328e+00 -4.220754e+00 -2.881996e+00 -3.314715e+00 -7.200504e+00 -1.145708e+00 2.146127e+00 -5.800752e+00 -9.297234e+00 1.862730e+01 -3.489705e-02 9.377657e-01 3.652688e+00 8.721592e-01 -1.540413e+00 2.384942e+00 -7.600076e-01 1.599645e-01 -2.997418e+00 9.259828e-02 -2.657044e+00 -6.792234e-01 4.394989e-02 -1.731213e-01 -3.185136e-01 9.300359e-01 -5.374982e-01 -1.251402e+00 5.796836e-02 8.532797e-01 -6.512858e-01 6.566811e-02 2.258317e-01 -1.441898e-01 9.379475e-01 1.438325e-01 
-6.146637e-01 -1.555490e+00 -3.401688e+00 6.572059e+00 -5.633226e+00 9.616327e-01 -1.082666e+01 -9.410102e+00 -1.961817e+00 5.142401e+00 -1.064026e+01 -1.015347e+01 1.893842e+01 -3.987599e-01 5.230110e-01 3.795847e+00 1.221204e-02 -2.159537e+00 2.172693e+00 3.077774e-02 -4.726509e-01 -2.908756e+00 3.123800e-01 -1.834349e+00 1.286352e+00 2.346420e-01 6.216963e-02 -3.757266e-01 -1.933503e-01 -7.937032e-01 -8.712827e-01 -3.504147e-01 1.000835e+00 -6.199320e-01 -5.673792e-02 2.781392e-01 7.259811e-01 8.096538e-01 1.491912e-01 
-1.673917e+00 1.250578e+00 -3.243343e+00 4.118104e+00 -1.040026e+01 1.310758e+00 -3.238495e+00 -9.619878e+00 -5.683871e+00 5.424176e-01 -7.370054e+00 -8.145432e+00 1.933697e+01 1.779929e-01 1.702018e-01 3.004715e+00 -1.095091e+00 -3.321156e+00 1.785177e+00 1.444462e+00 -1.310626e+00 -3.033067e+00 1.071180e+00 2.524310e-01 9.671615e-01 3.599419e-01 1.395923e-01 -7.511266e-01 -5.255374e-01 -4.851212e-01 -3.614857e-01 -5.668647e-01 -6.065543e-02 2.445216e-01 9.607253e-02 -2.514511e-01 8.599440e-01 6.092497e-01 1.123994e-01 
-1.246103e+00 -1.961148e-01 -3.445572e+00 5.612612e+00 -1.357533e+01 3.928754e+00 -1.959417e+00 -9.780841e+00 -9.422821e+00 3.527158e+00 -7.114799e+00 -3.152005e+00 1.968709e+01 6.852496e-01 -5.630617e-01 1.219710e+00 -1.474256e+00 -2.671062e+00 6.469575e-01 1.698695e+00 -1.139851e+00 -3.313470e+00 7.228972e-01 5.391365e-01 1.853017e+00 4.683163e-01 -1.120512e-01 -8.951964e-01 -2.451605e-01 -3.552430e-01 -2.261254e-01 -6.167012e-01 -9.894873e-01 1.315544e+00 2.221984e-01 -1.133879e+00 8.006760e-01 -3.144660e-02 5.748497e-02 
9.883065e-01 -2.490048e+00 2.805689e-01 2.094599e+00 -1.685548e+01 4.560326e+00 -5.260294e-01 -1.356827e+01 -1.258054e+01 8.309650e+00 -6.301329e+00 -7.962161e+00 2.005268e+01 1.210599e-01 -2.274831e+00 2.313069e+00 -8.102123e-01 -3.092080e+00 3.134859e-01 -1.897243e+00 1.716173e+00 -2.314698e+00 -1.369916e+00 4.559334e-01 2.083693e+00 4.891098e-01 -5.756246e-01 -7.511723e-01 -1.314781e-02 -4.233751e-01 1.086840e-01 -8.043317e-01 -1.490989e+00 1.987913e+00 3.392810e-01 -1.718357e+00 6.552448e-01 -4.686736e-01 -5.764124e-03 
1.480473e+00 -2.500485e+00 9.349056e-01 2.125293e-01 -1.576092e+01 2.571636e+00 -3.689420e+00 -1.313516e+01 -1.508083e+01 4.873271e+00 -8.478943e+00 -9.800248e-01 2.092215e+01 -9.305494e-01 -2.730455e+00 2.915868e+00 -1.906442e+00 -3.404702e+00 -1.749678e-01 -3.245806e+00 4.591670e+00 -2.156949e+00 -4.136466e+00 2.067280e+00 5.708530e-01 4.574829e-01 -7.267095e-01 -3.093829e-01 -2.211511e-01 -6.461193e-01 4.242592e-01 -7.375397e-01 -1.158724e+00 1.450439e+00 2.324123e-01 -1.159329e+00 5.682836e-01 -1.257697e+00 -7.661457e-02 
-2.431905e+00 -8.971391e+00 6.131763e+00 2.767083e+00 -2.476786e+01 3.556747e+00 -1.185971e+01 6.381461e-01 -1.442836e+01 -6.980217e+00 -4.408316e+00 1.187040e+00 2.116499e+01 -1.892230e+00 -2.501963e+00 2.090897e+00 -2.995873e+00 -2.410916e+00 -1.825519e+00 -3.538232e+00 5.763181e+00 -1.914923e+00 -5.090921e+00 2.764583e+00 -7.351246e-01 3.365379e-01 -2.918573e-01 4.810877e-01 -1.180945e+00 -7.732562e-01 1.362196e+00 -7.644578e-01 2.158461e-01 -1.507435e-01 3.148257e-01 2.277343e-01 -8.785158e-02 -1.273519e+00 -1.079325e-01 
-4.188744e+00 -1.060772e+01 8.208170e+00 -4.255840e+00 -2.664265e+01 3.555705e+00 -1.252161e+01 6.074301e+00 -1.928366e+01 -9.510238e+00 2.275094e+00 -4.872341e+00 2.141835e+01 -1.941653e+00 -1.996410e+00 2.250404e-01 -3.612022e+00 -8.903477e-01 -1.971238e+00 -3.274432e+00 4.088840e+00 -2.351296e+00 -3.213245e+00 2.226229e+00 -3.026059e+00 1.615293e-01 2.805606e-01 8.880030e-01 -2.048743e+00 -2.078847e-01 1.828354e+00 -6.205393e-01 7.965438e-01 -1.651007e+00 1.090048e+00 1.012568e+00 -1.400517e+00 -5.140375e-01 -1.030691e-01 
-5.638237e+00 -1.094625e+01 7.098421e+00 -1.065058e+01 -2.346920e+01 -5.059305e+00 -1.380109e+01 5.642909e+00 -2.005374e+01 -9.953202e+00 2.144568e+00 -9.691626e+00 2.148726e+01 -8.326748e-01 -2.364146e-01 -2.246243e+00 -3.823703e+00 2.461722e+00 -2.610667e+00 -8.037001e-01 1.213870e+00 -6.433958e-01 -6.928549e-01 -6.279922e-02 -2.485446e+00 9.742413e-02 6.422471e-01 9.806086e-01 -2.142908e+00 4.269485e-01 1.570848e+00 -3.017887e-02 9.772804e-01 -2.157277e+00 1.720912e+00 9.652654e-01 -1.969234e+00 4.135248e-01 -6.161682e-02 
-6.624626e+00 -1.149511e+01 1.576778e+00 -1.113875e+01 -2.086199e+01 -2.976530e+00 -1.909089e+01 4.806655e+00 -2.402462e+01 -9.706463e+00 -6.242374e-01 -1.067099e+01 2.156866e+01 -5.752439e-02 5.767857e-01 -5.159276e+00 -2.531951e+00 3.300751e+00 -2.885090e+00 -6.303531e-01 -1.388711e+00 2.657529e+00 -1.272657e+00 -3.521615e+00 -1.124174e+00 6.169453e-02 5.726384e-01 7.324414e-01 -1.420723e+00 6.657093e-01 8.497216e-01 3.170013e-01 4.902067e-01 -1.783306e+00 1.659479e+00 3.083572e-01 -1.668965e+00 8.984281e-01 -2.325199e-02 
-5.377338e+00 -9.709769e+00 -1.783756e+00 -1.290998e+01 -1.534958e+01 -6.230474e+00 -1.259357e+01 7.341321e+00 -1.527485e+01 -1.034638e+01 -3.272646e+00 -8.340867e+00 2.157696e+01 3.769408e-01 1.114482e+00 -5.931487e+00 -1.401167e+00 3.347775e+00 -1.519488e+00 2.613106e-02 -2.284427e+00 4.185226e+00 -1.234889e+00 -4.207666e+00 3.815567e-01 7.837124e-02 2.872524e-01 2.271176e-01 -1.444118e-01 6.935290e-01 -1.336992e-01 9.558753e-01 -6.674754e-01 -1.011218e+00 2.645493e-01 3.037916e-01 -6.107439e-01 5.538412e-01 -1.753080e-02 
-4.606815e+00 -8.342029e+00 -1.314712e+01 -1.578590e+01 -1.419870e+01 -1.028416e+01 -1.627714e+01 -1.718458e+00 -8.385456e+00 -1.567693e+01 -1.262438e+01 -1.116859e+01 2.168198e+01 3.167314e-01 9.903490e-01 -5.035953e+00 -1.494744e+00 2.915234e+00 -9.318218e-01 -1.238315e+00 -3.078545e+00 3.531786e+00 -1.400442e+00 -4.046161e+00 3.257952e-02 5.479584e-02 2.206285e-01 8.054244e-03 1.480659e+00 6.529342e-01 -6.800824e-01 1.284393e+00 -8.144428e-01 -4.845527e-01 -1.439236e+00 1.107543e+00 7.570575e-01 1.310842e-01 -2.606710e-02 
-4.762438e+00 -6.950379e+00 -1.519706e+01 -1.533284e+01 -1.006197e+01 -9.002929e+00 -1.507732e+01 -2.516672e+00 -6.947193e+00 -1.314241e+01 -1.289369e+01 -7.535042e+00 2.182246e+01 4.164594e-01 6.923919e-01 -3.029964e+00 -8.746616e-01 1.985985e+00 1.192075e+00 -3.837096e+00 -2.997302e+00 2.422225e-01 8.899959e-01 -2.854246e+00 -2.946165e-01 1.321945e-02 2.694752e-01 3.402717e-02 2.158104e+00 6.955211e-01 -1.133030e+00 8.811688e-01 -2.762315e-01 -5.653723e-01 -2.223403e+00 1.288540e+00 1.141225e+00 -1.857100e-01 -2.938559e-02 
-5.348419e+00 -7.923057e+00 -1.689633e+01 -1.740104e+01 -8.929633e+00 -6.249412e+00 -2.404059e+01 -5.657071e+00 -1.052952e+01 -1.531066e+01 -1.604452e+01 -1.091100e+01 2.171988e+01 1.025859e+00 8.281018e-01 7.932553e-01 4.694677e-01 5.812343e-01 2.181095e+00 -2.770953e+00 -3.455037e+00 -2.567147e+00 3.202615e+00 -4.130379e-01 -1.306663e-01 -3.606510e-02 3.311517e-01 2.913391e-01 1.969601e+00 8.521088e-01 -1.164788e+00 3.547570e-01 1.031408e+00 -2.713983e-01 -1.537929e+00 1.036519e+00 1.104810e+00 -5.215100e-03 -1.629784e-02 
-2.924239e+00 -6.457296e+00 -1.505897e+01 -1.647572e+01 -8.054194e+00 -2.287474e+00 -2.789733e+01 -5.675884e+00 -1.299171e+01 -6.079538e+00 -1.583380e+01 -9.942742e+00 2.162410e+01 1.369753e+00 1.365741e+00 1.944431e+00 1.094333e+00 -1.150377e+00 1.329898e+00 -5.887071e-01 -4.923043e+00 -3.882321e+00 2.906281e+00 -3.181024e-01 -4.653703e-01 -2.312622e-02 1.404162e-01 3.567853e-01 1.057361e+00 5.823881e-01 -7.769246e-01 -3.213673e-01 1.818708e+00 2.591152e-01 -9.211759e-02 -4.253491e-02 6.330389e-01 6.612171e-02 -5.008888e-04 
-3.966202e-01 -4.448061e+00 -9.249891e+00 -1.286712e+01 -1.229642e+01 -2.736416e+00 -2.372190e+01 -1.741404e+01 -1.819893e+01 -3.195295e+00 -1.321951e+01 -1.061807e+01 2.160083e+01 1.495843e+00 2.110370e+00 2.324855e+00 1.781303e+00 -1.340526e+00 7.730517e-01 2.294530e+00 -3.472666e+00 -2.095587e+00 2.774008e+00 2.098191e-01 9.188090e-02 -8.520508e-03 -1.783283e-01 1.162137e-01 -1.371807e-01 5.195815e-02 -7.616673e-02 -4.370027e-01 1.152321e+00 1.221751e+00 1.060210e+00 -7.495656e-01 6.324606e-02 6.490472e-02 6.228809e-03 
-3.895713e-01 -1.859172e+00 -9.298126e+00 -1.212814e+01 -1.413046e+01 -4.109937e+00 -1.818020e+01 -2.125340e+01 -2.252409e+01 -4.668685e+00 -1.589671e+01 -1.000836e+01 2.176636e+01 8.835484e-01 1.835184e+00 1.491040e+00 1.381361e+00 -9.377581e-01 2.892600e-01 2.723704e+00 -1.692912e+00 -4.541453e-01 8.916245e-01 -4.800796e-04 -7.528152e-02 -3.057289e-03 -3.103390e-01 -1.318506e-01 -5.211574e-01 -2.212736e-01 3.923554e-01 -1.883646e-01 2.886228e-01 1.643472e+00 1.291968e+00 -7.200226e-01 -3.404705e-02 8.352985e-02 9.906387e-04 
8.634614e-01 3.297299e-01 -8.152478e+00 -1.066831e+01 -1.259413e+01 -1.472922e+00 -1.742650e+01 -1.523164e+01 -1.624127e+01 -2.146042e+00 -1.496397e+01 -1.041879e+01 2.160615e+01 3.773196e-01 1.174448e+00 3.340474e-01 5.857442e-01 9.409104e-02 5.164005e-01 1.334448e+00 1.038655e+00 1.019815e+00 4.621149e-01 -2.556188e-01 -1.187038e-03 -1.495552e-02 -2.743275e-01 -2.532578e-01 -5.138606e-01 -3.186734e-01 3.901083e-01 -2.861621e-02 -3.309420e-01 1.175421e+00 7.704766e-01 -5.053296e-01 -1.186014e-01 -1.120414e-02 -2.476826e-03 
