# 3ds Max Wavefront OBJ Exporter v0.97b - (c)2007 guruware
# File Created: 18.08.2016 02:37:25

#
# object Cylinder001
#

v  102.5085 0.0000 -0.0000
v  94.7055 0.0000 -39.2283
v  72.4844 0.0000 -72.4844
v  39.2283 0.0000 -94.7055
v  -0.0000 0.0000 -102.5085
v  -39.2283 0.0000 -94.7055
v  -72.4844 0.0000 -72.4844
v  -94.7055 0.0000 -39.2283
v  -102.5085 0.0000 -0.0000
v  -94.7055 0.0000 39.2283
v  -72.4844 0.0000 72.4844
v  -39.2283 0.0000 94.7055
v  0.0000 0.0000 102.5085
v  39.2283 0.0000 94.7055
v  72.4844 0.0000 72.4844
v  94.7055 0.0000 39.2282
v  90.2800 337.5108 0.0000
v  83.4079 337.5108 -34.5487
v  63.8376 337.5108 -63.8376
v  34.5487 337.5108 -83.4079
v  -0.0000 337.5108 -90.2800
v  -34.5487 337.5108 -83.4079
v  -63.8376 337.5108 -63.8376
v  -83.4079 337.5108 -34.5487
v  -90.2800 337.5108 -0.0000
v  -83.4079 337.5108 34.5486
v  -63.8376 337.5108 63.8376
v  -34.5487 337.5108 83.4079
v  0.0000 337.5108 90.2800
v  34.5487 337.5108 83.4079
v  63.8376 337.5108 63.8376
v  83.4079 337.5108 34.5486
v  -72.4844 244.7634 72.4844
v  -94.7055 244.7634 39.2283
v  -102.5085 244.7634 -0.0000
v  -94.7055 244.7634 -39.2283
v  -72.4844 244.7634 -72.4844
v  -39.2283 244.7634 -94.7055
v  -0.0000 244.7634 -102.5085
v  39.2283 244.7634 -94.7055
v  72.4844 244.7634 -72.4844
v  94.7055 244.7634 -39.2283
v  102.5085 244.7634 -0.0000
v  94.7055 244.7634 39.2282
v  72.4844 244.7634 72.4844
v  39.2283 244.7634 94.7055
v  0.0000 244.7634 102.5085
v  -39.2283 244.7634 94.7055
v  121.5753 337.5108 -50.3588
v  131.5925 337.5108 -0.0000
v  121.5759 337.5108 50.3576
v  93.0499 337.5108 93.0499
v  50.3583 337.5108 121.5756
v  0.0000 337.5108 131.5925
v  -50.3583 337.5108 121.5756
v  -93.0499 337.5108 93.0499
v  -121.5754 337.5108 50.3588
v  -131.5925 337.5108 -0.0000
v  -121.5753 337.5108 -50.3588
v  -93.0504 337.5108 -93.0495
v  -50.3583 337.5108 -121.5756
v  -0.0000 337.5108 -131.5925
v  50.3588 337.5108 -121.5753
v  93.0499 337.5108 -93.0499
v  131.5925 244.7634 0.0006
v  121.5753 244.7634 -50.3588
v  93.0499 244.7634 -93.0499
v  50.3588 244.7634 -121.5753
v  -0.0000 244.7634 -131.5925
v  -50.3583 244.7634 -121.5756
v  -93.0504 244.7634 -93.0495
v  -121.5753 244.7634 -50.3588
v  -131.5925 244.7634 -0.0000
v  -121.5754 244.7634 50.3588
v  -93.0499 244.7634 93.0499
v  -50.3583 244.7634 121.5756
v  0.0000 244.7634 131.5925
v  50.3583 244.7634 121.5756
v  93.0500 244.7634 93.0499
v  121.5756 244.7634 50.3582
v  90.2800 14.4317 0.0000
v  83.4079 14.4317 -34.5487
v  63.8376 14.4317 -63.8376
v  34.5487 14.4317 -83.4079
v  -0.0000 14.4317 -90.2800
v  -34.5487 14.4317 -83.4079
v  -63.8376 14.4317 -63.8376
v  -83.4079 14.4317 -34.5487
v  -90.2800 14.4317 -0.0000
v  -83.4079 14.4317 34.5486
v  -63.8376 14.4317 63.8376
v  -34.5487 14.4317 83.4079
v  0.0000 14.4317 90.2800
v  34.5487 14.4317 83.4079
v  63.8376 14.4317 63.8376
v  83.4079 14.4317 34.5486
v  -51.2542 0.0000 21.2302
v  21.2302 0.0000 51.2542
v  51.2542 0.0000 -21.2302
v  -21.2302 0.0000 -51.2542
v  15.0120 0.0000 -36.2422
v  -15.0120 0.0000 36.2422
v  -36.2422 0.0000 -15.0120
v  0.0000 0.0000 -0.0000
v  36.2422 0.0000 15.0120
v  17.5413 14.4317 -46.5712
v  -46.2200 14.4317 -20.3252
v  -14.7191 14.4317 -34.5395
v  -18.7458 14.4317 45.6116
v  12.6541 14.4317 32.9199
v  45.1030 14.4317 19.1588
v  -32.9678 14.4317 11.7228
v  -1.4452 14.4317 -1.8269
v  31.0490 14.4317 -14.3576
# 114 vertices

g Cylinder001
f 2 42 43 1 
f 3 41 42 2 
f 4 40 41 3 
f 5 39 40 4 
f 6 38 39 5 
f 7 37 38 6 
f 8 36 37 7 
f 9 35 36 8 
f 10 34 35 9 
f 11 33 34 10 
f 12 48 33 11 
f 13 47 48 12 
f 14 46 47 13 
f 15 45 46 14 
f 16 44 45 15 
f 1 43 44 16 
f 14 13 98 15 
f 107 87 88 89 
f 49 50 65 66 
f 64 49 66 67 
f 63 64 67 68 
f 62 63 68 69 
f 61 62 69 70 
f 60 61 70 71 
f 59 60 71 72 
f 58 59 72 73 
f 57 58 73 74 
f 56 57 74 75 
f 55 56 75 76 
f 54 55 76 77 
f 53 54 77 78 
f 52 53 78 79 
f 51 52 79 80 
f 50 51 80 65 
f 18 17 50 49 
f 17 32 51 50 
f 32 31 52 51 
f 31 30 53 52 
f 30 29 54 53 
f 29 28 55 54 
f 28 27 56 55 
f 27 26 57 56 
f 26 25 58 57 
f 25 24 59 58 
f 24 23 60 59 
f 23 22 61 60 
f 22 21 62 61 
f 21 20 63 62 
f 20 19 64 63 
f 19 18 49 64 
f 43 42 66 65 
f 42 41 67 66 
f 41 40 68 67 
f 40 39 69 68 
f 39 38 70 69 
f 38 37 71 70 
f 37 36 72 71 
f 36 35 73 72 
f 35 34 74 73 
f 34 33 75 74 
f 33 48 76 75 
f 48 47 77 76 
f 47 46 78 77 
f 46 45 79 78 
f 45 44 80 79 
f 44 43 65 80 
f 17 18 82 81 
f 18 19 83 82 
f 19 20 84 83 
f 20 21 85 84 
f 21 22 86 85 
f 22 23 87 86 
f 23 24 88 87 
f 24 25 89 88 
f 25 26 90 89 
f 26 27 91 90 
f 27 28 92 91 
f 28 29 93 92 
f 29 30 94 93 
f 30 31 95 94 
f 31 32 96 95 
f 32 17 81 96 
f 10 9 97 11 
f 12 11 97 102 
f 6 5 100 7 
f 5 4 101 100 
f 99 3 2 1 
f 16 15 98 105 
f 97 103 104 102 
f 103 97 9 8 
f 3 99 101 4 
f 98 102 104 105 
f 12 102 98 13 
f 7 100 103 8 
f 100 101 104 103 
f 101 99 105 104 
f 16 105 99 1 
f 106 83 84 85 
f 89 90 112 107 
f 86 87 107 108 
f 107 112 113 108 
f 114 82 83 106 
f 92 93 109 91 
f 93 94 110 109 
f 111 95 96 81 
f 95 111 110 94 
f 106 108 113 114 
f 108 106 85 86 
f 91 109 112 90 
f 113 112 109 110 
f 110 111 114 113 
f 114 111 81 82 
# 112 polygons

